<?xml version="1.0" encoding="UTF-16"?>
<!DOCTYPE svg PUBLIC "-//W3C//DTD SVG 1.1//EN" "http://www.w3.org/Graphics/SVG/1.1/DTD/svg11.dtd">
<!-- Creator: CorelDRAW X5 -->
<svg xmlns="http://www.w3.org/2000/svg" xml:space="preserve" width="20mm" height="20mm" style="shape-rendering:geometricPrecision; text-rendering:geometricPrecision; image-rendering:optimizeQuality; fill-rule:evenodd; clip-rule:evenodd"
viewBox="0 0 2000 2000"
 xmlns:xlink="http://www.w3.org/1999/xlink">
 <defs>
  <style type="text/css">
   <![CDATA[
    .fil1 {fill:#F8F200}
    .fil0 {fill:#F9D000}
   ]]>
  </style>
 </defs>
 <g id="Warstwa_x0020_1">
  <metadata id="CorelCorpID_0Corel-Layer"/>
  <g id="_253270936">
   <path class="fil0" d="M1105 547c0,0 -65,-498 -390,-455 -325,43 -448,433 -159,628 334,226 -59,33 -328,62 -168,18 -288,155 -152,433 115,235 357,195 469,119 112,-76 162,-123 162,-123 0,0 -173,329 -54,509 187,283 587,236 592,-43 4,-202 0,-343 0,-343 185,233 540,336 691,77 107,-183 23,-456 -211,-531 -134,-43 -166,-47 -166,-47 276,-125 382,-430 155,-617 -211,-174 -489,-2 -531,242 -29,170 -79,90 -79,90z"/>
   <ellipse class="fil1" cx="1125" cy="966" rx="161" ry="173"/>
  </g>
 </g>
</svg>
