<?xml version="1.0" encoding="UTF-16"?>
<!DOCTYPE svg PUBLIC "-//W3C//DTD SVG 1.1//EN" "http://www.w3.org/Graphics/SVG/1.1/DTD/svg11.dtd">
<!-- Creator: CorelDRAW X5 -->
<svg xmlns="http://www.w3.org/2000/svg" xml:space="preserve" width="20mm" height="12mm" style="shape-rendering:geometricPrecision; text-rendering:geometricPrecision; image-rendering:optimizeQuality; fill-rule:evenodd; clip-rule:evenodd"
viewBox="0 0 2000 1200"
 xmlns:xlink="http://www.w3.org/1999/xlink">
 <defs>
  <style type="text/css">
   <![CDATA[
    .fil1 {fill:#84BB3B}
    .fil0 {fill:#8CC63E}
    .fil4 {fill:#F85260}
    .fil3 {fill:#FA54A8}
    .fil2 {fill:#FF7CA4}
   ]]>
  </style>
 </defs>
 <g id="Warstwa_x0020_1">
  <metadata id="CorelCorpID_0Corel-Layer"/>
  <g id="_253983240">
   <g>
    <path class="fil0" d="M1208 449c-31,61 -54,109 -63,113 4,-3 33,-64 63,-113zm690 400l0 0zm-895 -161c1,18 2,34 2,49 -2,-17 -2,-33 -2,-49zm-634 -553c72,176 171,440 171,638 0,-34 -63,-132 -80,-158l-19 -30c-58,-89 -197,-163 -286,-212 -46,-26 -79,-45 -79,-57l-25 25c0,12 33,31 79,57 90,67 89,81 171,246 95,190 53,143 102,288l-4 4c-81,174 131,148 171,109l2 -2c79,9 632,-1 666,-14 209,-22 375,-60 555,-133 48,-13 87,-28 106,-47l25 -25c-18,18 -57,33 -105,46 -108,29 -261,44 -323,41 5,-44 25,-6 33,-66 1,0 144,-82 253,-125 -109,30 -291,73 -419,49 -2,-14 -2,-14 8,-24 163,-157 362,-219 581,-240l-141 0c-106,0 -314,22 -406,113l-2 2c-14,14 -26,31 -33,49 25,-195 183,-350 183,-462 -130,27 -215,87 -306,188 -11,12 -24,33 -38,55 47,-91 111,-211 168,-254 -2,2 -12,9 -14,10l-36 34c-122,114 -312,263 -323,448 -10,-176 -68,-457 -87,-655 -24,11 -22,8 -19,32 -42,40 -16,40 -52,86 -119,153 6,422 -50,543 -8,-10 -44,-139 -46,-149 -33,-171 -251,-405 -380,-409z"/>
    <path class="fil1" d="M1899 848l0 0zm-1513 28c4,15 10,33 17,55l-4 4c-81,174 131,148 171,109l2 -2c79,9 632,-1 666,-14 209,-22 375,-60 555,-133 48,-13 88,-28 106,-47l25 -25c-18,18 -57,33 -105,46 -108,29 -261,44 -323,41 5,-44 25,-6 33,-66 1,0 144,-82 253,-125 -8,2 -17,5 -27,7 -121,31 -226,48 -394,42 -329,-12 -638,109 -975,108z"/>
   </g>
   <g>
    <path class="fil2" d="M1709 1124c-23,27 -56,44 -93,44 -20,0 -39,-5 -56,-14 -9,2 -19,3 -29,3 -69,0 -125,-58 -125,-129 0,-21 5,-41 14,-59 -56,-12 -99,-64 -99,-126 0,-68 51,-124 117,-129 -1,-8 -2,-16 -2,-25 0,-71 56,-129 125,-129 24,0 47,7 66,19 22,-19 49,-30 80,-30 51,0 95,32 114,77 62,7 111,62 111,128 0,19 -4,38 -11,54 19,23 31,53 31,85 0,46 -23,86 -57,109 0,2 0,4 0,6 0,71 -56,129 -125,129 -21,0 -42,-6 -59,-15z"/>
    <path class="fil3" d="M1686 1041c-16,18 -39,30 -64,30 -14,0 -27,-3 -39,-10 -6,2 -13,2 -20,2 -47,0 -86,-40 -86,-89 0,-14 3,-28 9,-40 -39,-9 -68,-44 -68,-87 0,-47 35,-85 80,-88 -1,-5 -2,-11 -2,-17 0,-49 38,-89 86,-89 17,0 32,5 45,13 15,-13 34,-20 55,-20 35,0 65,22 78,53 43,5 76,42 76,88 0,13 -3,26 -8,37 13,16 21,36 21,59 0,31 -16,59 -39,74 0,1 0,3 0,4 0,49 -38,89 -86,89 -15,0 -29,-4 -41,-11z"/>
    <circle class="fil4" cx="1636" cy="859" r="102"/>
   </g>
  </g>
 </g>
</svg>
