<?xml version="1.0" encoding="UTF-16"?>
<!DOCTYPE svg PUBLIC "-//W3C//DTD SVG 1.1//EN" "http://www.w3.org/Graphics/SVG/1.1/DTD/svg11.dtd">
<!-- Creator: CorelDRAW X5 -->
<svg xmlns="http://www.w3.org/2000/svg" xml:space="preserve" width="20mm" height="19mm" style="shape-rendering:geometricPrecision; text-rendering:geometricPrecision; image-rendering:optimizeQuality; fill-rule:evenodd; clip-rule:evenodd"
viewBox="0 0 2000 1900"
 xmlns:xlink="http://www.w3.org/1999/xlink">
 <defs>
  <style type="text/css">
   <![CDATA[
    .fil0 {fill:#3AB54A}
    .fil1 {fill:#62D9F1}
    .fil2 {fill:#F8F200}
   ]]>
  </style>
 </defs>
 <g id="Warstwa_x0020_1">
  <metadata id="CorelCorpID_0Corel-Layer"/>
  <g id="_253983720">
   <path class="fil0" d="M339 1428l1169 -11c0,0 -135,-281 50,-469 185,-188 380,-281 380,-281 0,0 -267,-153 -430,-82 -163,71 -249,139 -249,139 0,0 28,-316 146,-437 117,-121 178,-217 178,-217 0,0 -259,-71 -441,103 -181,174 -284,402 -284,402 0,0 4,-50 -160,-163 -163,-114 -515,-99 -515,-99 0,0 203,117 252,238 50,121 60,210 60,210 0,0 -60,-11 -192,-21 -131,-11 -242,57 -242,57 0,0 174,36 245,192 71,156 32,441 32,441z"/>
   <g>
    <path class="fil1" d="M1506 1173c0,0 -32,-245 -192,-224 -160,21 -220,213 -78,309 165,111 -29,16 -162,30 -83,9 -142,76 -75,213 57,115 176,96 231,59 55,-37 80,-60 80,-60 0,0 -85,162 -27,251 92,139 289,116 291,-21 2,-100 0,-169 0,-169 91,115 266,165 340,38 53,-90 11,-224 -104,-262 -66,-21 -82,-23 -82,-23 136,-61 188,-212 76,-304 -104,-86 -241,-1 -261,119 -14,84 -39,44 -39,44z"/>
    <ellipse class="fil2" cx="1516" cy="1379" rx="79" ry="85"/>
   </g>
  </g>
 </g>
</svg>
