<?xml version="1.0" encoding="UTF-16"?>
<!DOCTYPE svg PUBLIC "-//W3C//DTD SVG 1.1//EN" "http://www.w3.org/Graphics/SVG/1.1/DTD/svg11.dtd">
<!-- Creator: CorelDRAW X5 -->
<svg xmlns="http://www.w3.org/2000/svg" xml:space="preserve" width="70mm" height="50mm" style="shape-rendering:geometricPrecision; text-rendering:geometricPrecision; image-rendering:optimizeQuality; fill-rule:evenodd; clip-rule:evenodd"
viewBox="0 0 7000 5000"
 xmlns:xlink="http://www.w3.org/1999/xlink">
 <defs>
  <style type="text/css">
   <![CDATA[
    .str0 {stroke:black;stroke-width:20}
    .fil0 {fill:#854400}
   ]]>
  </style>
 </defs>
 <g id="Warstwa_x0020_1">
  <metadata id="CorelCorpID_0Corel-Layer"/>
  <path class="fil0 str0" d="M4153 52c163,172 90,447 -75,641 6,8 12,17 18,26 51,77 -26,148 -90,183 -20,3 -40,-6 -51,-22 -68,18 -181,53 -213,93 -113,577 -36,220 -142,427 -44,86 -51,217 -40,362 65,-414 314,-417 792,-462 398,-38 42,-476 632,-957 30,-24 17,-28 66,-55 60,-29 113,67 43,101 -7,4 -34,34 -37,37 -496,401 -267,813 -538,944l0 0c282,-38 -169,-234 854,-329 95,-9 183,-14 267,-20 18,-129 57,-143 80,-228 -49,-78 29,-193 97,-249 55,-46 125,39 70,84 -69,57 -60,41 -63,128 28,69 -48,152 -71,256 210,-20 397,-57 602,-181 60,-35 118,58 53,96 -114,69 -221,113 -329,142 61,29 150,70 241,108 121,-52 172,-49 279,-85l2 11c84,-5 114,21 15,85l2 11 -31 6c-22,13 -49,27 -81,42 100,32 175,43 179,5 4,-79 113,-66 109,0 -20,195 -265,139 -484,49 -21,12 -56,40 -90,3 -12,-14 -16,-32 -13,-48 -111,-51 -203,-102 -236,-119 -18,-6 -31,-20 -36,-37 -168,28 -344,32 -554,52 -1022,95 -432,268 -838,327 -10,5 -21,7 -33,6 -357,109 -528,264 -683,504 -8,16 -17,33 -25,50 -51,195 -71,416 -79,644 62,159 145,436 279,524 22,15 31,42 34,73 23,37 42,90 52,162 75,510 -148,1034 307,1295 313,179 28,148 -29,150 -168,112 -819,-71 -1204,57l-1 -1c-48,11 -89,9 -86,-34 -37,14 -76,25 -118,31 -83,58 -244,4 -125,-88 48,-91 338,-119 399,-230 22,-203 223,-288 334,-711 2,-8 7,-25 14,-48 -2,-79 -4,-178 7,-315 16,-204 19,-381 19,-544 -15,-20 -30,-41 -45,-62 -258,-346 -317,-807 -652,-1134 -225,-220 -680,-285 -1116,-333 -3,71 -115,71 -109,-10 -29,8 -117,-19 -180,4 -678,250 -415,266 -1248,-34 -74,-23 -35,-126 29,-106 870,313 874,186 1022,90 -304,-44 -536,-110 -574,-266 -4,-30 18,-57 48,-61 29,-4 56,16 61,45 144,195 505,196 914,219 19,-16 40,-32 58,-47 46,-224 -166,-407 -304,-573 -39,-52 43,-124 91,-61 215,258 434,451 283,689 452,33 938,119 1245,533 207,279 258,495 424,787 -46,-211 -86,-372 -52,-557 -122,-740 53,-551 -265,-802l-61 -28c-29,44 -100,25 -100,-30 -2,-72 6,-113 17,-138 4,-52 24,-107 51,-160 -4,-20 -10,-44 -18,-73 -226,-13 -391,11 -622,-9l16 2c-196,0 -333,-163 -517,-199 -82,-9 -58,-116 3,-109 424,77 175,224 822,201l157 -4c-195,-114 -433,-272 -442,-419 0,-63 109,-74 109,7 16,231 404,204 540,426l57 11c39,-51 70,-85 71,-87 12,-193 26,-212 -111,-333 -57,-48 16,-130 69,-85 341,299 75,553 -40,727 -4,42 -13,88 -27,139 173,142 249,181 285,224 23,-52 56,-92 103,-114 3,-15 5,-30 7,-44 -6,8 -12,15 -19,24 -46,49 -130,-21 -77,-77 102,-118 -12,-292 111,-311 69,-64 244,-120 254,-128 18,-12 36,-26 54,-41 -204,-200 -95,-7 -315,-445 -32,-64 66,-114 98,-49 193,384 233,365 298,412 122,-147 193,-350 83,-474 -61,-57 22,-127 67,-86z"/>
 </g>
</svg>
