<?xml version="1.0" encoding="UTF-16"?>
<!DOCTYPE svg PUBLIC "-//W3C//DTD SVG 1.1//EN" "http://www.w3.org/Graphics/SVG/1.1/DTD/svg11.dtd">
<!-- Creator: CorelDRAW X5 -->
<svg xmlns="http://www.w3.org/2000/svg" xml:space="preserve" width="55mm" height="80mm" style="shape-rendering:geometricPrecision; text-rendering:geometricPrecision; image-rendering:optimizeQuality; fill-rule:evenodd; clip-rule:evenodd"
viewBox="0 0 5500 8000"
 xmlns:xlink="http://www.w3.org/1999/xlink">
 <defs>
  <style type="text/css">
   <![CDATA[
    .str1 {stroke:gray;stroke-width:7.62}
    .str0 {stroke:black;stroke-width:20}
    .fil5 {fill:none}
    .fil0 {fill:#4E4E4E}
    .fil2 {fill:#BE2D21}
    .fil9 {fill:#C31845}
    .fil4 {fill:#D77D1A}
    .fil7 {fill:#E5F9DF}
    .fil6 {fill:#F3DF39}
    .fil3 {fill:white}
    .fil8 {fill:#C31845;fill-rule:nonzero}
    .fil1 {fill:#D77D1A;fill-rule:nonzero}
   ]]>
  </style>
 </defs>
 <g id="Warstwa_x0020_1">
  <metadata id="CorelCorpID_0Corel-Layer"/>
  <g id="_273216192">
   <polygon class="fil0" points="10281,6703 10280,7016 10382,7019 10385,6705 10625,6704 10625,7023 10861,7015 10860,6709 11108,6708 11109,7016 11247,7018 11246,6703 11246,5065 12390,5065 12390,6703 12389,7019 12523,7019 12523,6712 12720,6710 12721,7019 12931,7019 12962,7017 12961,6707 13181,6708 13181,7020 13352,7020 13355,6703 13355,6399 14499,6399 14499,7000 14498,7000 14498,9167 9137,9167 9137,6996 9137,6996 9137,3247 10281,3261 "/>
   <path class="fil1" d="M12859 5077l-2130 3 1091 -1471 1039 1468zm-1065 2m-520 -734m1065 -2"/>
   <polygon class="fil2" points="12883,5808 13188,5807 13202,5989 13408,5987 13407,5806 13569,5806 13569,5982 13799,5985 13798,5806 14031,5806 14033,5988 14289,5986 14289,5806 14472,5806 14470,5990 14645,5987 14649,5806 14877,5806 14708,6454 13040,6454 "/>
   <path class="fil3" d="M9536 7339l0 0c0,-5 0,-9 0,-14 0,-152 79,-275 176,-275 97,0 176,123 176,275 0,5 0,9 0,14l0 0 0 686 -353 0 0 -686z"/>
   <path class="fil3" d="M13785 7344l0 0c0,-5 0,-9 0,-14 0,-152 79,-275 176,-275 97,0 176,123 176,275 0,5 0,9 0,14l0 0 0 686 -353 0 0 -686z"/>
   <path class="fil4" d="M11378 8375l1 0c0,-5 -1,-11 -1,-16 0,-176 220,-319 490,-319 271,0 490,143 490,319 0,5 0,11 -1,16l1 0 0 794 -981 0 0 -794z"/>
   <path class="fil3" d="M11455 6241l0 0c0,-3 0,-5 0,-8 0,-85 44,-155 99,-155 55,0 99,69 99,155 0,3 0,5 0,8l0 0 0 385 -198 0 0 -385z"/>
   <path class="fil3" d="M11960 5669l0 0c0,-3 0,-5 0,-8 0,-85 44,-155 99,-155 55,0 99,69 99,155 0,3 0,5 0,8l0 0 0 385 -198 0 0 -385z"/>
   <line class="fil5 str0" x1="13305" y1="4656" x2="13305" y2= "5995" />
   <circle class="fil6" cx="13305" cy="4656" r="88"/>
   <path class="fil3" d="M11963 7010l0 0c0,-3 0,-5 0,-8 0,-85 44,-155 99,-155 55,0 99,69 99,155 0,3 0,5 0,8l0 0 0 385 -198 0 0 -385z"/>
   <path class="fil5" d="M13305 4752c0,0 235,-50 487,17 253,67 400,52 448,24 48,-29 -133,195 -219,195 -86,0 149,201 180,201 26,0 -239,0 -377,-23 -26,-4 -83,-14 -98,-19 -91,-32 -361,-51 -420,-41 0,-70 0,-354 0,-354z"/>
   <path class="fil4" d="M13305 4935c0,0 257,-31 403,3 146,34 287,61 287,61 0,0 73,97 140,150 22,17 34,36 54,37 86,8 -252,15 -474,-41 -222,-56 -410,-39 -410,-39l0 -170z"/>
   <path class="fil5" d="M13694 4748c0,0 -34,92 -38,152 -5,60 -34,225 -34,225"/>
   <path class="fil4" d="M13694 4748c-160,-25 -300,-10 -359,-1 -9,3 -19,5 -30,5l0 183c0,0 200,-24 347,-7 1,-11 2,-20 3,-28 5,-60 38,-152 38,-152z"/>
   <path class="fil2" d="M13653 4928c-147,-18 -347,7 -347,7l0 170c0,0 136,-12 313,19 1,0 3,0 4,1 0,0 22,-125 31,-197z"/>
   <path class="fil2" d="M13793 4769c-33,-9 -66,-16 -99,-21 0,0 -34,92 -38,152 -1,8 -2,17 -3,28 20,2 38,5 56,9 146,34 287,61 287,61 0,0 4,5 10,13 -5,-14 -1,-23 17,-23 86,0 267,-224 219,-195 -48,29 -195,43 -448,-24z"/>
   <path class="fil3" d="M9344 5703l0 0c0,-5 0,-9 0,-14 0,-152 79,-275 176,-275 97,0 176,123 176,275 0,5 0,9 0,14l0 0 0 686 -353 0 0 -686z"/>
   <path class="fil3" d="M9775 4734l0 0c0,-5 0,-9 0,-14 0,-152 79,-275 176,-275 97,0 176,123 176,275 0,5 0,9 0,14l0 0 0 686 -353 0 0 -686z"/>
   <path class="fil3" d="M9303 3723l0 0c0,-5 0,-9 0,-14 0,-152 79,-275 176,-275 97,0 176,123 176,275 0,5 0,9 0,14l0 0 0 686 -353 0 0 -686z"/>
   <polygon class="fil2" points="8641,2697 8946,2696 8961,2879 9166,2877 9165,2695 9327,2695 9327,2872 9557,2874 9556,2695 9790,2695 9791,2878 10047,2875 10047,2695 10231,2695 10228,2880 10403,2876 10407,2695 10636,2695 10466,3343 8798,3343 "/>
   <line class="fil5 str0" x1="11820" y1="3609" x2="11823" y2= "2919" />
   <line class="fil5 str0" x1="9063" y1="1538" x2="9063" y2= "2878" />
   <circle class="fil6" cx="9063" cy="1538" r="88"/>
   <circle class="fil6" cx="11823" cy="2919" r="88"/>
   <path class="fil5" d="M9063 1627c0,0 235,-50 487,17 253,67 400,52 448,24 48,-29 -133,195 -219,195 -86,0 149,201 180,201 26,0 -239,0 -377,-23 -26,-4 -83,-14 -98,-19 -91,-32 -361,-51 -420,-41 0,-70 0,-354 0,-354z"/>
   <path class="fil4" d="M9063 1809c0,0 257,-31 403,3 146,34 287,61 287,61 0,0 73,97 140,150 22,17 34,36 54,37 86,8 -252,15 -474,-41 -222,-56 -410,-39 -410,-39l0 -170z"/>
   <path class="fil5" d="M9452 1623c0,0 -34,92 -38,152 -5,60 -34,225 -34,225"/>
   <path class="fil4" d="M11823 3037c0,0 257,-31 403,3 514,120 271,115 867,171 86,8 -638,92 -860,36 -222,-56 -410,-39 -410,-39l0 -170z"/>
   <path class="fil4" d="M9452 1623c-160,-25 -300,-10 -359,-1 -9,3 -19,5 -30,5l0 183c0,0 200,-24 347,-7 1,-11 2,-20 3,-28 5,-60 38,-152 38,-152z"/>
   <path class="fil2" d="M9410 1802c-147,-18 -347,7 -347,7l0 170c0,0 136,-12 313,19 1,0 3,0 4,1 0,0 22,-125 31,-197z"/>
   <path class="fil2" d="M9550 1643c-33,-9 -66,-16 -99,-21 0,0 -34,92 -38,152 -1,8 -2,17 -3,28 20,2 38,5 56,9 146,34 287,61 287,61 0,0 4,5 10,13 -5,-14 -1,-23 17,-23 86,0 267,-224 219,-195 -48,29 -195,43 -448,-24z"/>
  </g>
  <polygon class="fil0 str1" points="11327,16082 11326,16393 11428,16396 11430,16083 11669,16083 11669,16400 11903,16392 11902,16088 12149,16087 12149,16393 12287,16394 12286,16082 12286,14453 13423,14453 13423,16082 13422,16395 13555,16396 13555,16090 13751,16089 13752,16396 13960,16396 13991,16394 13990,16085 14209,16086 14209,16397 14380,16397 14382,16082 14382,15780 15519,15780 15519,16376 15519,16376 15519,18531 10190,18531 10190,16373 10190,16373 10190,12647 11327,12661 "/>
  <path class="fil1 str1" d="M13889 14466l-2117 3 1084 -1462 1033 1459zm-1058 2m-516 -730m1058 -1"/>
  <polygon class="fil2 str1" points="9697,12100 10000,12099 10014,12281 10219,12279 10218,12098 10379,12098 10379,12274 10607,12276 10606,12098 10839,12098 10840,12280 11094,12277 11094,12098 11277,12098 11274,12282 11448,12278 11452,12098 11679,12098 11511,12743 9853,12743 "/>
  <polygon class="fil2 str1" points="13913,15192 14216,15191 14230,15372 14434,15370 14434,15190 14595,15190 14595,15365 14823,15368 14822,15190 15054,15190 15056,15371 15310,15369 15310,15190 15493,15190 15490,15373 15664,15370 15668,15190 15895,15190 15727,15834 14069,15834 "/>
  <path class="fil3" d="M10587 16714l0 0c0,-5 0,-9 0,-14 0,-151 78,-274 175,-274 97,0 175,123 175,274 0,5 0,9 0,14l0 0 0 682 -351 0 0 -682z"/>
  <path class="fil3" d="M14809 16719l0 0c0,-5 0,-9 0,-14 0,-151 78,-274 175,-274 97,0 175,123 175,274 0,5 0,9 0,14l0 0 0 682 -351 0 0 -682z"/>
  <path class="fil4" d="M12418 17743l1 0c0,-5 -1,-11 -1,-16 0,-175 218,-317 487,-317 269,0 487,142 487,317 0,5 0,11 -1,16l1 0 0 789 -975 0 0 -789z"/>
  <path class="fil3" d="M12493 15623l0 0c0,-3 0,-5 0,-8 0,-85 44,-154 98,-154 54,0 98,69 98,154 0,3 0,5 0,8l0 0 0 383 -197 0 0 -383z"/>
  <path class="fil3" d="M12995 15054l0 0c0,-3 0,-5 0,-8 0,-85 44,-154 98,-154 54,0 98,69 98,154 0,3 0,5 0,8l0 0 0 383 -197 0 0 -383z"/>
  <line class="fil5 str0" x1="12856" y1="13006" x2="12859" y2= "12321" />
  <line class="fil5 str0" x1="10116" y1="10949" x2="10116" y2= "12279" />
  <line class="fil5 str0" x1="14332" y1="14047" x2="14332" y2= "15378" />
  <circle class="fil6" cx="10116" cy="10949" r="88"/>
  <circle class="fil6" cx="14332" cy="14047" r="88"/>
  <circle class="fil6" cx="12859" cy="12321" r="88"/>
  <path class="fil5" d="M10116 11036c0,0 233,-50 484,17 251,66 398,52 445,24 47,-28 -133,194 -218,194 -85,0 148,200 179,200 26,0 -238,0 -375,-23 -26,-4 -83,-14 -98,-19 -90,-32 -359,-50 -418,-41 0,-70 0,-352 0,-352z"/>
  <path class="fil4" d="M10116 11218c0,0 255,-31 400,3 145,34 285,60 285,60 0,0 72,96 139,149 21,17 34,35 54,37 85,8 -251,15 -472,-41 -221,-56 -407,-39 -407,-39l0 -169z"/>
  <path class="fil5" d="M10503 11032c0,0 -33,92 -38,151 -5,59 -33,223 -33,223"/>
  <path class="fil4" d="M12859 12438c0,0 255,-31 400,3 511,119 269,114 862,170 85,8 -634,92 -855,36 -221,-56 -407,-39 -407,-39l0 -169z"/>
  <path class="fil4" d="M10503 11032c-159,-25 -298,-10 -357,-1 -9,3 -19,5 -30,5l0 182c0,0 199,-24 345,-7 1,-11 2,-20 3,-28 5,-59 38,-151 38,-151z"/>
  <path class="fil3" d="M12998 16386l0 0c0,-3 0,-5 0,-8 0,-85 44,-154 98,-154 54,0 98,69 98,154 0,3 0,5 0,8l0 0 0 383 -197 0 0 -383z"/>
  <path class="fil2" d="M10462 11211c-146,-18 -345,7 -345,7l0 169c0,0 135,-12 311,19 1,0 3,0 4,1 0,0 22,-124 31,-195z"/>
  <path class="fil2" d="M10601 11053c-33,-9 -66,-15 -98,-21 0,0 -33,92 -38,151 -1,8 -2,17 -3,28 20,2 38,5 55,9 145,34 285,60 285,60 0,0 4,5 10,13 -5,-14 -1,-23 16,-23 85,0 265,-223 218,-194 -47,28 -194,43 -445,-24z"/>
  <path class="fil5" d="M14333 14143c0,0 233,-50 484,17 251,66 398,52 445,24 47,-28 -133,194 -218,194 -85,0 148,200 179,200 26,0 -238,0 -375,-23 -26,-4 -83,-14 -98,-19 -90,-32 -359,-50 -418,-41 0,-70 0,-352 0,-352z"/>
  <path class="fil4" d="M14333 14324c0,0 255,-31 400,3 145,34 285,60 285,60 0,0 72,96 139,149 21,17 34,35 54,37 85,8 -251,15 -472,-41 -221,-56 -407,-39 -407,-39l0 -169z"/>
  <path class="fil5" d="M14719 14139c0,0 -33,92 -38,151 -5,59 -33,223 -33,223"/>
  <path class="fil4" d="M14719 14139c-159,-25 -298,-10 -357,-1 -9,3 -19,5 -30,5l0 182c0,0 199,-24 345,-7 1,-11 2,-20 3,-28 5,-59 38,-151 38,-151z"/>
  <path class="fil2" d="M14678 14317c-146,-18 -345,7 -345,7l0 169c0,0 135,-12 311,19 1,0 3,0 4,1 0,0 22,-124 31,-195z"/>
  <path class="fil2" d="M14817 14159c-33,-9 -66,-15 -98,-21 0,0 -33,92 -38,151 -1,8 -2,17 -3,28 20,2 38,5 55,9 145,34 285,60 285,60 0,0 4,5 10,13 -5,-14 -1,-23 16,-23 85,0 265,-223 218,-194 -47,28 -194,43 -445,-24z"/>
  <path class="fil3" d="M10395 15088l0 0c0,-5 0,-9 0,-14 0,-151 78,-274 175,-274 97,0 175,123 175,274 0,5 0,9 0,14l0 0 0 682 -351 0 0 -682z"/>
  <path class="fil3" d="M10824 14125l0 0c0,-5 0,-9 0,-14 0,-151 78,-274 175,-274 97,0 175,123 175,274 0,5 0,9 0,14l0 0 0 682 -351 0 0 -682z"/>
  <path class="fil3" d="M10354 13120l0 0c0,-5 0,-9 0,-14 0,-151 78,-274 175,-274 97,0 175,123 175,274 0,5 0,9 0,14l0 0 0 682 -351 0 0 -682z"/>
  <path class="fil7" d="M12655 13102c-91,148 -196,306 -234,387 -38,82 -161,296 -260,394 -99,99 -181,230 -239,305 -58,74 -107,70 33,101 140,31 255,-35 345,-60 91,-25 288,16 354,49 66,33 41,41 247,-8 206,-49 272,-91 329,-58 58,33 162,102 305,82 143,-20 263,16 230,-74 -33,-91 25,-140 -107,-230 -132,-91 -173,-91 -230,-214 -58,-123 -198,-370 -198,-370 0,0 -33,-107 -132,-206 -171,-171 -252,-413 -444,-99z"/>
  <path class="fil7" d="M14169 15106c66,4 120,214 133,221 44,23 85,-12 85,-12 22,-102 3,-207 130,-186 82,14 96,12 108,30 22,34 -12,96 27,152 40,57 174,73 164,-10 -6,-53 -34,-63 -25,-103 17,-79 101,-155 248,-71 59,34 100,132 96,167 -4,36 16,32 68,28 109,-8 19,-51 118,-166 31,-36 208,-67 208,8 0,63 -4,134 38,158 42,24 73,22 74,-60 2,-76 -34,-153 110,-153 115,0 185,13 196,68 11,55 21,83 -21,142 -42,59 9,55 -47,141 -56,86 -117,69 -159,85 -42,16 -107,-4 -218,-12 -111,-8 -168,-44 -245,-8 -77,36 -119,71 -199,75 -80,4 -107,44 -276,-4 -168,-47 -115,-55 -218,-59 -103,-4 -54,-12 -195,-4 -142,8 -98,6 -199,32 -101,25 -222,20 -241,-32 -19,-51 -19,-63 -27,-146 -20,-215 -143,-303 267,-281z"/>
  <path class="fil7" d="M11492 15883c22,0 151,-33 174,29 23,63 54,34 63,93 9,59 16,89 27,117 86,228 63,-34 192,-142 54,-44 60,-5 101,-45 42,-39 171,-59 198,0 27,59 63,88 71,152 8,54 155,320 27,333 -49,5 -80,5 -192,2 -112,-2 -223,-5 -302,10 -78,15 -118,7 -243,-2 -125,-10 -235,-15 -297,-34 -63,-20 -40,-201 -31,-225 9,-24 45,-130 29,-159 -78,-147 102,-130 183,-130z"/>
  <path class="fil7" d="M13544 15918c23,0 153,-33 176,29 23,63 54,34 63,93 9,59 16,89 27,117 87,228 64,-34 195,-142 54,-44 60,-5 103,-45 42,-39 173,-59 201,0 27,59 63,88 72,152 8,55 157,320 27,333 -40,4 -52,56 -120,55 -17,0 -52,-52 -75,-53 -113,-2 -219,32 -299,46 -79,15 -127,-29 -253,-39 -39,-3 -56,39 -90,36 -79,-6 -167,-57 -211,-70 -63,-20 -41,-201 -32,-225 9,-24 38,-135 23,-163 -79,-147 110,-125 192,-125z"/>
  <path class="fil7" d="M9854 11972c73,4 132,228 146,235 48,24 93,-13 93,-13 25,-108 4,-219 142,-197 90,14 105,12 118,32 25,37 -13,102 30,161 43,61 149,77 138,-11 -7,-57 5,-67 14,-109 19,-84 111,-164 272,-75 65,36 110,140 106,177 -4,38 18,34 75,30 119,-9 20,-54 129,-177 34,-38 229,-71 229,9 0,67 -5,142 41,167 46,25 80,24 81,-64 2,-80 -37,-162 121,-162 126,0 203,13 216,72 13,59 23,88 -23,151 -46,63 10,58 -52,149 -62,91 -129,73 -175,90 -46,17 -118,-4 -239,-13 -122,-8 -185,-46 -269,-8 -84,38 -130,76 -218,80 -88,4 -118,46 -302,-4 -185,-50 -126,-59 -239,-63 -113,-4 -59,-13 -214,-4 -155,8 -108,7 -218,34 -111,27 -244,21 -265,-34 -21,-55 -21,-67 -29,-155 -22,-229 -157,-322 293,-298z"/>
  <path class="fil0" d="M19497 3390l1381 0 0 1979 0 381 162 0 0 -371 238 -1 1 373 253 0 37 -2 -1 -375 266 1 0 377 207 0 3 -383 0 -367 1381 0 0 725 -1 0 0 2618c-1310,0 -2619,0 -3929,0 -15,-653 1,-3312 1,-4954z"/>
  <path class="fil8" d="M21445 3404l-2572 4 1317 -1777 1255 1773zm-1286 2m-627 -887m1286 -2"/>
  <path class="fil3" d="M22666 6621l0 0c0,-6 0,-11 0,-17 0,-184 95,-333 213,-333 118,0 213,149 213,333 0,6 0,11 0,17l0 0 0 829 -426 0 0 -829z"/>
  <path class="fil9" d="M19822 7384l1 0c0,-7 -1,-13 -1,-20 0,-213 222,-385 495,-385 273,0 495,172 495,385 0,7 0,13 -1,20l1 0 0 959 -990 0 0 -959z"/>
  <path class="fil3" d="M19749 4811l0 0c0,-3 0,-6 0,-10 0,-103 54,-187 120,-187 66,0 120,84 120,187 0,3 0,6 0,10l0 0 0 465 -239 0 0 -465z"/>
  <path class="fil3" d="M20359 4120l0 0c0,-3 0,-6 0,-10 0,-103 54,-187 120,-187 66,0 120,84 120,187 0,3 0,6 0,10l0 0 0 465 -239 0 0 -465z"/>
  <line class="fil5 str0" x1="20190" y1="1631" x2="20194" y2= "798" />
  <circle class="fil6" cx="20194" cy="798" r="106"/>
  <path class="fil9" d="M20194 941c0,0 310,-38 486,3 621,145 327,139 1048,206 103,10 -771,112 -1039,44 -269,-68 -495,-47 -495,-47l0 -206z"/>
  <path class="fil3" d="M20363 5738l0 0c0,-3 0,-6 0,-10 0,-103 54,-187 120,-187 66,0 120,84 120,187 0,3 0,6 0,10l0 0 0 465 -239 0 0 -465z"/>
  <path class="fil3" d="M22138 6631l0 0c0,-6 0,-11 0,-17 0,-184 95,-333 213,-333 118,0 213,149 213,333 0,6 0,11 0,17l0 0 0 829 -426 0 0 -829z"/>
  <polygon class="fil8" points="23331,5886 20876,5889 20879,4113 22076,4113 23174,4110 "/>
  <polygon class="fil8" points="23750,5884 21857,5887 23174,4110 "/>
  <path class="fil0" d="M841 2945l1372 0 0 1965 0 378 161 0 0 -369 237 -1 1 370 252 0 37 -2 -1 -373 264 1 0 375 206 0 3 -380 0 -365 1372 0 0 720 -1 0 0 2600c-1301,0 -2601,0 -3902,0 -15,-648 1,-3289 1,-4921z"/>
  <path class="fil8" d="M2776 2960l-2555 4 1308 -1765 1246 1761zm-1277 2m-623 -881m1277 -2"/>
  <path class="fil3" d="M3988 6155l0 0c0,-6 0,-11 0,-17 0,-182 95,-330 212,-330 117,0 212,148 212,330 0,6 0,11 0,17l0 0 0 823 -423 0 0 -823z"/>
  <path class="fil9" d="M1164 6913l1 0c0,-7 -1,-13 -1,-20 0,-211 220,-382 492,-382 271,0 492,171 492,382 0,7 0,13 -1,20l1 0 0 953 -983 0 0 -953z"/>
  <path class="fil3" d="M1091 4357l0 0c0,-3 0,-6 0,-10 0,-102 53,-186 119,-186 66,0 119,83 119,186 0,3 0,6 0,10l0 0 0 462 -238 0 0 -462z"/>
  <path class="fil3" d="M1697 3671l0 0c0,-3 0,-6 0,-10 0,-102 53,-186 119,-186 66,0 119,83 119,186 0,3 0,6 0,10l0 0 0 462 -238 0 0 -462z"/>
  <line class="fil5 str0" x1="1529" y1="1199" x2="1533" y2= "372" />
  <circle class="fil6" cx="1533" cy="372" r="106"/>
  <path class="fil9" d="M1533 513c0,0 308,-38 483,3 617,144 325,138 1040,205 103,10 -765,111 -1032,44 -267,-67 -491,-47 -491,-47l0 -204z"/>
  <path class="fil3" d="M1700 5278l0 0c0,-3 0,-6 0,-10 0,-102 53,-186 119,-186 66,0 119,83 119,186 0,3 0,6 0,10l0 0 0 462 -238 0 0 -462z"/>
  <path class="fil3" d="M3464 6165l0 0c0,-6 0,-11 0,-17 0,-182 95,-330 212,-330 117,0 212,148 212,330 0,6 0,11 0,17l0 0 0 823 -423 0 0 -823z"/>
  <polygon class="fil8" points="4648,5425 2210,5428 2213,3664 3402,3663 4493,3661 "/>
  <polygon class="fil8" points="5064,5423 3184,5425 4493,3661 "/>
  <path class="fil7" d="M1337 1256c-107,175 -231,361 -276,457 -45,96 -190,349 -307,465 -117,117 -214,272 -282,359 -68,87 -126,83 39,119 165,36 301,-42 408,-71 107,-29 340,19 418,58 78,39 49,49 291,-10 243,-58 320,-107 388,-68 68,39 191,120 359,97 169,-23 311,19 272,-87 -39,-107 29,-165 -126,-272 -155,-107 -204,-107 -272,-253 -68,-146 -233,-437 -233,-437 0,0 -39,-126 -155,-243 -202,-202 -298,-487 -524,-117z"/>
  <path class="fil7" d="M3168 3476c-69,-9 -137,15 -220,17 -298,7 -700,15 -735,90 -45,96 3,1140 -113,1257 -69,69 66,272 344,325 344,66 124,-78 385,-21 165,36 315,-8 422,-37 107,-29 435,26 524,63 90,37 288,-23 272,-39 -16,-16 408,-15 476,24 68,39 191,120 359,97 169,-23 311,19 272,-87 -39,-107 29,-165 -126,-272 -155,-107 -78,-165 -146,-311 -98,-209 -271,-888 -359,-976 -202,-202 -537,-30 -1355,-131z"/>
 </g>
</svg>
