<?xml version="1.0" encoding="UTF-16"?>
<!DOCTYPE svg PUBLIC "-//W3C//DTD SVG 1.1//EN" "http://www.w3.org/Graphics/SVG/1.1/DTD/svg11.dtd">
<!-- Creator: CorelDRAW X5 -->
<svg xmlns="http://www.w3.org/2000/svg" xml:space="preserve" width="70mm" height="70mm" style="shape-rendering:geometricPrecision; text-rendering:geometricPrecision; image-rendering:optimizeQuality; fill-rule:evenodd; clip-rule:evenodd"
viewBox="0 0 7000 7000"
 xmlns:xlink="http://www.w3.org/1999/xlink">
 <defs>
  <style type="text/css">
   <![CDATA[
    .str0 {stroke:#DF8443;stroke-width:7.62}
    .str1 {stroke:black;stroke-width:20}
    .str2 {stroke:#854400;stroke-width:20}
    .fil9 {fill:none}
    .fil0 {fill:black}
    .fil4 {fill:#343433}
    .fil11 {fill:#BE2D21}
    .fil3 {fill:#C2C2C3}
    .fil1 {fill:#D7D8D8}
    .fil6 {fill:#DF8443}
    .fil10 {fill:#EEC724}
    .fil5 {fill:#FEFEFE}
    .fil2 {fill:#38230D}
    .fil7 {fill:#854400}
    .fil8 {fill:black;fill-rule:nonzero}
   ]]>
  </style>
 </defs>
 <g id="Warstwa_x0020_1">
  <metadata id="CorelCorpID_0Corel-Layer"/>
  <g id="_239186792">
   <path class="fil0" d="M782 5604c643,732 776,-11 599,-288 -177,-277 -543,-676 -377,-820 166,-144 466,-166 466,-166l0 -155c-712,76 -1192,855 -687,1430z"/>
   <path class="fil0 str0" d="M5254 2239c0,0 203,220 419,49 216,-171 194,-276 83,-299 -112,-22 -166,-123 -317,-119 -348,8 -827,183 -979,396 -111,155 -665,582 -831,1646 -166,1064 931,-288 1020,-466 89,-177 111,-698 200,-898 89,-200 407,-310 407,-310z"/>
   <path class="fil1" d="M3663 5439l87 1381 624 -55 -231 -1420c471,-129 614,-364 656,-612l572 -1463c0,0 819,315 1031,-294 212,-609 -922,-717 -922,-717l-449 -37c0,-65 -65,-255 -89,-316l-38 -96c0,0 -324,205 -206,553 119,348 -292,953 -468,1179 -308,-114 -545,38 -1261,38 -717,0 -1607,243 -1607,748 0,487 62,897 454,1021l-218 1338 624 55 82 -1295c241,28 486,34 695,40 227,6 457,-16 665,-48z"/>
   <path class="fil2" d="M2138 3684l501 -89 780 -38c138,-21 276,-42 415,-63 0,558 76,1030 -123,1300 -357,483 -1084,552 -1424,-51 -132,-233 -149,-651 -149,-1058z"/>
   <polygon class="fil0" points="1631,6476 2234,6525 2220,6742 1597,6687 "/>
   <polygon class="fil0" points="4339,6553 3736,6602 3750,6820 4373,6764 "/>
   <polygon class="fil0 str1" points="2527,2476 2978,2476 2978,2794 2527,2794 "/>
   <path class="fil3" d="M2753 1354c344,0 622,287 622,640 0,354 -279,640 -622,640 -344,0 -622,-287 -622,-640 0,-354 279,-640 622,-640z"/>
   <path class="fil4" d="M2109 1910l647 -380c0,0 623,303 626,372 3,64 -2,192 -2,192l-624 -80 -652 84 4 -188z"/>
   <polygon class="fil5" points="2735,1618 2785,1618 2785,1959 2735,1959 "/>
   <polygon class="fil5" points="2826,1640 2876,1640 2876,1981 2826,1981 "/>
   <polygon class="fil5" points="2916,1692 2966,1692 2966,2003 2916,2003 "/>
   <polygon class="fil5" points="3001,1742 3051,1742 3051,2011 3001,2011 "/>
   <polygon class="fil5" points="3086,1789 3137,1789 3137,2011 3086,2011 "/>
   <polygon class="fil5" points="3173,1831 3224,1831 3224,2034 3173,2034 "/>
   <polygon class="fil5" points="2692,1641 2642,1641 2642,1982 2692,1982 "/>
   <polygon class="fil5" points="2602,1693 2552,1693 2552,2004 2602,2004 "/>
   <polygon class="fil5" points="2517,1743 2467,1743 2467,2012 2517,2012 "/>
   <polygon class="fil5" points="2432,1790 2381,1790 2381,2012 2432,2012 "/>
   <polygon class="fil5" points="2344,1832 2294,1832 2294,2035 2344,2035 "/>
   <path class="fil6" d="M2204 988c-361,235 -44,340 88,280 132,-60 330,-195 383,-113 53,82 43,214 43,214l68 10c12,-316 -299,-576 -582,-391z"/>
   <path class="fil7 str2" d="M3461 3231c7,-8 73,-52 96,-84 325,-449 1742,-2549 2037,-2950 32,-44 83,5 33,101 -269,513 -1592,2496 -1853,2988 -22,41 -8,104 -20,101 -63,-12 -78,-23 -78,-23l-113 258c0,0 -101,15 -83,-37 18,-52 125,-246 133,-256 7,-10 -158,-89 -151,-97z"/>
   <path class="fil0 str1" d="M2180 3137c0,0 -94,-360 61,-377 155,-17 942,28 942,28 0,0 189,45 213,395 2,29 247,133 246,167 0,31 -13,142 -16,177 -7,80 -242,-5 -241,50 8,305 136,261 279,381 169,141 -227,599 -360,781 -133,183 100,127 139,133 39,6 122,200 -188,194 -310,-6 -488,36 -316,-255 172,-291 233,-466 211,-510 -22,-44 -510,-310 -538,-327 -28,-17 -432,-837 -432,-837z"/>
   <path class="fil0" d="M5143 2285c-82,0 -148,77 -148,172 0,95 66,172 148,172 82,0 148,-77 148,-172 0,-95 -66,-172 -148,-172z"/>
   <path class="fil5" d="M5187 2372c-37,0 -67,48 -67,106 0,59 30,106 67,106 37,0 67,-48 67,-106 0,-59 -30,-106 -67,-106z"/>
   <path class="fil8" d="M4696 2471c2,2 653,762 828,792 156,26 553,-846 554,-848l91 42c-1,3 -429,945 -661,906 -212,-36 -886,-823 -888,-826l76 -65z"/>
   <path class="fil6" d="M5220 3658l-116 364c0,0 -126,100 -204,-82 -79,-182 -251,149 -355,-155 -91,-266 -402,9 -388,-76 15,-85 124,-238 124,-238l64 -112 876 301z"/>
   <path class="fil9" d="M5590 3290c0,0 -31,430 -485,419 -454,-11 -1469,-272 -1469,-272"/>
   <path class="fil8" d="M5624 3292c0,1 -33,462 -520,450 -458,-11 -1474,-272 -1477,-273l16 -65c3,1 1011,260 1462,271 423,10 451,-387 451,-388l67 5z"/>
   <path class="fil6" d="M2116 2903c0,0 60,-4 152,-9 12,-11 26,-17 41,-19 94,-10 277,-9 470,-3 193,-6 377,-7 470,3 15,2 28,8 41,19 93,5 152,9 152,9 129,1714 -617,1696 -617,1696 0,0 -17,-6 -46,-17 -29,11 -46,17 -46,17 0,0 -746,18 -617,-1696z"/>
   <polygon class="fil5" points="2749,4472 2853,4330 2956,4189 2917,3960 2877,3731 2749,3731 2622,3731 2582,3960 2543,4189 2646,4330 "/>
   <polygon class="fil10" points="2766,3006 2992,3171 3219,3335 3132,3602 3046,3868 2766,3868 2486,3868 2399,3602 2313,3335 2539,3171 "/>
   <path class="fil0 str1" d="M2932 3293c29,0 53,29 53,64 0,36 -24,64 -53,64 -29,0 -53,-29 -53,-64 0,-36 24,-64 53,-64z"/>
   <path class="fil11" d="M2779 3706c29,0 250,-140 250,-104 0,36 -221,195 -250,195 -29,0 -259,-177 -259,-213 0,-36 230,122 259,122z"/>
   <path class="fil0 str1" d="M2637 3277c29,0 53,29 53,64 0,36 -24,64 -53,64 -29,0 -53,-29 -53,-64 0,-36 24,-64 53,-64z"/>
  </g>
 </g>
</svg>
