<?xml version="1.0" encoding="UTF-16"?>
<!DOCTYPE svg PUBLIC "-//W3C//DTD SVG 1.1//EN" "http://www.w3.org/Graphics/SVG/1.1/DTD/svg11.dtd">
<!-- Creator: CorelDRAW X5 -->
<svg xmlns="http://www.w3.org/2000/svg" xml:space="preserve" width="80mm" height="80mm" style="shape-rendering:geometricPrecision; text-rendering:geometricPrecision; image-rendering:optimizeQuality; fill-rule:evenodd; clip-rule:evenodd"
viewBox="0 0 8000 8000"
 xmlns:xlink="http://www.w3.org/1999/xlink">
 <defs>
  <style type="text/css">
   <![CDATA[
    .str1 {stroke:gray;stroke-width:7.62}
    .str0 {stroke:black;stroke-width:20}
    .fil5 {fill:none}
    .fil0 {fill:#4E4E4E}
    .fil2 {fill:#BE2D21}
    .fil10 {fill:#C2D62E}
    .fil9 {fill:#C31845}
    .fil4 {fill:#D77D1A}
    .fil14 {fill:#DF8443}
    .fil7 {fill:#E5F9DF}
    .fil13 {fill:#EEC724}
    .fil6 {fill:#F3DF39}
    .fil3 {fill:white}
    .fil11 {fill:#C2D62E;fill-rule:nonzero}
    .fil8 {fill:#C31845;fill-rule:nonzero}
    .fil1 {fill:#D77D1A;fill-rule:nonzero}
    .fil12 {fill:#EEC724;fill-rule:nonzero}
   ]]>
  </style>
 </defs>
 <g id="Warstwa_x0020_1">
  <metadata id="CorelCorpID_0Corel-Layer"/>
  <g id="_273216192">
   <polygon class="fil0" points="11531,6703 11530,7016 11632,7019 11635,6705 11875,6704 11875,7023 12111,7015 12110,6709 12358,6708 12359,7016 12497,7018 12496,6703 12496,5065 13640,5065 13640,6703 13639,7019 13773,7019 13773,6712 13970,6710 13971,7019 14181,7019 14212,7017 14211,6707 14431,6708 14431,7020 14602,7020 14605,6703 14605,6399 15749,6399 15749,7000 15748,7000 15748,9167 10387,9167 10387,6996 10387,6996 10387,3247 11531,3261 "/>
   <path class="fil1" d="M14109 5077l-2130 3 1091 -1471 1039 1468zm-1065 2m-520 -734m1065 -2"/>
   <polygon class="fil2" points="14133,5808 14438,5807 14452,5989 14658,5987 14657,5806 14819,5806 14819,5982 15049,5985 15048,5806 15281,5806 15283,5988 15539,5986 15539,5806 15722,5806 15720,5990 15895,5987 15899,5806 16127,5806 15958,6454 14290,6454 "/>
   <path class="fil3" d="M10786 7339l0 0c0,-5 0,-9 0,-14 0,-152 79,-275 176,-275 97,0 176,123 176,275 0,5 0,9 0,14l0 0 0 686 -353 0 0 -686z"/>
   <path class="fil3" d="M15035 7344l0 0c0,-5 0,-9 0,-14 0,-152 79,-275 176,-275 97,0 176,123 176,275 0,5 0,9 0,14l0 0 0 686 -353 0 0 -686z"/>
   <path class="fil4" d="M12628 8375l1 0c0,-5 -1,-11 -1,-16 0,-176 220,-319 490,-319 271,0 490,143 490,319 0,5 0,11 -1,16l1 0 0 794 -981 0 0 -794z"/>
   <path class="fil3" d="M12705 6241l0 0c0,-3 0,-5 0,-8 0,-85 44,-155 99,-155 55,0 99,69 99,155 0,3 0,5 0,8l0 0 0 385 -198 0 0 -385z"/>
   <path class="fil3" d="M13210 5669l0 0c0,-3 0,-5 0,-8 0,-85 44,-155 99,-155 55,0 99,69 99,155 0,3 0,5 0,8l0 0 0 385 -198 0 0 -385z"/>
   <line class="fil5 str0" x1="14555" y1="4656" x2="14555" y2= "5995" />
   <circle class="fil6" cx="14555" cy="4656" r="88"/>
   <path class="fil3" d="M13213 7010l0 0c0,-3 0,-5 0,-8 0,-85 44,-155 99,-155 55,0 99,69 99,155 0,3 0,5 0,8l0 0 0 385 -198 0 0 -385z"/>
   <path class="fil5" d="M14555 4752c0,0 235,-50 487,17 253,67 400,52 448,24 48,-29 -133,195 -219,195 -86,0 149,201 180,201 26,0 -239,0 -377,-23 -26,-4 -83,-14 -98,-19 -91,-32 -361,-51 -420,-41 0,-70 0,-354 0,-354z"/>
   <path class="fil4" d="M14555 4935c0,0 257,-31 403,3 146,34 287,61 287,61 0,0 73,97 140,150 22,17 34,36 54,37 86,8 -252,15 -474,-41 -222,-56 -410,-39 -410,-39l0 -170z"/>
   <path class="fil5" d="M14944 4748c0,0 -34,92 -38,152 -5,60 -34,225 -34,225"/>
   <path class="fil4" d="M14944 4748c-160,-25 -300,-10 -359,-1 -9,3 -19,5 -30,5l0 183c0,0 200,-24 347,-7 1,-11 2,-20 3,-28 5,-60 38,-152 38,-152z"/>
   <path class="fil2" d="M14903 4928c-147,-18 -347,7 -347,7l0 170c0,0 136,-12 313,19 1,0 3,0 4,1 0,0 22,-125 31,-197z"/>
   <path class="fil2" d="M15043 4769c-33,-9 -66,-16 -99,-21 0,0 -34,92 -38,152 -1,8 -2,17 -3,28 20,2 38,5 56,9 146,34 287,61 287,61 0,0 4,5 10,13 -5,-14 -1,-23 17,-23 86,0 267,-224 219,-195 -48,29 -195,43 -448,-24z"/>
   <path class="fil3" d="M10594 5703l0 0c0,-5 0,-9 0,-14 0,-152 79,-275 176,-275 97,0 176,123 176,275 0,5 0,9 0,14l0 0 0 686 -353 0 0 -686z"/>
   <path class="fil3" d="M11025 4734l0 0c0,-5 0,-9 0,-14 0,-152 79,-275 176,-275 97,0 176,123 176,275 0,5 0,9 0,14l0 0 0 686 -353 0 0 -686z"/>
   <path class="fil3" d="M10553 3723l0 0c0,-5 0,-9 0,-14 0,-152 79,-275 176,-275 97,0 176,123 176,275 0,5 0,9 0,14l0 0 0 686 -353 0 0 -686z"/>
   <polygon class="fil2" points="9891,2697 10196,2696 10211,2879 10416,2877 10415,2695 10577,2695 10577,2872 10807,2874 10806,2695 11040,2695 11041,2878 11297,2875 11297,2695 11481,2695 11478,2880 11653,2876 11657,2695 11886,2695 11716,3343 10048,3343 "/>
   <line class="fil5 str0" x1="13070" y1="3609" x2="13073" y2= "2919" />
   <line class="fil5 str0" x1="10313" y1="1538" x2="10313" y2= "2878" />
   <circle class="fil6" cx="10313" cy="1538" r="88"/>
   <circle class="fil6" cx="13073" cy="2919" r="88"/>
   <path class="fil5" d="M10313 1627c0,0 235,-50 487,17 253,67 400,52 448,24 48,-29 -133,195 -219,195 -86,0 149,201 180,201 26,0 -239,0 -377,-23 -26,-4 -83,-14 -98,-19 -91,-32 -361,-51 -420,-41 0,-70 0,-354 0,-354z"/>
   <path class="fil4" d="M10313 1809c0,0 257,-31 403,3 146,34 287,61 287,61 0,0 73,97 140,150 22,17 34,36 54,37 86,8 -252,15 -474,-41 -222,-56 -410,-39 -410,-39l0 -170z"/>
   <path class="fil5" d="M10702 1623c0,0 -34,92 -38,152 -5,60 -34,225 -34,225"/>
   <path class="fil4" d="M13073 3037c0,0 257,-31 403,3 514,120 271,115 867,171 86,8 -638,92 -860,36 -222,-56 -410,-39 -410,-39l0 -170z"/>
   <path class="fil4" d="M10702 1623c-160,-25 -300,-10 -359,-1 -9,3 -19,5 -30,5l0 183c0,0 200,-24 347,-7 1,-11 2,-20 3,-28 5,-60 38,-152 38,-152z"/>
   <path class="fil2" d="M10660 1802c-147,-18 -347,7 -347,7l0 170c0,0 136,-12 313,19 1,0 3,0 4,1 0,0 22,-125 31,-197z"/>
   <path class="fil2" d="M10800 1643c-33,-9 -66,-16 -99,-21 0,0 -34,92 -38,152 -1,8 -2,17 -3,28 20,2 38,5 56,9 146,34 287,61 287,61 0,0 4,5 10,13 -5,-14 -1,-23 17,-23 86,0 267,-224 219,-195 -48,29 -195,43 -448,-24z"/>
  </g>
  <polygon class="fil0 str1" points="12577,16082 12576,16393 12678,16396 12680,16083 12919,16083 12919,16400 13153,16392 13152,16088 13399,16087 13399,16393 13537,16394 13536,16082 13536,14453 14673,14453 14673,16082 14672,16395 14805,16396 14805,16090 15001,16089 15002,16396 15210,16396 15241,16394 15240,16085 15459,16086 15459,16397 15630,16397 15632,16082 15632,15780 16769,15780 16769,16376 16769,16376 16769,18531 11440,18531 11440,16373 11440,16373 11440,12647 12577,12661 "/>
  <path class="fil1 str1" d="M15139 14466l-2117 3 1084 -1462 1033 1459zm-1058 2m-516 -730m1058 -1"/>
  <polygon class="fil2 str1" points="10947,12100 11250,12099 11264,12281 11469,12279 11468,12098 11629,12098 11629,12274 11857,12276 11856,12098 12089,12098 12090,12280 12344,12277 12344,12098 12527,12098 12524,12282 12698,12278 12702,12098 12929,12098 12761,12743 11103,12743 "/>
  <polygon class="fil2 str1" points="15163,15192 15466,15191 15480,15372 15684,15370 15684,15190 15845,15190 15845,15365 16073,15368 16072,15190 16304,15190 16306,15371 16560,15369 16560,15190 16743,15190 16740,15373 16914,15370 16918,15190 17145,15190 16977,15834 15319,15834 "/>
  <path class="fil3" d="M11837 16714l0 0c0,-5 0,-9 0,-14 0,-151 78,-274 175,-274 97,0 175,123 175,274 0,5 0,9 0,14l0 0 0 682 -351 0 0 -682z"/>
  <path class="fil3" d="M16059 16719l0 0c0,-5 0,-9 0,-14 0,-151 78,-274 175,-274 97,0 175,123 175,274 0,5 0,9 0,14l0 0 0 682 -350 0 0 -682z"/>
  <path class="fil4" d="M13668 17743l1 0c0,-5 -1,-11 -1,-16 0,-175 218,-317 487,-317 269,0 487,142 487,317 0,5 0,11 -1,16l1 0 0 789 -975 0 0 -789z"/>
  <path class="fil3" d="M13743 15623l0 0c0,-3 0,-5 0,-8 0,-85 44,-154 98,-154 54,0 98,69 98,154 0,3 0,5 0,8l0 0 0 383 -197 0 0 -383z"/>
  <path class="fil3" d="M14245 15054l0 0c0,-3 0,-5 0,-8 0,-85 44,-154 98,-154 54,0 98,69 98,154 0,3 0,5 0,8l0 0 0 383 -197 0 0 -383z"/>
  <line class="fil5 str0" x1="14106" y1="13006" x2="14109" y2= "12321" />
  <line class="fil5 str0" x1="11366" y1="10949" x2="11366" y2= "12279" />
  <line class="fil5 str0" x1="15582" y1="14047" x2="15582" y2= "15378" />
  <circle class="fil6" cx="11366" cy="10949" r="88"/>
  <circle class="fil6" cx="15582" cy="14047" r="88"/>
  <circle class="fil6" cx="14109" cy="12321" r="88"/>
  <path class="fil5" d="M11366 11036c0,0 233,-50 484,17 251,66 398,52 445,24 47,-28 -133,194 -218,194 -85,0 148,200 179,200 26,0 -238,0 -375,-23 -26,-4 -83,-14 -98,-19 -90,-32 -359,-50 -418,-41 0,-70 0,-352 0,-352z"/>
  <path class="fil4" d="M11366 11218c0,0 255,-31 400,3 145,34 285,60 285,60 0,0 72,96 139,149 21,17 34,35 54,37 85,8 -251,15 -472,-41 -221,-56 -407,-39 -407,-39l0 -169z"/>
  <path class="fil5" d="M11753 11032c0,0 -33,92 -38,151 -5,59 -33,223 -33,223"/>
  <path class="fil4" d="M14109 12438c0,0 255,-31 400,3 511,119 269,114 862,170 85,8 -634,92 -855,36 -221,-56 -407,-39 -407,-39l0 -169z"/>
  <path class="fil4" d="M11753 11032c-159,-25 -298,-10 -357,-1 -9,3 -19,5 -30,5l0 182c0,0 199,-24 345,-7 1,-11 2,-20 3,-28 5,-59 38,-151 38,-151z"/>
  <path class="fil3" d="M14248 16386l0 0c0,-3 0,-5 0,-8 0,-85 44,-154 98,-154 54,0 98,69 98,154 0,3 0,5 0,8l0 0 0 383 -197 0 0 -383z"/>
  <path class="fil2" d="M11712 11211c-146,-18 -345,7 -345,7l0 169c0,0 135,-12 311,19 1,0 3,0 4,1 0,0 22,-124 31,-195z"/>
  <path class="fil2" d="M11851 11053c-33,-9 -66,-15 -98,-21 0,0 -33,92 -38,151 -1,8 -2,17 -3,28 20,2 38,5 55,9 145,34 285,60 285,60 0,0 4,5 10,13 -5,-14 -1,-23 16,-23 85,0 265,-223 218,-194 -47,28 -194,43 -445,-24z"/>
  <path class="fil5" d="M15583 14143c0,0 233,-50 484,17 251,66 398,52 445,24 47,-28 -133,194 -218,194 -85,0 148,200 179,200 26,0 -238,0 -375,-23 -26,-4 -83,-14 -98,-19 -90,-32 -359,-50 -418,-41 0,-70 0,-352 0,-352z"/>
  <path class="fil4" d="M15583 14324c0,0 255,-31 400,3 145,34 285,60 285,60 0,0 72,96 139,149 21,17 34,35 54,37 85,8 -251,15 -472,-41 -221,-56 -407,-39 -407,-39l0 -169z"/>
  <path class="fil5" d="M15969 14139c0,0 -33,92 -38,151 -5,59 -33,223 -33,223"/>
  <path class="fil4" d="M15969 14139c-159,-25 -298,-10 -357,-1 -9,3 -19,5 -30,5l0 182c0,0 199,-24 345,-7 1,-11 2,-20 3,-28 5,-59 38,-151 38,-151z"/>
  <path class="fil2" d="M15928 14317c-146,-18 -345,7 -345,7l0 169c0,0 135,-12 311,19 1,0 3,0 4,1 0,0 22,-124 31,-195z"/>
  <path class="fil2" d="M16067 14159c-33,-9 -66,-15 -98,-21 0,0 -33,92 -38,151 -1,8 -2,17 -3,28 20,2 38,5 55,9 145,34 285,60 285,60 0,0 4,5 10,13 -5,-14 -1,-23 16,-23 85,0 265,-223 218,-194 -47,28 -194,43 -445,-24z"/>
  <path class="fil3" d="M11645 15088l0 0c0,-5 0,-9 0,-14 0,-151 78,-274 175,-274 97,0 175,123 175,274 0,5 0,9 0,14l0 0 0 682 -351 0 0 -682z"/>
  <path class="fil3" d="M12074 14125l0 0c0,-5 0,-9 0,-14 0,-151 78,-274 175,-274 97,0 175,123 175,274 0,5 0,9 0,14l0 0 0 682 -351 0 0 -682z"/>
  <path class="fil3" d="M11604 13120l0 0c0,-5 0,-9 0,-14 0,-151 78,-274 175,-274 97,0 175,123 175,274 0,5 0,9 0,14l0 0 0 682 -351 0 0 -682z"/>
  <path class="fil7" d="M13905 13102c-91,148 -196,306 -234,387 -38,82 -161,296 -260,394 -99,99 -181,230 -239,305 -58,74 -107,70 33,101 140,31 255,-35 345,-60 91,-25 288,16 354,49 66,33 41,41 247,-8 206,-49 272,-91 329,-58 58,33 162,102 305,82 143,-20 263,16 230,-74 -33,-91 25,-140 -107,-230 -132,-91 -173,-91 -230,-214 -58,-123 -198,-370 -198,-370 0,0 -33,-107 -132,-206 -171,-171 -252,-413 -444,-99z"/>
  <path class="fil7" d="M15419 15106c66,4 120,214 133,221 44,23 85,-12 85,-12 22,-102 3,-207 130,-186 82,14 96,12 108,30 22,34 -12,96 27,152 40,57 174,73 164,-10 -6,-53 -34,-63 -25,-103 17,-79 101,-155 248,-71 59,34 100,132 96,167 -4,36 16,32 68,28 109,-8 19,-51 118,-166 31,-36 208,-67 208,8 0,63 -4,134 38,158 42,24 73,22 74,-60 2,-76 -34,-153 110,-153 115,0 185,13 196,68 11,55 21,83 -21,142 -42,59 9,55 -47,141 -56,86 -117,69 -159,85 -42,16 -107,-4 -218,-12 -111,-8 -168,-44 -245,-8 -77,36 -119,71 -199,75 -80,4 -107,44 -276,-4 -168,-47 -115,-55 -218,-59 -103,-4 -54,-12 -195,-4 -142,8 -98,6 -199,32 -101,25 -222,20 -241,-32 -19,-51 -19,-63 -27,-146 -20,-215 -143,-303 267,-281z"/>
  <path class="fil7" d="M12742 15883c22,0 151,-33 174,29 23,63 54,34 63,93 9,59 16,89 27,117 86,228 63,-34 192,-142 54,-44 60,-5 101,-45 42,-39 171,-59 198,0 27,59 63,88 71,152 8,54 155,320 27,333 -49,5 -80,5 -192,2 -112,-2 -223,-5 -302,10 -78,15 -118,7 -243,-2 -125,-10 -235,-15 -297,-34 -63,-20 -40,-201 -31,-225 9,-24 45,-130 29,-159 -78,-147 102,-130 183,-130z"/>
  <path class="fil7" d="M14794 15918c23,0 153,-33 176,29 23,63 54,34 63,93 9,59 16,89 27,117 87,228 64,-34 195,-142 54,-44 60,-5 103,-45 42,-39 173,-59 201,0 27,59 63,88 72,152 8,55 157,320 27,333 -40,4 -52,56 -120,55 -17,0 -52,-52 -75,-53 -113,-2 -219,32 -299,46 -79,15 -127,-29 -253,-39 -39,-3 -56,39 -90,36 -79,-6 -167,-57 -211,-70 -63,-20 -41,-201 -32,-225 9,-24 38,-135 23,-163 -79,-147 110,-125 192,-125z"/>
  <path class="fil7" d="M11104 11972c73,4 132,228 146,235 48,24 93,-13 93,-13 25,-108 4,-219 142,-197 90,14 105,12 118,32 25,37 -13,102 30,161 43,61 149,77 138,-11 -7,-57 5,-67 14,-109 19,-84 111,-164 272,-75 65,36 110,140 106,177 -4,38 18,34 75,30 119,-9 20,-54 129,-177 34,-38 229,-71 229,9 0,67 -5,142 41,167 46,25 80,24 81,-64 2,-80 -37,-162 121,-162 126,0 203,13 216,72 13,59 23,88 -23,151 -46,63 10,58 -52,149 -62,91 -129,73 -175,90 -46,17 -118,-4 -239,-13 -122,-8 -185,-46 -269,-8 -84,38 -130,76 -218,80 -88,4 -118,46 -302,-4 -185,-50 -126,-59 -239,-63 -113,-4 -59,-13 -214,-4 -155,8 -108,7 -218,34 -111,27 -244,21 -265,-34 -21,-55 -21,-67 -29,-155 -22,-229 -157,-322 293,-298z"/>
  <path class="fil0" d="M20747 3390l1381 0 0 1979 0 381 162 0 0 -371 238 -1 1 373 253 0 37 -2 -1 -375 266 1 0 377 207 0 3 -383 0 -367 1381 0 0 725 -1 0 0 2618c-1310,0 -2619,0 -3929,0 -15,-653 1,-3312 1,-4954z"/>
  <path class="fil8" d="M22695 3404l-2572 4 1317 -1777 1255 1773zm-1286 2m-627 -887m1286 -2"/>
  <path class="fil3" d="M23916 6621l0 0c0,-6 0,-11 0,-17 0,-184 95,-333 213,-333 118,0 213,149 213,333 0,6 0,11 0,17l0 0 0 829 -426 0 0 -829z"/>
  <path class="fil9" d="M21072 7384l1 0c0,-7 -1,-13 -1,-20 0,-213 222,-385 495,-385 273,0 495,172 495,385 0,7 0,13 -1,20l1 0 0 959 -990 0 0 -959z"/>
  <path class="fil3" d="M20999 4811l0 0c0,-3 0,-6 0,-10 0,-103 54,-187 120,-187 66,0 120,84 120,187 0,3 0,6 0,10l0 0 0 465 -239 0 0 -465z"/>
  <path class="fil3" d="M21609 4120l0 0c0,-3 0,-6 0,-10 0,-103 54,-187 120,-187 66,0 120,84 120,187 0,3 0,6 0,10l0 0 0 465 -239 0 0 -465z"/>
  <line class="fil5 str0" x1="21440" y1="1631" x2="21444" y2= "798" />
  <circle class="fil6" cx="21444" cy="798" r="106"/>
  <path class="fil9" d="M21444 941c0,0 310,-38 486,3 621,145 327,139 1048,206 103,10 -771,112 -1039,44 -269,-68 -495,-47 -495,-47l0 -206z"/>
  <path class="fil3" d="M21613 5738l0 0c0,-3 0,-6 0,-10 0,-103 54,-187 120,-187 66,0 120,84 120,187 0,3 0,6 0,10l0 0 0 465 -239 0 0 -465z"/>
  <path class="fil3" d="M23388 6631l0 0c0,-6 0,-11 0,-17 0,-184 95,-333 213,-333 118,0 213,149 213,333 0,6 0,11 0,17l0 0 0 829 -426 0 0 -829z"/>
  <polygon class="fil8" points="24581,5886 22126,5889 22129,4113 23326,4113 24424,4110 "/>
  <polygon class="fil8" points="25000,5884 23107,5887 24424,4110 "/>
  <path class="fil0" d="M20731 13631l1372 0 0 1965 0 378 161 0 0 -369 237 -1 1 370 252 0 37 -2 -1 -373 264 1 0 375 206 0 3 -380 0 -365 1372 0 0 720 -1 0 0 2600c-1301,0 -2601,0 -3902,0 -15,-648 1,-3289 1,-4921z"/>
  <path class="fil8" d="M22666 13646l-2555 4 1308 -1765 1246 1761zm-1277 2m-623 -881m1277 -2"/>
  <path class="fil3" d="M23878 16841l0 0c0,-6 0,-11 0,-17 0,-182 95,-330 212,-330 117,0 212,148 212,330 0,6 0,11 0,17l0 0 0 823 -423 0 0 -823z"/>
  <path class="fil9" d="M21054 17598l1 0c0,-7 -1,-13 -1,-20 0,-211 220,-382 492,-382 271,0 492,171 492,382 0,7 0,13 -1,20l1 0 0 953 -983 0 0 -953z"/>
  <path class="fil3" d="M20981 15042l0 0c0,-3 0,-6 0,-10 0,-102 53,-186 119,-186 66,0 119,83 119,186 0,3 0,6 0,10l0 0 0 462 -238 0 0 -462z"/>
  <path class="fil3" d="M21587 14356l0 0c0,-3 0,-6 0,-10 0,-102 53,-186 119,-186 66,0 119,83 119,186 0,3 0,6 0,10l0 0 0 462 -238 0 0 -462z"/>
  <line class="fil5 str0" x1="21419" y1="11885" x2="21423" y2= "11057" />
  <circle class="fil6" cx="21423" cy="11057" r="106"/>
  <path class="fil9" d="M21423 11199c0,0 308,-38 483,3 617,144 325,138 1040,205 103,10 -765,111 -1032,44 -267,-67 -491,-47 -491,-47l0 -204z"/>
  <path class="fil3" d="M21590 15964l0 0c0,-3 0,-6 0,-10 0,-102 53,-186 119,-186 66,0 119,83 119,186 0,3 0,6 0,10l0 0 0 462 -238 0 0 -462z"/>
  <path class="fil3" d="M23354 16850l0 0c0,-6 0,-11 0,-17 0,-182 95,-330 212,-330 117,0 212,148 212,330 0,6 0,11 0,17l0 0 0 823 -423 0 0 -823z"/>
  <polygon class="fil8" points="24538,16110 22100,16114 22103,14350 23292,14349 24383,14346 "/>
  <polygon class="fil8" points="24954,16108 23074,16111 24383,14346 "/>
  <path class="fil7" d="M21227 11942c-107,175 -231,361 -276,457 -45,96 -190,349 -307,465 -117,117 -214,272 -282,359 -68,87 -126,83 39,119 165,36 301,-42 408,-71 107,-29 340,19 418,58 78,39 49,49 291,-10 243,-58 320,-107 388,-68 68,39 191,120 359,97 169,-23 311,19 272,-87 -39,-107 29,-165 -126,-272 -155,-107 -204,-107 -272,-253 -68,-146 -233,-437 -233,-437 0,0 -39,-126 -155,-243 -202,-202 -298,-487 -524,-117z"/>
  <path class="fil7" d="M23058 14161c-69,-9 -137,15 -220,17 -298,7 -700,15 -735,90 -45,96 3,1140 -113,1257 -69,69 66,272 344,325 344,66 124,-78 385,-21 165,36 315,-8 422,-37 107,-29 435,26 524,63 90,37 288,-23 272,-39 -16,-16 408,-15 476,24 68,39 191,120 359,97 169,-23 311,19 272,-87 -39,-107 29,-165 -126,-272 -155,-107 -78,-165 -146,-311 -98,-209 -271,-888 -359,-976 -202,-202 -537,-30 -1355,-131z"/>
  <polygon class="fil0" points="11121,-2739 11119,-2359 11244,-2355 11247,-2738 11539,-2739 11539,-2351 11825,-2360 11823,-2732 12125,-2733 12126,-2360 12294,-2357 12293,-2739 12293,-4729 13682,-4729 13682,-2739 13681,-2356 13844,-2356 13844,-2729 14083,-2731 14084,-2356 14339,-2355 14376,-2358 14375,-2735 14642,-2734 14642,-2355 14851,-2355 14854,-2739 14854,-3109 16243,-3109 16243,-2380 16242,-2380 16242,253 9732,253 9732,-2383 9732,-2383 9732,-3113 11121,-3113 "/>
  <polygon class="fil10" points="14281,-3827 14651,-3828 14668,-3606 14918,-3609 14917,-3829 15114,-3829 15114,-3615 15393,-3612 15392,-3829 15675,-3829 15677,-3608 15988,-3611 15988,-3829 16211,-3829 16208,-3605 16420,-3610 16425,-3829 16703,-3829 16497,-3042 14472,-3042 "/>
  <path class="fil3" d="M15376 -1961l0 0c0,-6 0,-11 0,-17 0,-185 96,-334 214,-334 118,0 214,150 214,334 0,6 0,11 0,17l0 0 0 833 -428 0 0 -833z"/>
  <path class="fil10" d="M12453 -710l1 0c-1,-7 -1,-13 -1,-20 0,-214 267,-387 595,-387 329,0 595,173 595,387 0,7 0,13 -1,20l1 0 0 965 -1191 0 0 -965z"/>
  <path class="fil3" d="M13159 -3995l0 0c0,-3 0,-6 0,-10 0,-104 54,-188 120,-188 66,0 120,84 120,188 0,3 0,6 0,10l0 0 0 468 -241 0 0 -468z"/>
  <line class="fil5 str0" x1="14793" y1="-5225" x2="14793" y2= "-3599" />
  <path class="fil3" d="M13163 -2367l0 0c0,-3 0,-6 0,-10 0,-104 54,-188 120,-188 66,0 120,84 120,188 0,3 0,6 0,10l0 0 0 468 -241 0 0 -468z"/>
  <path class="fil5" d="M14793 -5109c0,0 285,-61 592,20 307,81 486,64 544,29 58,-35 -162,237 -266,237 -104,0 181,245 218,245 32,0 -291,0 -458,-28 -32,-5 -101,-17 -119,-23 -110,-39 -438,-61 -511,-50 0,-85 0,-430 0,-430z"/>
  <path class="fil2" d="M14793 -4887c0,0 312,-38 489,3 177,41 348,74 348,74 0,0 88,117 170,182 26,21 41,43 66,45 104,10 -306,18 -576,-50 -270,-68 -498,-48 -498,-48l0 -207z"/>
  <path class="fil11" d="M14251 -4714l-2586 4 1325 -1787 1262 1783zm-1293 2m-631 -892m1293 -2"/>
  <polygon class="fil10" points="9234,-3827 9604,-3828 9622,-3606 9871,-3609 9871,-3829 10067,-3829 10067,-3615 10346,-3612 10345,-3829 10629,-3829 10630,-3608 10941,-3611 10941,-3829 11164,-3829 11161,-3605 11374,-3610 11378,-3829 11656,-3829 11451,-3042 9425,-3042 "/>
  <path class="fil3" d="M12546 -3300l0 0c0,-3 0,-6 0,-10 0,-104 54,-188 120,-188 66,0 120,84 120,188 0,3 0,6 0,10l0 0 0 468 -241 0 0 -468z"/>
  <line class="fil5 str0" x1="12990" y1="-6497" x2="12993" y2= "-7335" />
  <circle class="fil6" cx="14793" cy="-5225" r="107"/>
  <circle class="fil6" cx="12993" cy="-7335" r="107"/>
  <path class="fil10" d="M12993 -7191c0,0 312,-38 489,3 624,146 329,140 1053,207 104,10 -775,112 -1045,44 -270,-68 -498,-48 -498,-48l0 -207z"/>
  <path class="fil5" d="M15265 -5114c0,0 -41,112 -47,184 -6,72 -41,273 -41,273"/>
  <path class="fil2" d="M15265 -5114c-194,-31 -364,-12 -436,-1 -11,4 -24,6 -36,6l0 222c0,0 243,-30 422,-8 2,-13 3,-25 4,-34 6,-72 47,-184 47,-184z"/>
  <path class="fil10" d="M15215 -4895c-179,-21 -422,8 -422,8l0 207c0,0 165,-15 380,23 2,0 3,0 5,1 0,0 27,-152 37,-239z"/>
  <path class="fil10" d="M15385 -5088c-41,-11 -81,-19 -120,-25 0,0 -41,112 -47,184 -1,9 -2,21 -4,34 24,3 47,7 67,11 177,41 348,74 348,74 0,0 4,6 12,16 -7,-17 -2,-28 20,-28 104,0 324,-272 266,-237 -58,35 -237,52 -544,-29z"/>
  <path class="fil3" d="M10217 -1967l0 0c0,-6 0,-11 0,-17 0,-185 96,-334 214,-334 118,0 214,150 214,334 0,6 0,11 0,17l0 0 0 833 -428 0 0 -833z"/>
  <line class="fil5 str0" x1="9746" y1="-5234" x2="9746" y2= "-3608" />
  <circle class="fil6" cx="9746" cy="-5234" r="107"/>
  <path class="fil5" d="M9746 -5127c0,0 285,-61 592,20 307,81 486,64 544,29 58,-35 -162,237 -266,237 -104,0 181,245 218,245 32,0 -291,0 -458,-28 -32,-5 -101,-17 -119,-23 -110,-39 -438,-61 -511,-50 0,-85 0,-430 0,-430z"/>
  <path class="fil2" d="M9746 -4905c0,0 312,-38 489,3 177,41 348,74 348,74 0,0 88,117 170,182 26,21 41,43 66,45 104,10 -306,18 -576,-50 -270,-68 -498,-48 -498,-48l0 -207z"/>
  <path class="fil5" d="M10218 -5132c0,0 -41,112 -47,184 -6,72 -41,273 -41,273"/>
  <path class="fil2" d="M10218 -5132c-194,-31 -364,-12 -436,-1 -11,4 -24,6 -36,6l0 222c0,0 243,-30 422,-8 2,-13 3,-25 4,-34 6,-72 47,-184 47,-184z"/>
  <path class="fil10" d="M10168 -4914c-179,-21 -422,8 -422,8l0 207c0,0 165,-15 380,23 2,0 3,0 5,1 0,0 27,-152 37,-239z"/>
  <path class="fil10" d="M10338 -5107c-41,-11 -81,-19 -120,-25 0,0 -41,112 -47,184 -1,9 -2,21 -4,34 24,3 47,7 67,11 177,41 348,74 348,74 0,0 4,6 12,16 -7,-17 -2,-28 20,-28 104,0 324,-272 266,-237 -58,35 -237,52 -544,-29z"/>
  <g id="_245074296">
   <polygon class="fil0" points="20246,-2915 20245,-2535 20369,-2531 20372,-2913 20664,-2914 20664,-2527 20950,-2536 20948,-2908 21249,-2909 21250,-2535 21418,-2533 21417,-2915 21417,-4903 22804,-4903 22804,-2915 22804,-2532 22967,-2532 22967,-2905 23206,-2906 23206,-2532 23461,-2531 23498,-2534 23497,-2911 23764,-2910 23764,-2531 23973,-2531 23976,-2915 23976,-3284 25364,-3284 25364,-2555 25363,-2555 25363,74 18858,74 18858,-2559 18858,-2559 18858,-3288 20246,-3288 "/>
   <path class="fil11" d="M23374 -4888l-2584 4 1323 -1785 1261 1781zm-1292 2m-630 -891m1292 -2"/>
   <polygon class="fil10" points="18361,-4001 18731,-4003 18748,-3781 18998,-3783 18997,-4004 19194,-4004 19194,-3790 19472,-3787 19471,-4004 19755,-4004 19756,-3783 20067,-3785 20067,-4004 20289,-4004 20286,-3780 20499,-3784 20503,-4004 20781,-4004 20576,-3218 18552,-3218 "/>
   <polygon class="fil10" points="23403,-4001 23773,-4003 23790,-3781 24040,-3783 24039,-4004 24236,-4004 24236,-3790 24514,-3787 24513,-4004 24796,-4004 24798,-3783 25109,-3785 25109,-4004 25331,-4004 25328,-3780 25540,-3784 25545,-4004 25823,-4004 25617,-3218 23594,-3218 "/>
   <path class="fil3" d="M19343 -2144l0 0c0,-6 0,-11 0,-17 0,-185 96,-334 214,-334 118,0 214,150 214,334 0,6 0,11 0,17l0 0 0 833 -428 0 0 -833z"/>
   <path class="fil3" d="M24497 -2138l0 0c0,-6 0,-11 0,-17 0,-185 96,-334 214,-334 118,0 214,150 214,334 0,6 0,11 0,17l0 0 0 833 -428 0 0 -833z"/>
   <path class="fil10" d="M21578 -887l1 0c-1,-7 -1,-13 -1,-20 0,-214 266,-387 595,-387 329,0 595,173 595,387 0,7 0,13 -1,20l1 0 0 964 -1190 0 0 -964z"/>
   <path class="fil3" d="M21670 -3475l0 0c0,-3 0,-6 0,-10 0,-104 54,-188 120,-188 66,0 120,84 120,188 0,3 0,6 0,10l0 0 0 468 -240 0 0 -468z"/>
   <path class="fil3" d="M22283 -4169l0 0c0,-3 0,-6 0,-10 0,-104 54,-188 120,-188 66,0 120,84 120,188 0,3 0,6 0,10l0 0 0 468 -240 0 0 -468z"/>
   <line class="fil5 str0" x1="22113" y1="-6669" x2="22117" y2= "-7506" />
   <line class="fil5 str0" x1="18873" y1="-5407" x2="18873" y2= "-3783" />
   <line class="fil5 str0" x1="23915" y1="-5399" x2="23915" y2= "-3774" />
   <circle class="fil6" cx="18873" cy="-5407" r="107"/>
   <circle class="fil6" cx="23915" cy="-5399" r="107"/>
   <circle class="fil6" cx="22117" cy="-7506" r="107"/>
   <path class="fil5" d="M18873 -5300c0,0 285,-61 591,20 306,81 486,64 544,29 58,-35 -162,237 -266,237 -104,0 181,244 218,244 32,0 -290,0 -458,-28 -32,-5 -101,-17 -119,-23 -110,-39 -438,-61 -510,-50 0,-85 0,-429 0,-429z"/>
   <path class="fil2" d="M18873 -5079c0,0 312,-38 489,3 177,41 348,74 348,74 0,0 88,117 170,182 26,21 41,43 66,45 104,10 -306,18 -576,-50 -270,-68 -497,-48 -497,-48l0 -207z"/>
   <path class="fil5" d="M19345 -5305c0,0 -41,112 -47,184 -6,72 -41,272 -41,272"/>
   <path class="fil10" d="M22117 -7363c0,0 312,-38 489,3 624,145 329,139 1052,207 104,10 -774,112 -1044,44 -270,-68 -497,-48 -497,-48l0 -207z"/>
   <path class="fil2" d="M19345 -5305c-194,-31 -364,-12 -435,-1 -11,4 -24,6 -36,6l0 222c0,0 243,-30 421,-8 2,-13 3,-25 4,-34 6,-72 47,-184 47,-184z"/>
   <path class="fil3" d="M22286 -2543l0 0c0,-3 0,-6 0,-10 0,-104 54,-188 120,-188 66,0 120,84 120,188 0,3 0,6 0,10l0 0 0 468 -240 0 0 -468z"/>
   <path class="fil10" d="M19294 -5087c-179,-21 -421,8 -421,8l0 207c0,0 164,-15 380,23 2,0 3,0 5,1 0,0 27,-151 37,-238z"/>
   <path class="fil10" d="M19464 -5280c-40,-11 -81,-19 -120,-25 0,0 -41,112 -47,184 -1,9 -2,21 -4,34 24,3 47,7 67,11 177,41 348,74 348,74 0,0 4,6 12,16 -7,-17 -2,-28 20,-28 104,0 324,-272 266,-237 -58,35 -237,52 -544,-29z"/>
   <path class="fil5" d="M23915 -5282c0,0 285,-61 591,20 306,81 486,64 544,29 58,-35 -162,237 -266,237 -104,0 181,244 218,244 32,0 -290,0 -458,-28 -32,-5 -101,-17 -119,-23 -110,-39 -438,-61 -510,-50 0,-85 0,-429 0,-429z"/>
   <path class="fil2" d="M23915 -5061c0,0 312,-38 489,3 177,41 348,74 348,74 0,0 88,117 170,182 26,21 41,43 66,45 104,10 -306,18 -576,-50 -270,-68 -497,-48 -497,-48l0 -207z"/>
   <path class="fil5" d="M24387 -5287c0,0 -41,112 -47,184 -6,72 -41,272 -41,272"/>
   <path class="fil2" d="M24387 -5287c-194,-31 -364,-12 -435,-1 -11,4 -24,6 -36,6l0 222c0,0 243,-30 421,-8 2,-13 3,-25 4,-34 6,-72 47,-184 47,-184z"/>
   <path class="fil10" d="M24337 -5069c-179,-21 -421,8 -421,8l0 207c0,0 164,-15 380,23 2,0 3,0 5,1 0,0 27,-151 37,-238z"/>
   <path class="fil10" d="M24507 -5262c-40,-11 -81,-19 -120,-25 0,0 -41,112 -47,184 -1,9 -2,21 -4,34 24,3 47,7 67,11 177,41 348,74 348,74 0,0 4,6 12,16 -7,-17 -2,-28 20,-28 104,0 324,-272 266,-237 -58,35 -237,52 -544,-29z"/>
   <path class="fil7" d="M21875 -6532c-108,177 -234,365 -279,462 -45,98 -193,353 -311,471 -118,118 -216,275 -285,363 -69,88 -127,84 40,121 167,37 304,-42 412,-72 108,-29 344,20 422,59 79,39 49,49 295,-10 246,-59 324,-108 393,-69 69,39 193,122 363,98 171,-23 314,20 275,-88 -39,-108 29,-167 -128,-275 -157,-108 -206,-108 -275,-255 -69,-147 -236,-442 -236,-442 0,0 -39,-128 -157,-246 -204,-204 -301,-493 -530,-118z"/>
   <path class="fil7" d="M23700 -4107c81,4 146,253 162,261 53,27 104,-14 104,-14 27,-120 4,-243 158,-219 100,16 116,14 131,35 27,41 -14,113 33,179 48,67 212,85 200,-12 -7,-63 -41,-74 -31,-121 21,-93 124,-182 302,-83 72,40 122,155 117,197 -5,42 20,37 83,33 132,-10 23,-60 143,-196 38,-43 254,-79 254,10 0,75 -5,158 46,186 51,28 88,26 90,-71 2,-89 -42,-180 134,-180 140,0 225,15 239,80 14,65 26,97 -25,167 -51,70 11,64 -57,166 -69,101 -143,81 -194,100 -51,19 -130,-5 -266,-14 -135,-9 -205,-51 -298,-9 -93,42 -144,84 -242,89 -98,5 -131,51 -336,-5 -205,-56 -140,-65 -266,-70 -126,-5 -65,-14 -238,-5 -172,9 -120,7 -242,37 -123,30 -270,23 -294,-37 -23,-61 -23,-75 -33,-172 -24,-254 -174,-357 326,-331z"/>
   <path class="fil7" d="M18691 -4155c81,4 146,253 162,261 53,27 104,-14 104,-14 27,-120 4,-243 158,-219 100,16 116,14 131,35 27,41 -14,113 33,179 48,67 165,85 153,-12 -7,-63 5,-74 16,-121 21,-93 124,-182 302,-83 72,40 122,155 117,197 -5,42 20,37 83,33 132,-10 23,-60 143,-196 38,-43 254,-79 254,10 0,75 -5,158 46,186 51,28 88,26 90,-71 2,-89 -42,-180 134,-180 140,0 225,15 239,80 14,65 26,97 -25,167 -51,70 11,64 -57,166 -69,101 -143,81 -194,100 -51,19 -130,-5 -266,-14 -135,-9 -205,-51 -298,-9 -93,42 -144,84 -242,89 -98,5 -131,51 -336,-5 -205,-56 -140,-65 -266,-70 -126,-5 -65,-14 -238,-5 -172,9 -120,7 -242,37 -123,30 -270,23 -294,-37 -23,-61 -23,-75 -33,-172 -24,-254 -174,-357 326,-331z"/>
   <path class="fil7" d="M20447 -3007c25,0 166,-33 192,29 25,63 59,34 69,93 10,59 18,89 29,118 95,229 69,-35 211,-142 59,-45 66,-5 111,-45 46,-39 188,-59 218,0 29,59 69,88 79,152 10,64 -43,145 10,145 52,0 66,-20 71,25 5,44 23,158 -52,165 -54,5 -88,5 -211,2 -123,-2 -246,-5 -332,10 -86,15 -130,7 -268,-2 -138,-10 -258,-15 -327,-34 -69,-20 -44,-201 -34,-226 10,-25 49,-131 32,-160 -86,-148 112,-130 201,-130z"/>
   <path class="fil7" d="M23013 -3041c25,0 166,-33 192,29 25,63 59,34 69,93 10,59 18,89 29,118 95,229 69,-35 211,-142 59,-45 66,-5 111,-45 46,-39 188,-59 218,0 29,59 69,88 79,152 10,64 -43,145 10,145 52,0 66,-20 71,25 5,44 23,158 -52,165 -43,4 -57,56 -130,55 -18,0 -57,-52 -81,-53 -123,-2 -238,32 -324,47 -86,15 -138,-29 -275,-39 -42,-3 -60,39 -98,36 -86,-6 -181,-57 -229,-70 -69,-20 -44,-201 -34,-226 10,-25 41,-135 25,-164 -86,-148 120,-126 209,-126z"/>
  </g>
  <g id="_273225504">
   <polygon class="fil0" points="2154,4853 2153,5233 2277,5237 2280,4855 2572,4854 2572,5241 2858,5232 2856,4860 3157,4860 3158,5233 3326,5235 3325,4853 3325,2865 4713,2865 4713,4853 4712,5236 4875,5236 4875,4863 5114,4862 5115,5237 5369,5237 5406,5234 5406,4857 5673,4858 5673,5237 5881,5238 5884,4853 5884,4484 7272,4484 7272,5213 7271,5213 7271,7843 766,7843 766,5209 766,5209 766,4480 2154,4480 "/>
   <path class="fil12" d="M5282 2880l-2584 4 1323 -1785 1261 1781zm-1292 2m-630 -891m1292 -2"/>
   <polygon class="fil13" points="269,3767 639,3765 657,3987 906,3985 905,3764 1102,3764 1102,3978 1380,3982 1379,3764 1663,3764 1664,3986 1975,3983 1975,3764 2197,3764 2195,3988 2407,3984 2411,3764 2689,3764 2484,4551 460,4551 "/>
   <polygon class="fil13" points="5311,3767 5681,3765 5698,3987 5948,3985 5947,3764 6144,3764 6144,3978 6422,3982 6421,3764 6705,3764 6706,3986 7017,3983 7017,3764 7239,3764 7236,3988 7449,3984 7453,3764 7731,3764 7526,4551 5502,4551 "/>
   <path class="fil3" d="M1251 5625l0 0c0,-6 0,-11 0,-17 0,-185 96,-334 214,-334 118,0 214,150 214,334 0,6 0,11 0,17l0 0 0 833 -428 0 0 -833z"/>
   <path class="fil3" d="M6406 5631l0 0c0,-6 0,-11 0,-17 0,-185 96,-334 214,-334 118,0 214,150 214,334 0,6 0,11 0,17l0 0 0 833 -428 0 0 -833z"/>
   <path class="fil14" d="M3486 6881l1 0c-1,-7 -1,-13 -1,-20 0,-214 266,-387 595,-387 329,0 595,173 595,387 0,7 0,13 -1,20l1 0 0 964 -1190 0 0 -964z"/>
   <path class="fil3" d="M3578 4293l0 0c0,-3 0,-6 0,-10 0,-104 54,-188 120,-188 66,0 120,84 120,188 0,3 0,6 0,10l0 0 0 468 -240 0 0 -468z"/>
   <path class="fil3" d="M4191 3599l0 0c0,-3 0,-6 0,-10 0,-104 54,-188 120,-188 66,0 120,84 120,188 0,3 0,6 0,10l0 0 0 468 -240 0 0 -468z"/>
   <line class="fil5 str0" x1="4021" y1="1099" x2="4025" y2= "262" />
   <line class="fil5 str0" x1="781" y1="2361" x2="781" y2= "3985" />
   <line class="fil5 str0" x1="5823" y1="2370" x2="5823" y2= "3994" />
   <circle class="fil6" cx="781" cy="2361" r="107"/>
   <circle class="fil6" cx="5823" cy="2370" r="107"/>
   <circle class="fil6" cx="4025" cy="262" r="107"/>
   <path class="fil5" d="M781 2468c0,0 285,-61 591,20 306,81 486,64 544,29 58,-35 -162,237 -266,237 -104,0 181,244 218,244 32,0 -290,0 -458,-28 -32,-5 -101,-17 -119,-23 -110,-39 -438,-61 -510,-50 0,-85 0,-429 0,-429z"/>
   <path class="fil13" d="M781 2689c0,0 312,-38 489,3 177,41 348,74 348,74 0,0 88,117 170,182 26,21 41,43 66,45 104,10 -306,18 -576,-50 -270,-68 -497,-48 -497,-48l0 -207z"/>
   <path class="fil5" d="M1253 2463c0,0 -41,112 -47,184 -6,72 -41,272 -41,272"/>
   <path class="fil14" d="M4025 405c0,0 312,-38 489,3 624,145 329,139 1052,207 104,10 -774,112 -1044,44 -270,-68 -497,-48 -497,-48l0 -207z"/>
   <path class="fil13" d="M1253 2463c-194,-31 -364,-12 -435,-1 -11,4 -24,6 -36,6l0 222c0,0 243,-30 421,-8 2,-13 3,-25 4,-34 6,-72 47,-184 47,-184z"/>
   <path class="fil3" d="M4194 5225l0 0c0,-3 0,-6 0,-10 0,-104 54,-188 120,-188 66,0 120,84 120,188 0,3 0,6 0,10l0 0 0 468 -240 0 0 -468z"/>
   <path class="fil14" d="M1202 2681c-179,-21 -421,8 -421,8l0 207c0,0 164,-15 380,23 2,0 3,0 5,1 0,0 27,-151 37,-238z"/>
   <path class="fil14" d="M1372 2488c-40,-11 -81,-19 -120,-25 0,0 -41,112 -47,184 -1,9 -2,21 -4,34 24,3 47,7 67,11 177,41 348,74 348,74 0,0 4,6 12,16 -7,-17 -2,-28 20,-28 104,0 324,-272 266,-237 -58,35 -237,52 -544,-29z"/>
   <path class="fil5" d="M5824 2486c0,0 285,-61 591,20 306,81 486,64 544,29 58,-35 -162,237 -266,237 -104,0 181,244 218,244 32,0 -290,0 -458,-28 -32,-5 -101,-17 -119,-23 -110,-39 -438,-61 -510,-50 0,-85 0,-429 0,-429z"/>
   <path class="fil13" d="M5824 2708c0,0 312,-38 489,3 177,41 348,74 348,74 0,0 88,117 170,182 26,21 41,43 66,45 104,10 -306,18 -576,-50 -270,-68 -497,-48 -497,-48l0 -207z"/>
   <path class="fil5" d="M6295 2481c0,0 -41,112 -47,184 -6,72 -41,272 -41,272"/>
   <path class="fil13" d="M6295 2481c-194,-31 -364,-12 -435,-1 -11,4 -24,6 -36,6l0 222c0,0 243,-30 421,-8 2,-13 3,-25 4,-34 6,-72 47,-184 47,-184z"/>
   <path class="fil14" d="M6245 2699c-179,-21 -421,8 -421,8l0 207c0,0 164,-15 380,23 2,0 3,0 5,1 0,0 27,-151 37,-238z"/>
   <path class="fil14" d="M6415 2506c-40,-11 -81,-19 -120,-25 0,0 -41,112 -47,184 -1,9 -2,21 -4,34 24,3 47,7 67,11 177,41 348,74 348,74 0,0 4,6 12,16 -7,-17 -2,-28 20,-28 104,0 324,-272 266,-237 -58,35 -237,52 -544,-29z"/>
  </g>
 </g>
</svg>
