<?xml version="1.0" encoding="UTF-16"?>
<!DOCTYPE svg PUBLIC "-//W3C//DTD SVG 1.1//EN" "http://www.w3.org/Graphics/SVG/1.1/DTD/svg11.dtd">
<!-- Creator: CorelDRAW X5 -->
<svg xmlns="http://www.w3.org/2000/svg" xml:space="preserve" width="65mm" height="80mm" style="shape-rendering:geometricPrecision; text-rendering:geometricPrecision; image-rendering:optimizeQuality; fill-rule:evenodd; clip-rule:evenodd"
viewBox="0 0 6500 8000"
 xmlns:xlink="http://www.w3.org/1999/xlink">
 <defs>
  <style type="text/css">
   <![CDATA[
    .str1 {stroke:gray;stroke-width:7.62}
    .str0 {stroke:black;stroke-width:20}
    .fil5 {fill:none}
    .fil0 {fill:#4E4E4E}
    .fil2 {fill:#BE2D21}
    .fil4 {fill:#D77D1A}
    .fil7 {fill:#E5F9DF}
    .fil6 {fill:#F3DF39}
    .fil3 {fill:white}
    .fil1 {fill:#D77D1A;fill-rule:nonzero}
   ]]>
  </style>
 </defs>
 <g id="Warstwa_x0020_1">
  <metadata id="CorelCorpID_0Corel-Layer"/>
  <g id="_273216192">
   <polygon class="fil0" points="10781,6703 10780,7016 10882,7019 10885,6705 11125,6704 11125,7023 11361,7015 11360,6709 11608,6708 11609,7016 11747,7018 11746,6703 11746,5065 12890,5065 12890,6703 12889,7019 13023,7019 13023,6712 13220,6710 13221,7019 13431,7019 13462,7017 13461,6707 13681,6708 13681,7020 13852,7020 13855,6703 13855,6399 14999,6399 14999,7000 14998,7000 14998,9167 9637,9167 9637,6996 9637,6996 9637,3247 10781,3261 "/>
   <path class="fil1" d="M13359 5077l-2130 3 1091 -1471 1039 1468zm-1065 2m-520 -734m1065 -2"/>
   <polygon class="fil2" points="13383,5808 13688,5807 13702,5989 13908,5987 13907,5806 14069,5806 14069,5982 14299,5985 14298,5806 14531,5806 14533,5988 14789,5986 14789,5806 14972,5806 14970,5990 15145,5987 15149,5806 15377,5806 15208,6454 13540,6454 "/>
   <path class="fil3" d="M10036 7339l0 0c0,-5 0,-9 0,-14 0,-152 79,-275 176,-275 97,0 176,123 176,275 0,5 0,9 0,14l0 0 0 686 -353 0 0 -686z"/>
   <path class="fil3" d="M14285 7344l0 0c0,-5 0,-9 0,-14 0,-152 79,-275 176,-275 97,0 176,123 176,275 0,5 0,9 0,14l0 0 0 686 -353 0 0 -686z"/>
   <path class="fil4" d="M11878 8375l1 0c0,-5 -1,-11 -1,-16 0,-176 220,-319 490,-319 271,0 490,143 490,319 0,5 0,11 -1,16l1 0 0 794 -981 0 0 -794z"/>
   <path class="fil3" d="M11955 6241l0 0c0,-3 0,-5 0,-8 0,-85 44,-155 99,-155 55,0 99,69 99,155 0,3 0,5 0,8l0 0 0 385 -198 0 0 -385z"/>
   <path class="fil3" d="M12460 5669l0 0c0,-3 0,-5 0,-8 0,-85 44,-155 99,-155 55,0 99,69 99,155 0,3 0,5 0,8l0 0 0 385 -198 0 0 -385z"/>
   <line class="fil5 str0" x1="13805" y1="4656" x2="13805" y2= "5995" />
   <circle class="fil6" cx="13805" cy="4656" r="88"/>
   <path class="fil3" d="M12463 7010l0 0c0,-3 0,-5 0,-8 0,-85 44,-155 99,-155 55,0 99,69 99,155 0,3 0,5 0,8l0 0 0 385 -198 0 0 -385z"/>
   <path class="fil5" d="M13805 4752c0,0 235,-50 487,17 253,67 400,52 448,24 48,-29 -133,195 -219,195 -86,0 149,201 180,201 26,0 -239,0 -377,-23 -26,-4 -83,-14 -98,-19 -91,-32 -361,-51 -420,-41 0,-70 0,-354 0,-354z"/>
   <path class="fil4" d="M13805 4935c0,0 257,-31 403,3 146,34 287,61 287,61 0,0 73,97 140,150 22,17 34,36 54,37 86,8 -252,15 -474,-41 -222,-56 -410,-39 -410,-39l0 -170z"/>
   <path class="fil5" d="M14194 4748c0,0 -34,92 -38,152 -5,60 -34,225 -34,225"/>
   <path class="fil4" d="M14194 4748c-160,-25 -300,-10 -359,-1 -9,3 -19,5 -30,5l0 183c0,0 200,-24 347,-7 1,-11 2,-20 3,-28 5,-60 38,-152 38,-152z"/>
   <path class="fil2" d="M14153 4928c-147,-18 -347,7 -347,7l0 170c0,0 136,-12 313,19 1,0 3,0 4,1 0,0 22,-125 31,-197z"/>
   <path class="fil2" d="M14293 4769c-33,-9 -66,-16 -99,-21 0,0 -34,92 -38,152 -1,8 -2,17 -3,28 20,2 38,5 56,9 146,34 287,61 287,61 0,0 4,5 10,13 -5,-14 -1,-23 17,-23 86,0 267,-224 219,-195 -48,29 -195,43 -448,-24z"/>
   <path class="fil3" d="M9844 5703l0 0c0,-5 0,-9 0,-14 0,-152 79,-275 176,-275 97,0 176,123 176,275 0,5 0,9 0,14l0 0 0 686 -353 0 0 -686z"/>
   <path class="fil3" d="M10275 4734l0 0c0,-5 0,-9 0,-14 0,-152 79,-275 176,-275 97,0 176,123 176,275 0,5 0,9 0,14l0 0 0 686 -353 0 0 -686z"/>
   <path class="fil3" d="M9803 3723l0 0c0,-5 0,-9 0,-14 0,-152 79,-275 176,-275 97,0 176,123 176,275 0,5 0,9 0,14l0 0 0 686 -353 0 0 -686z"/>
   <polygon class="fil2" points="9141,2697 9446,2696 9461,2879 9666,2877 9665,2695 9827,2695 9827,2872 10057,2874 10056,2695 10290,2695 10291,2878 10547,2875 10547,2695 10731,2695 10728,2880 10903,2876 10907,2695 11136,2695 10966,3343 9298,3343 "/>
   <line class="fil5 str0" x1="12320" y1="3609" x2="12323" y2= "2919" />
   <line class="fil5 str0" x1="9563" y1="1538" x2="9563" y2= "2878" />
   <circle class="fil6" cx="9563" cy="1538" r="88"/>
   <circle class="fil6" cx="12323" cy="2919" r="88"/>
   <path class="fil5" d="M9563 1627c0,0 235,-50 487,17 253,67 400,52 448,24 48,-29 -133,195 -219,195 -86,0 149,201 180,201 26,0 -239,0 -377,-23 -26,-4 -83,-14 -98,-19 -91,-32 -361,-51 -420,-41 0,-70 0,-354 0,-354z"/>
   <path class="fil4" d="M9563 1809c0,0 257,-31 403,3 146,34 287,61 287,61 0,0 73,97 140,150 22,17 34,36 54,37 86,8 -252,15 -474,-41 -222,-56 -410,-39 -410,-39l0 -170z"/>
   <path class="fil5" d="M9952 1623c0,0 -34,92 -38,152 -5,60 -34,225 -34,225"/>
   <path class="fil4" d="M12323 3037c0,0 257,-31 403,3 514,120 271,115 867,171 86,8 -638,92 -860,36 -222,-56 -410,-39 -410,-39l0 -170z"/>
   <path class="fil4" d="M9952 1623c-160,-25 -300,-10 -359,-1 -9,3 -19,5 -30,5l0 183c0,0 200,-24 347,-7 1,-11 2,-20 3,-28 5,-60 38,-152 38,-152z"/>
   <path class="fil2" d="M9910 1802c-147,-18 -347,7 -347,7l0 170c0,0 136,-12 313,19 1,0 3,0 4,1 0,0 22,-125 31,-197z"/>
   <path class="fil2" d="M10050 1643c-33,-9 -66,-16 -99,-21 0,0 -34,92 -38,152 -1,8 -2,17 -3,28 20,2 38,5 56,9 146,34 287,61 287,61 0,0 4,5 10,13 -5,-14 -1,-23 17,-23 86,0 267,-224 219,-195 -48,29 -195,43 -448,-24z"/>
  </g>
  <polygon class="fil0 str1" points="1836,5385 1835,5696 1937,5699 1939,5387 2179,5386 2179,5703 2413,5695 2411,5391 2658,5390 2659,5696 2797,5698 2795,5385 2795,3757 3932,3757 3932,5385 3932,5699 4065,5699 4065,5393 4261,5392 4261,5699 4470,5699 4501,5697 4500,5388 4719,5389 4719,5700 4889,5700 4892,5385 4892,5083 6029,5083 6029,5680 6028,5680 6028,7834 699,7834 699,5676 699,5676 699,1950 1836,1964 "/>
  <path class="fil1 str1" d="M4399 3769l-2117 3 1084 -1462 1033 1459zm-1058 2m-516 -730m1058 -1"/>
  <polygon class="fil2 str1" points="207,1404 510,1402 524,1584 728,1582 728,1402 889,1402 889,1577 1117,1580 1116,1402 1348,1402 1349,1583 1604,1580 1604,1402 1786,1402 1784,1585 1958,1581 1961,1402 2189,1402 2021,2046 363,2046 "/>
  <polygon class="fil2 str1" points="4422,4495 4726,4494 4740,4675 4944,4674 4943,4493 5104,4493 5104,4668 5333,4671 5332,4493 5564,4493 5565,4674 5820,4672 5820,4493 6002,4493 6000,4677 6173,4673 6177,4493 6405,4493 6236,5137 4579,5137 "/>
  <path class="fil3" d="M1096 6017l0 0c0,-5 0,-9 0,-14 0,-151 78,-274 175,-274 97,0 175,123 175,274 0,5 0,9 0,14l0 0 0 682 -351 0 0 -682z"/>
  <path class="fil3" d="M5319 6022l0 0c0,-5 0,-9 0,-14 0,-151 78,-274 175,-274 97,0 175,123 175,274 0,5 0,9 0,14l0 0 0 682 -351 0 0 -682z"/>
  <path class="fil4" d="M2927 7046l1 0c0,-5 -1,-11 -1,-16 0,-175 218,-317 487,-317 269,0 487,142 487,317 0,5 0,11 -1,16l1 0 0 789 -975 0 0 -789z"/>
  <path class="fil3" d="M3003 4926l0 0c0,-3 0,-5 0,-8 0,-85 44,-154 98,-154 54,0 98,69 98,154 0,3 0,5 0,8l0 0 0 383 -197 0 0 -383z"/>
  <path class="fil3" d="M3505 4357l0 0c0,-3 0,-5 0,-8 0,-85 44,-154 98,-154 54,0 98,69 98,154 0,3 0,5 0,8l0 0 0 383 -197 0 0 -383z"/>
  <line class="fil5 str0" x1="3366" y1="2310" x2="3369" y2= "1624" />
  <line class="fil5 str0" x1="626" y1="252" x2="626" y2= "1583" />
  <line class="fil5 str0" x1="4842" y1="3350" x2="4842" y2= "4681" />
  <circle class="fil6" cx="626" cy="252" r="88"/>
  <circle class="fil6" cx="4842" cy="3350" r="88"/>
  <circle class="fil6" cx="3369" cy="1624" r="88"/>
  <path class="fil5" d="M626 339c0,0 233,-50 484,17 251,66 398,52 445,24 47,-28 -133,194 -218,194 -85,0 148,200 179,200 26,0 -238,0 -375,-23 -26,-4 -83,-14 -98,-19 -90,-32 -359,-50 -418,-41 0,-70 0,-352 0,-352z"/>
  <path class="fil4" d="M626 521c0,0 255,-31 400,3 145,34 285,60 285,60 0,0 72,96 139,149 21,17 34,35 54,37 85,8 -251,15 -472,-41 -221,-56 -407,-39 -407,-39l0 -169z"/>
  <path class="fil5" d="M1012 335c0,0 -33,92 -38,151 -5,59 -33,223 -33,223"/>
  <path class="fil4" d="M3369 1742c0,0 255,-31 400,3 511,119 269,114 862,170 85,8 -634,92 -855,36 -221,-56 -407,-39 -407,-39l0 -169z"/>
  <path class="fil4" d="M1012 335c-159,-25 -298,-10 -357,-1 -9,3 -19,5 -30,5l0 182c0,0 199,-24 345,-7 1,-11 2,-20 3,-28 5,-59 38,-151 38,-151z"/>
  <path class="fil3" d="M3508 5690l0 0c0,-3 0,-5 0,-8 0,-85 44,-154 98,-154 54,0 98,69 98,154 0,3 0,5 0,8l0 0 0 383 -197 0 0 -383z"/>
  <path class="fil2" d="M971 514c-146,-18 -345,7 -345,7l0 169c0,0 135,-12 311,19 1,0 3,0 4,1 0,0 22,-124 31,-195z"/>
  <path class="fil2" d="M1110 356c-33,-9 -66,-15 -98,-21 0,0 -33,92 -38,151 -1,8 -2,17 -3,28 20,2 38,5 55,9 145,34 285,60 285,60 0,0 4,5 10,13 -5,-14 -1,-23 16,-23 85,0 265,-223 218,-194 -47,28 -194,43 -445,-24z"/>
  <path class="fil5" d="M4842 3446c0,0 233,-50 484,17 251,66 398,52 445,24 47,-28 -133,194 -218,194 -85,0 148,200 179,200 26,0 -238,0 -375,-23 -26,-4 -83,-14 -98,-19 -90,-32 -359,-50 -418,-41 0,-70 0,-352 0,-352z"/>
  <path class="fil4" d="M4842 3627c0,0 255,-31 400,3 145,34 285,60 285,60 0,0 72,96 139,149 21,17 34,35 54,37 85,8 -251,15 -472,-41 -221,-56 -407,-39 -407,-39l0 -169z"/>
  <path class="fil5" d="M5228 3442c0,0 -33,92 -38,151 -5,59 -33,223 -33,223"/>
  <path class="fil4" d="M5228 3442c-159,-25 -298,-10 -357,-1 -9,3 -19,5 -30,5l0 182c0,0 199,-24 345,-7 1,-11 2,-20 3,-28 5,-59 38,-151 38,-151z"/>
  <path class="fil2" d="M5187 3621c-146,-18 -345,7 -345,7l0 169c0,0 135,-12 311,19 1,0 3,0 4,1 0,0 22,-124 31,-195z"/>
  <path class="fil2" d="M5326 3462c-33,-9 -66,-15 -98,-21 0,0 -33,92 -38,151 -1,8 -2,17 -3,28 20,2 38,5 55,9 145,34 285,60 285,60 0,0 4,5 10,13 -5,-14 -1,-23 16,-23 85,0 265,-223 218,-194 -47,28 -194,43 -445,-24z"/>
  <path class="fil3" d="M905 4391l0 0c0,-5 0,-9 0,-14 0,-151 78,-274 175,-274 97,0 175,123 175,274 0,5 0,9 0,14l0 0 0 682 -351 0 0 -682z"/>
  <path class="fil3" d="M1333 3428l0 0c0,-5 0,-9 0,-14 0,-151 78,-274 175,-274 97,0 175,123 175,274 0,5 0,9 0,14l0 0 0 682 -351 0 0 -682z"/>
  <path class="fil3" d="M864 2423l0 0c0,-5 0,-9 0,-14 0,-151 78,-274 175,-274 97,0 175,123 175,274 0,5 0,9 0,14l0 0 0 682 -351 0 0 -682z"/>
  <path class="fil7" d="M3165 2406c-91,148 -196,306 -234,387 -38,82 -161,296 -260,394 -99,99 -181,230 -239,305 -58,74 -107,70 33,101 140,31 255,-35 345,-60 91,-25 288,16 354,49 66,33 41,41 247,-8 206,-49 272,-91 329,-58 58,33 162,102 305,82 143,-20 263,16 230,-74 -33,-91 25,-140 -107,-230 -132,-91 -173,-91 -230,-214 -58,-123 -198,-370 -198,-370 0,0 -33,-107 -132,-206 -171,-171 -252,-413 -444,-99z"/>
  <path class="fil7" d="M4678 4409c66,4 120,214 133,221 44,23 85,-12 85,-12 22,-102 3,-207 130,-186 82,14 96,12 108,30 22,34 -12,96 27,152 40,57 174,73 164,-10 -6,-53 -34,-63 -25,-103 17,-79 101,-155 248,-71 59,34 100,132 96,167 -4,36 16,32 68,28 109,-8 19,-51 118,-166 31,-36 208,-67 208,8 0,63 -4,134 38,158 42,24 73,22 74,-60 2,-76 -34,-153 110,-153 115,0 185,13 196,68 11,55 21,83 -21,142 -42,59 9,55 -47,141 -56,86 -117,69 -159,85 -42,16 -107,-4 -218,-12 -111,-8 -168,-44 -245,-8 -77,36 -119,71 -199,75 -80,4 -107,44 -276,-4 -168,-47 -115,-55 -218,-59 -103,-4 -54,-12 -195,-4 -142,8 -98,6 -199,32 -101,25 -222,20 -241,-32 -19,-51 -19,-63 -27,-146 -20,-215 -143,-303 267,-281z"/>
  <path class="fil7" d="M2002 5186c22,0 151,-33 174,29 23,63 54,34 63,93 9,59 16,89 27,117 86,228 63,-34 192,-142 54,-44 60,-5 101,-45 42,-39 171,-59 198,0 27,59 63,88 71,152 8,54 155,320 27,333 -49,5 -80,5 -192,2 -112,-2 -223,-5 -302,10 -78,15 -118,7 -243,-2 -125,-10 -235,-15 -297,-34 -63,-20 -40,-201 -31,-225 9,-24 45,-130 29,-159 -78,-147 102,-130 183,-130z"/>
  <path class="fil7" d="M4054 5222c23,0 153,-33 176,29 23,63 54,34 63,93 9,59 16,89 27,117 87,228 64,-34 195,-142 54,-44 60,-5 103,-45 42,-39 173,-59 201,0 27,59 63,88 72,152 8,55 157,320 27,333 -40,4 -52,56 -120,55 -17,0 -52,-52 -75,-53 -113,-2 -219,32 -299,46 -79,15 -127,-29 -253,-39 -39,-3 -56,39 -90,36 -79,-6 -167,-57 -211,-70 -63,-20 -41,-201 -32,-225 9,-24 38,-135 23,-163 -79,-147 110,-125 192,-125z"/>
  <path class="fil7" d="M363 1275c73,4 132,228 146,235 48,24 93,-13 93,-13 25,-108 4,-219 142,-197 90,14 105,12 118,32 25,37 -13,102 30,161 43,61 149,77 138,-11 -7,-57 5,-67 14,-109 19,-84 111,-164 272,-75 65,36 110,140 106,177 -4,38 18,34 75,30 119,-9 20,-54 129,-177 34,-38 229,-71 229,9 0,67 -5,142 41,167 46,25 80,24 81,-64 2,-80 -37,-162 121,-162 126,0 203,13 216,72 13,59 23,88 -23,151 -46,63 10,58 -52,149 -62,91 -129,73 -175,90 -46,17 -118,-4 -239,-13 -122,-8 -185,-46 -269,-8 -84,38 -130,76 -218,80 -88,4 -118,46 -302,-4 -185,-50 -126,-59 -239,-63 -113,-4 -59,-13 -214,-4 -155,8 -108,7 -218,34 -111,27 -244,21 -265,-34 -21,-55 -21,-67 -29,-155 -22,-229 -157,-322 293,-298z"/>
 </g>
</svg>
