<?xml version="1.0" encoding="UTF-16"?>
<!DOCTYPE svg PUBLIC "-//W3C//DTD SVG 1.1//EN" "http://www.w3.org/Graphics/SVG/1.1/DTD/svg11.dtd">
<!-- Creator: CorelDRAW X5 -->
<svg xmlns="http://www.w3.org/2000/svg" xml:space="preserve" width="50mm" height="45mm" style="shape-rendering:geometricPrecision; text-rendering:geometricPrecision; image-rendering:optimizeQuality; fill-rule:evenodd; clip-rule:evenodd"
viewBox="0 0 5000 4500"
 xmlns:xlink="http://www.w3.org/1999/xlink">
 <defs>
  <style type="text/css">
   <![CDATA[
    .str1 {stroke:#705227;stroke-width:20}
    .str0 {stroke:#705227;stroke-width:20;stroke-linecap:round;stroke-linejoin:round}
    .fil2 {fill:none}
    .fil5 {fill:black}
    .fil6 {fill:#FEFEFE}
    .fil1 {fill:#9E835F}
    .fil7 {fill:#B89E7B}
    .fil3 {fill:#F7B1BC}
    .fil0 {fill:#705227}
    .fil4 {fill:#856332}
    .fil8 {fill:#FEFEFE;fill-opacity:0.149020}
   ]]>
  </style>
 </defs>
 <g id="Warstwa_x0020_1">
  <metadata id="CorelCorpID_0Corel-Layer"/>
  <g id="_252262784">
   <path class="fil0" d="M2052 2325c0,0 -749,332 -956,400 -208,68 -243,63 -243,63l184 339c0,0 1156,-373 1114,-550 -42,-176 -99,-253 -99,-253z"/>
   <path class="fil1" d="M964 2747c0,0 -117,-285 -266,-413 -148,-128 -332,-161 -449,-59 -117,102 -180,307 191,691 371,384 549,238 585,193 36,-45 -62,-412 -62,-412z"/>
   <path class="fil2 str0" d="M172 2530c0,0 40,-226 236,-223"/>
   <path class="fil0" d="M2898 2916c0,0 -418,238 -318,450 100,212 289,390 289,390l475 6c0,0 -421,-398 -355,-518 66,-120 158,-195 158,-195l-249 -132z"/>
   <path class="fil0" d="M2062 388c0,0 98,-225 322,-180 224,45 563,437 22,539 -541,102 -343,-359 -343,-359z"/>
   <path class="fil0" d="M613 335c0,0 98,-225 322,-180 224,45 563,437 22,539 -541,102 -343,-359 -343,-359z"/>
   <path class="fil3" d="M712 377c0,0 72,-165 235,-132 163,33 411,319 16,394 -395,74 -251,-262 -251,-262z"/>
   <path class="fil3" d="M2106 441c0,0 72,-165 235,-132 163,33 411,319 16,394 -395,74 -251,-262 -251,-262z"/>
   <path class="fil4" d="M1604 77c-8,-25 70,116 96,163 4,8 25,-77 205,-95 21,-2 -53,18 -97,47 -55,36 -86,82 -84,84 6,7 13,12 19,14 133,23 255,80 356,160 10,8 111,-6 129,-56 4,-12 -59,120 -42,117 46,-8 121,-101 131,-88 4,6 -130,97 -97,118 33,22 233,-26 218,-5 -14,19 -221,32 -214,38 128,109 168,297 168,477 0,427 -353,773 -788,773 -435,0 -788,-346 -788,-773 0,-179 62,-344 166,-475 23,-29 -147,-43 -121,-68 7,-7 95,16 141,7 11,-2 -119,-63 -109,-66 15,-6 124,50 156,31 20,-12 -40,-103 -20,-102 42,3 78,74 82,70 114,-90 254,-149 407,-166 193,-20 -100,-151 23,-116 42,12 77,83 78,83 22,-5 18,-68 -14,-173z"/>
   <ellipse class="fil5" transform="matrix(0.881039 0.0734241 -0.257349 1.57105 1447.47 533.093)" rx="65" ry="60"/>
   <ellipse class="fil5" transform="matrix(-0.881039 0.0734241 0.257349 1.57105 1748.63 538.452)" rx="65" ry="60"/>
   <ellipse class="fil6" cx="1456" cy="489" rx="31" ry="37"/>
   <ellipse class="fil6" cx="1737" cy="495" rx="31" ry="37"/>
   <path class="fil1" d="M2979 3717c0,0 -591,-36 -586,195 6,231 46,395 682,286 636,-109 534,-384 381,-418 -153,-34 -477,-63 -477,-63z"/>
   <path class="fil4" d="M2088 2905c-31,100 -82,224 -164,337 -178,246 -361,550 -361,550 0,0 427,-3 478,20 52,23 9,-206 126,-450 32,-67 69,-141 106,-214 159,140 361,196 560,209 0,27 -2,54 -2,54 0,0 20,-19 37,-24 17,-6 89,126 195,235 106,109 109,112 109,112 0,0 52,137 269,100 218,-37 212,-72 212,-72 0,0 -358,-261 -321,-375 9,-27 21,-55 37,-85 105,-27 183,-56 213,-73 130,-71 178,-161 260,-314 82,-153 249,-113 356,-566 108,-453 -28,-651 -91,-1115 -62,-464 306,-560 504,-622 198,-62 266,-79 209,-289 -57,-209 -628,40 -798,249 -170,209 -212,393 -76,1083 136,690 -156,917 -156,917 0,0 8,8 -34,-71 -42,-79 -223,-184 -444,-184 -221,0 -447,-11 -552,-108 -105,-96 -150,-85 -192,-102 -42,-17 -82,-17 -164,-91 -82,-74 -91,-102 -91,-102 0,0 -405,88 -405,102 0,14 -168,234 177,885z"/>
   <path class="fil0" d="M3557 2840c0,0 -710,40 -819,304 -109,264 36,95 36,95 0,0 -4,158 34,84 37,-74 26,90 26,90 0,0 20,-19 37,-24 17,-6 89,126 195,235 106,109 109,112 109,112 0,0 49,132 255,102 -115,-20 -146,-102 -146,-102 0,0 -3,-3 -109,-112 -106,-109 -178,-241 -195,-235 -17,6 -37,24 -37,24 0,0 11,-165 -26,-90 -37,74 -34,-84 -34,-84 0,0 -145,168 -36,-95 83,-202 520,-273 719,-295 -5,-6 -9,-9 -9,-9z"/>
   <path class="fil7" d="M3482 3711c-921,-115 -1130,677 -518,699 410,14 971,-229 856,-444 -115,-215 -177,-226 -338,-255z"/>
   <path class="fil0" d="M2190 2615c0,0 -83,153 -100,227 -20,88 -58,212 -127,336 -16,28 -219,91 -185,87 17,-2 88,-14 75,2 -14,17 -114,71 -106,68 127,-41 112,3 98,25 -148,225 -287,457 -288,457 0,0 45,-1 109,-1 160,-276 308,-566 422,-862 72,-188 5,-69 103,-338z"/>
   <path class="fil7" d="M1687 3764c0,0 -584,-18 -653,268 -69,286 89,375 553,392 464,17 673,-163 650,-427 -23,-264 -550,-234 -550,-234z"/>
   <path class="fil8" d="M4127 2567c25,-56 48,-126 70,-216 108,-453 -28,-651 -91,-1115 -14,-104 -6,-190 16,-261 -39,81 -57,184 -39,318 62,464 198,662 91,1115 -15,61 -30,113 -47,158zm687 -2047c31,-38 32,-94 5,-194 -57,-209 -628,40 -798,249 -54,67 -95,131 -122,210 25,-54 59,-103 99,-153 170,-209 741,-458 798,-249 16,59 22,103 18,137zm-910 1888c-53,118 -115,166 -115,166 0,0 8,9 -34,-71 -42,-79 -223,-184 -444,-184 -221,0 -447,-11 -552,-107 -105,-96 -150,-85 -192,-102 -42,-17 -82,-17 -164,-91 -82,-74 -91,-102 -91,-102 0,0 -11,2 -29,6 4,30 6,51 6,51 0,0 8,28 91,102 82,74 122,74 164,91 42,17 88,6 192,102 105,96 331,107 552,107 221,0 402,105 444,184 42,79 34,71 34,71 0,0 81,-63 138,-223z"/>
   <path class="fil8" d="M2396 1036c-8,-417 -352,-755 -780,-759 -435,-4 -791,338 -795,765 0,33 1,65 5,96 0,-7 0,-14 0,-22 4,-427 360,-769 795,-765 402,4 730,303 775,685z"/>
   <ellipse class="fil7" cx="1551" cy="1543" rx="1088" ry="756"/>
   <path class="fil2 str1" d="M1253 1171c-181,-77 128,-295 116,-29"/>
   <path class="fil2 str1" d="M1828 1168c181,-77 -128,-295 -116,-29"/>
   <ellipse class="fil4" cx="1290" cy="1114" rx="35" ry="32"/>
   <ellipse class="fil4" cx="1795" cy="1110" rx="33" ry="39"/>
   <path class="fil2 str0" d="M830 1668c0,0 650,968 1489,6"/>
   <path class="fil2 str0" d="M679 1643c0,0 160,117 218,-79"/>
   <path class="fil2 str0" d="M2463 1648c0,0 -160,117 -218,-79"/>
   <path class="fil8" d="M2351 2968c0,0 -119,153 -37,218 82,64 376,149 390,149 14,-1 -344,-126 -377,-193 -33,-67 84,-218 99,-242 14,-24 -74,69 -74,69z"/>
   <path class="fil8" d="M1551 787c601,0 1088,339 1088,756 0,38 -4,75 -12,112 0,-7 0,-13 0,-20 0,-418 -487,-756 -1088,-756 -546,0 -999,280 -1077,644 15,-408 497,-736 1088,-736z"/>
   <path class="fil2 str0" d="M1264 4380c0,0 -168,-214 7,-377"/>
   <path class="fil2 str0" d="M1550 4412c0,0 -160,-234 -25,-363"/>
   <path class="fil2 str0" d="M2949 4400c0,0 -208,-117 -174,-315"/>
   <path class="fil2 str0" d="M3255 4377c0,0 -224,-134 -181,-317"/>
   <path class="fil2 str0" d="M2560 4198c0,0 -98,-142 -32,-280"/>
  </g>
 </g>
</svg>
