<?xml version="1.0" encoding="UTF-8"?>
<!DOCTYPE svg PUBLIC "-//W3C//DTD SVG 1.1//EN" "http://www.w3.org/Graphics/SVG/1.1/DTD/svg11.dtd">
<!-- Creator: CorelDRAW X5 -->
<svg xmlns="http://www.w3.org/2000/svg" xml:space="preserve" width="70mm" height="40mm" style="shape-rendering:geometricPrecision; text-rendering:geometricPrecision; image-rendering:optimizeQuality; fill-rule:evenodd; clip-rule:evenodd"
viewBox="0 0 7000 4000"
 xmlns:xlink="http://www.w3.org/1999/xlink">
 <defs>
  <style type="text/css">
   <![CDATA[
    .str0 {stroke:black;stroke-width:20}
    .fil7 {fill:black}
    .fil5 {fill:gray}
    .fil2 {fill:#969797}
    .fil0 {fill:#ADAEAE}
    .fil8 {fill:#FEFEFE}
    .fil6 {fill:#E8E397}
    .fil1 {fill:#F48F9F}
    .fil4 {fill:#FEFCB1}
    .fil3 {fill:#FEFEFE;fill-opacity:0.149020}
   ]]>
  </style>
 </defs>
 <g id="Warstwa_x0020_1">
  <metadata id="CorelCorpID_0Corel-Layer"/>
  <g id="_252978968">
   <path class="fil0" d="M1532 719c0,0 -259,-240 -240,-438 19,-198 -9,-306 165,-155 174,151 201,416 207,447 6,31 19,113 19,113l-151 33z"/>
   <path class="fil1" d="M1592 692c0,0 -120,-170 -146,-258 -26,-88 -50,-133 -19,-123 32,9 177,278 189,333 12,55 -24,49 -24,49z"/>
   <path class="fil2" d="M2962 2712c0,0 8,535 -54,698 -80,211 -53,263 19,336 97,98 300,174 655,137 225,-23 388,-8 333,-279 -54,-271 -209,-1055 -209,-1055l-791 -256 47 419z"/>
   <path class="fil0" d="M3155 2751c0,0 8,535 -54,698 -80,211 -53,263 19,336 97,98 300,174 655,137 225,-23 388,-8 333,-279 -54,-271 -209,-1055 -209,-1055l-791 -256 47 419z"/>
   <path class="fil2" d="M4729 2547c0,0 185,168 162,602 -23,431 -240,624 467,592 435,-20 491,76 391,-450 -100,-525 -124,-809 -124,-809l-896 64z"/>
   <path class="fil0" d="M4993 2615c0,0 202,147 225,582 23,431 -172,646 527,539 430,-66 496,23 341,-489 -155,-512 -209,-791 -209,-791l-884 159z"/>
   <path class="fil0" d="M5739 721c0,0 527,186 628,182 101,-4 31,74 31,74 0,0 -702,-143 -744,-171 -43,-27 85,-85 85,-85z"/>
   <path class="fil2" d="M4995 2617c0,0 13,9 32,30l751 -135c0,0 54,279 209,791 70,230 95,339 62,394 147,-30 145,-98 39,-449 -155,-512 -209,-791 -209,-791l-884 159z"/>
   <path class="fil0" d="M4367 608c0,0 310,-186 742,-249 432,-63 833,242 985,904 152,662 193,1246 193,1246 0,0 -205,279 -1117,190 -912,-89 -904,-89 -904,-89 0,0 -2,-233 -26,-795 -24,-562 127,-1207 127,-1207z"/>
   <path class="fil2" d="M5374 365c326,70 604,371 725,897 152,662 193,1246 193,1246 0,0 -205,279 -1117,190 -912,-89 -904,-89 -904,-89 0,0 0,-9 0,-26 116,12 342,34 780,77 912,89 1117,-190 1117,-190 0,0 -40,-584 -193,-1246 -105,-458 -330,-745 -601,-858z"/>
   <path class="fil0" d="M3578 471c0,0 675,-116 1000,-93 326,23 419,209 465,442 44,221 520,1404 71,1928 -41,48 -1068,187 -1358,18l-233 -116 54 -2179z"/>
   <path class="fil2" d="M4651 386c269,44 352,219 395,434 44,221 520,1404 71,1928 -39,46 -959,173 -1305,43 401,75 1153,-33 1188,-74 448,-525 -27,-1707 -71,-1928 -36,-180 -100,-333 -279,-403z"/>
   <path class="fil2" d="M3729 3931c19,-1 39,-3 59,-5 225,-23 388,-8 333,-279 -54,-271 -209,-1055 -209,-1055l-791 -256 4 37 702 227c0,0 155,783 209,1055 52,261 -96,257 -308,277z"/>
   <path class="fil0" d="M2677 546c0,0 359,-383 1189,-46 367,149 449,611 418,1215 -18,351 37,612 -127,968 -164,355 -1406,197 -1542,66 -147,-143 -147,-361 -147,-361l210 -1843z"/>
   <path class="fil0" d="M1205 1170c-93,473 -101,403 -101,403 0,0 -165,607 -343,614 -178,8 -116,302 -23,582 93,279 78,209 78,209 426,11 1430,70 1695,-329 303,-456 778,-981 569,-1462 -56,-128 -289,-751 -562,-702 -85,16 -35,-178 -35,-178l-116 105 -120 -85c0,0 4,81 8,101 12,61 -889,-69 -1049,742z"/>
   <path class="fil3" d="M1200 1176c-21,109 -82,383 -166,619 110,-195 188,-414 219,-570 113,-575 630,-701 905,-768 -231,24 -830,73 -957,719z"/>
   <path class="fil4" d="M1176 1591c0,0 -151,512 -258,568 -107,56 -149,60 -149,60 0,0 -574,-785 -620,-1258 -7,-69 18,-220 41,-192 530,640 986,822 986,822z"/>
   <path class="fil5" d="M951 2252c36,0 66,40 66,89 0,49 -30,89 -66,89 -36,0 -39,-44 -39,-93 0,-49 2,-85 39,-85z"/>
   <path class="fil5" d="M700 2242c18,0 33,40 33,89 0,49 -42,50 -60,50 -18,0 -6,-1 -6,-50 0,-49 15,-89 33,-89z"/>
   <path class="fil2" d="M3456 370c123,20 262,58 417,121 367,149 449,611 418,1215 -18,351 37,612 -127,968 -129,278 -922,241 -1323,149 421,73 1089,81 1206,-172 165,-356 109,-617 127,-968 31,-604 -51,-1066 -418,-1215 -108,-44 -209,-76 -301,-97z"/>
   <path class="fil2" d="M806 2957c14,35 9,12 9,12 426,11 1430,70 1695,-329 303,-456 778,-981 569,-1462 -56,-128 -289,-751 -562,-702 -6,1 -13,3 -22,6 217,112 390,572 437,680 209,481 -267,1006 -569,1462 -239,360 -1081,347 -1556,333z"/>
   <path class="fil5" d="M2430 2740c0,0 63,-214 -85,-268 -147,-54 -82,-22 -82,-22 175,88 -27,438 114,331l53 -40z"/>
   <path class="fil5" d="M6391 904c0,0 64,-112 238,-68 174,45 234,166 234,166 0,0 18,24 -150,55 -169,31 -194,48 -236,29 -46,-21 -102,-79 -103,-126 -1,-21 14,-37 18,-56z"/>
   <path class="fil0" d="M6392 904c0,0 64,-112 238,-68 174,45 234,166 234,166 0,0 5,7 -14,17 -7,-13 -69,-123 -233,-164 -131,-33 -200,21 -226,51l0 -1z"/>
   <path class="fil6" d="M1137 1710c-48,149 -152,439 -231,481 -107,56 -149,60 -149,60 0,0 -574,-785 -620,-1258 -6,-57 10,-170 29,-192 -8,43 -13,99 -10,134 47,473 620,1258 620,1258 0,0 43,-4 149,-60 70,-37 158,-267 211,-423z"/>
   <path class="fil4" d="M5202 3744c0,0 -48,-219 18,-214 188,16 185,171 186,217 -1,3 2,11 1,14 -97,4 -169,5 -205,-17z"/>
   <path class="fil4" d="M5412 3761c0,0 -45,-196 84,-197 137,-1 100,72 119,198 0,0 -187,17 -203,-1z"/>
   <path class="fil4" d="M5619 3759c-16,-283 114,-195 129,-127 9,44 25,109 25,109l-154 18z"/>
   <path class="fil4" d="M3271 3889c-135,-14 -245,-51 -249,-110 -4,-59 7,-194 26,-244 20,-50 184,22 203,101 20,79 19,253 19,253z"/>
   <path class="fil4" d="M3281 3888c0,0 -36,-191 0,-244 36,-53 88,-46 127,-24 39,21 70,104 70,145 0,41 -1,166 -1,166 0,0 -61,4 -113,-6 -42,-9 -77,-32 -84,-37z"/>
   <path class="fil4" d="M3477 3931c0,0 33,10 71,13 41,3 88,-3 102,-4 26,-2 39,-217 3,-251 -64,-61 -122,-50 -145,-5 -33,65 -31,206 -32,246z"/>
   <path class="fil6" d="M3039 3652c-4,-44 -3,-89 11,-123 20,-50 174,12 193,92 8,31 12,77 15,121 -3,-35 -7,-70 -13,-94 -20,-79 -174,-142 -193,-92 -11,28 -14,62 -12,97z"/>
   <path class="fil6" d="M3267 3758c-4,-47 -4,-96 12,-119 36,-53 88,-46 127,-24 39,21 70,104 70,145l0 6c-7,-44 -35,-106 -68,-125 -39,-21 -92,-29 -127,24 -13,19 -15,55 -14,93z"/>
   <path class="fil6" d="M3477 3931c3,-70 0,-164 32,-226 23,-45 81,-56 145,5 10,10 17,33 20,62 -2,-40 -8,-75 -21,-88 -64,-61 -122,-50 -145,-5 -33,65 -29,212 -30,252z"/>
   <g>
    <path class="fil6" d="M5185 3587c1,-39 9,-70 35,-68 158,13 181,125 185,187l0 5c1,10 1,18 1,24 -1,3 2,11 1,14l-2 0c0,-1 0,-2 0,-3 -2,-46 2,-201 -186,-217 -23,-2 -32,23 -34,57z"/>
    <path class="fil6" d="M5405 3672c1,-55 18,-118 92,-119 137,-1 100,72 119,198l-2 0c-15,-119 16,-188 -117,-187 -68,1 -88,56 -91,108z"/>
    <path class="fil6" d="M5619 3683c6,-203 117,-125 130,-62 9,44 25,109 25,109l-3 0c-5,-20 -15,-65 -23,-98 -13,-62 -120,-139 -130,51z"/>
   </g>
   <ellipse class="fil7 str0" transform="matrix(-0.582819 -0.186701 -0.186701 0.582819 1729.62 1289.75)" rx="161" ry="225"/>
   <ellipse class="fil8" transform="matrix(-0.925332 -0.296422 -0.296422 0.925332 1729.59 1232.91)" rx="42" ry="58"/>
   <ellipse class="fil7 str0" transform="matrix(-0.582819 -0.186701 -0.186701 0.582819 1439.51 1157.12)" rx="161" ry="225"/>
   <ellipse class="fil8" transform="matrix(-0.995271 -0.318826 -0.318826 0.995271 1448.69 1094.98)" rx="42" ry="58"/>
   <path class="fil2" d="M1880 1184c-1,7 -23,-36 -58,-66 -31,-27 -77,-40 -73,-42 90,-57 149,15 131,108z"/>
   <path class="fil2" d="M1440 949c-6,4 50,11 90,30 39,18 62,49 63,45 15,-106 -75,-129 -153,-75z"/>
   <path class="fil0" d="M2603 779c0,0 313,-164 346,-359 34,-196 89,-293 -118,-193 -208,100 -303,348 -317,377 -14,28 -48,104 -48,104l137 71z"/>
   <path class="fil1" d="M2515 722c0,0 94,-172 177,-260 65,-69 133,-75 84,11 -90,158 -115,156 -218,275 0,0 -7,-31 -43,-26z"/>
   <path class="fil2" d="M2532 839c0,0 397,-240 427,-413 30,-174 66,-245 -16,-231 17,31 -3,76 -27,218 -25,143 -260,327 -311,355l-73 71z"/>
   <path class="fil2" d="M2532 605c14,-29 110,-277 317,-377 49,-23 83,-36 106,-39 -22,-4 -61,8 -125,39 -208,100 -303,348 -317,377 -14,28 -48,104 -48,104 -81,149 51,-73 67,-104z"/>
  </g>
 </g>
</svg>
