<?xml version="1.0" encoding="UTF-8"?>
<!DOCTYPE svg PUBLIC "-//W3C//DTD SVG 1.1//EN" "http://www.w3.org/Graphics/SVG/1.1/DTD/svg11.dtd">
<!-- Creator: CorelDRAW X5 -->
<svg xmlns="http://www.w3.org/2000/svg" xml:space="preserve" width="70mm" height="55mm" style="shape-rendering:geometricPrecision; text-rendering:geometricPrecision; image-rendering:optimizeQuality; fill-rule:evenodd; clip-rule:evenodd"
viewBox="0 0 7000 5500"
 xmlns:xlink="http://www.w3.org/1999/xlink">
 <defs>
  <style type="text/css">
   <![CDATA[
    .str1 {stroke:black;stroke-width:20}
    .str2 {stroke:#676766;stroke-width:20}
    .str0 {stroke:black;stroke-width:20}
    .fil11 {fill:none}
    .fil8 {fill:#768299}
    .fil0 {fill:black}
    .fil12 {fill:#676766}
    .fil1 {fill:gray}
    .fil4 {fill:#ADAEAE}
    .fil3 {fill:#C2C2C3}
    .fil2 {fill:#EBEBEB}
    .fil17 {fill:#FEFEFE}
    .fil9 {fill:black}
    .fil7 {fill:#2F3942}
    .fil14 {fill:#435869}
    .fil10 {fill:#ECF2F2}
    .fil5 {fill:#F48F9F}
    .fil18 {fill:#FEFEFE;fill-opacity:0.188235}
    .fil6 {fill:#FEFEFE;fill-opacity:0.200000}
    .fil16 {fill:#FEFEFE;fill-opacity:0.301961}
    .fil15 {fill:#FEFEFE;fill-opacity:0.360784}
    .fil13 {fill:#ADAEAE;fill-opacity:0.360784}
   ]]>
  </style>
 </defs>
 <g id="Warstwa_x0020_1">
  <metadata id="CorelCorpID_0Corel-Layer"/>
  <g id="_253280920">
   <path class="fil0 str0" d="M5956 505c-9,15 50,-114 43,-139 17,-24 17,-19 42,-33 0,-19 92,-138 138,-135 -70,-7 -319,138 -385,178 -3,18 -23,30 -39,35 -5,-48 3,-115 -1,-160 -53,-14 -65,183 -141,189 -16,-34 -68,-106 -95,-112 0,351 -154,77 -266,166 2,32 50,64 82,72 -1,-1 -546,16 -574,47 22,8 514,120 513,120 -157,3 -285,-44 -457,18 -21,8 -213,72 -213,72 34,-2 279,-18 296,18 -49,10 -385,126 -379,197 37,4 408,-5 428,-25 -66,-23 -531,174 -590,301 95,-12 205,-88 312,-84 -52,101 -205,113 -280,283l-19 16c-2,2 -39,77 -39,91 -17,2 -21,11 -36,25 -8,-20 7,-37 24,-37 41,-60 142,-126 228,-106l2 39c-1,0 -237,126 -283,142 -52,18 -131,64 -171,109 63,19 353,-42 404,-63 -15,124 -309,71 -405,256 -16,30 -16,16 -30,50 309,0 350,-171 590,-187 178,-11 397,-575 527,-702 215,-210 137,-150 402,-289 26,-14 133,-68 142,-85 89,-14 346,-116 306,-240 -8,-24 -84,-16 -77,-28z"/>
   <path class="fil1 str0" d="M5970 518c-8,14 47,-109 41,-131 16,-22 16,-18 40,-31 0,-18 87,-131 131,-128 -66,-7 -302,131 -365,168 -3,17 -22,29 -37,33 -5,-45 3,-109 -1,-152 -50,-13 -61,174 -134,179 -16,-32 -65,-100 -90,-106 0,333 -146,73 -252,157 2,30 47,60 78,68 -1,-1 -518,15 -544,44 21,7 487,114 486,114 -149,3 -270,-42 -433,17 -20,7 -202,68 -202,68 32,-2 264,-17 281,17 -46,9 -365,120 -359,187 35,4 387,-4 406,-23 -63,-22 -503,165 -559,285 90,-11 194,-83 296,-80 -49,96 -194,107 -265,269l-18 16c-2,2 -37,73 -37,87 -17,2 -19,10 -34,24 -7,-19 7,-35 22,-35 39,-57 135,-119 216,-100l2 37c-1,0 -224,120 -268,135 -49,17 -124,61 -162,103 59,18 334,-40 383,-60 -14,117 -293,67 -384,242 -15,28 -15,15 -28,48 293,0 332,-162 559,-177 169,-11 377,-545 500,-665 204,-199 130,-143 381,-274 25,-13 126,-64 134,-80 84,-13 328,-110 290,-228 -7,-23 -79,-15 -73,-26z"/>
   <path class="fil0 str0" d="M5980 554c-8,14 45,-104 39,-126 15,-21 15,-17 38,-30 0,-18 83,-126 126,-123 -64,-7 -290,126 -350,162 -3,16 -21,28 -36,31 -4,-43 3,-104 -1,-146 -48,-12 -59,167 -129,172 -15,-31 -62,-96 -86,-102 0,320 -140,70 -242,151 2,29 45,58 75,65 -1,-1 -497,15 -522,43 20,7 467,109 467,109 -143,3 -259,-40 -416,16 -19,7 -194,65 -194,65 31,-1 254,-16 269,16 -44,9 -350,115 -345,180 33,4 372,-4 390,-22 -60,-21 -483,158 -537,274 87,-11 187,-80 284,-77 -47,92 -186,103 -254,258l-17 15c-2,2 -36,70 -35,83 -16,1 -19,10 -33,23 -7,-18 7,-34 22,-34 38,-54 129,-114 207,-96l2 35c-1,0 -215,115 -257,129 -47,16 -119,58 -155,99 57,17 321,-38 368,-58 -14,113 -281,65 -368,233 -14,27 -14,15 -27,46 281,0 319,-156 536,-170 162,-10 361,-523 479,-638 195,-191 125,-137 365,-263 24,-12 121,-62 129,-77 81,-13 315,-105 278,-219 -7,-22 -76,-15 -70,-25z"/>
   <path class="fil2" d="M1818 2302c0,0 -69,-120 -369,-17 -301,103 -498,369 -592,567 -94,197 -163,309 -258,472 -78,134 -68,256 -45,224 88,-127 148,-152 256,-353 166,-311 319,-670 734,-696 275,-17 249,-26 249,-26l26 -172z"/>
   <path class="fil3" d="M1811 2298c0,0 -2,-3 -5,-7l-7 45c0,0 26,9 -249,26 -416,26 -568,385 -734,696 -108,201 -168,226 -256,353 -4,6 -8,7 -11,3 -30,91 -20,155 -3,131 88,-127 148,-152 256,-353 166,-311 319,-670 734,-696 275,-17 249,-26 249,-26l26 -172z"/>
   <path class="fil4" d="M6129 769c0,0 -60,-69 60,-215 120,-146 116,-185 137,-223 21,-39 137,-34 120,155 -17,189 -90,318 -172,339 -82,21 -146,-56 -146,-56z"/>
   <path class="fil2" d="M6099 756c0,0 -60,-69 60,-215 120,-146 116,-185 137,-223 21,-39 137,-34 120,155 -17,189 -90,318 -172,339 -82,21 -146,-56 -146,-56z"/>
   <path class="fil5" d="M6120 721c0,0 -26,-31 30,-94 55,-63 54,-80 64,-97 10,-17 61,-13 51,70 -10,84 -45,140 -81,148 -36,8 -64,-27 -64,-27z"/>
   <path class="fil3" d="M3320 3203c0,0 489,494 240,803 -249,309 -472,416 -472,416 0,0 60,17 129,258 69,240 180,335 34,343 -146,9 -361,0 -361,0 0,0 -17,-206 -86,-361 -69,-155 -236,-214 -120,-438 116,-224 26,-618 -43,-704 -69,-86 34,-335 137,-335 103,0 541,17 541,17z"/>
   <path class="fil6" d="M3333 3202c0,0 489,494 240,803 -249,309 -472,416 -472,416 0,0 60,17 129,258 69,240 180,335 34,343 -146,9 -361,0 -361,0 0,0 0,-5 -2,-15 75,2 199,4 293,-2 146,-9 34,-103 -34,-343 -69,-240 -129,-258 -129,-258 0,0 223,-107 472,-416 223,-277 -147,-703 -226,-788l54 2z"/>
   <path class="fil3" d="M4737 3251c0,0 412,481 412,945 0,464 -52,721 -52,721 0,0 427,181 447,34 96,-709 -131,-1590 -481,-1958l-326 258z"/>
   <path class="fil6" d="M5384 4976c79,11 144,2 151,-53 96,-709 -131,-1590 -481,-1958l-55 44c328,390 534,1231 442,1914 -4,30 -25,46 -57,53z"/>
   <path class="fil7" d="M5304 4934c78,5 154,-24 196,9 40,32 48,124 46,168 -3,49 2,118 -53,145 -44,22 -141,8 -210,3 -57,-4 -143,1 -181,-19 -64,-34 -61,-106 -57,-162 3,-44 -11,-133 32,-159 45,-27 149,10 228,15z"/>
   <path class="fil2" d="M5497 874c0,0 -507,-25 -771,714 -263,739 -834,739 -1076,681 -242,-59 -1456,-403 -1764,-154 -307,249 -395,1047 -22,1515 294,369 99,481 67,698 -14,94 38,163 116,356 101,252 122,365 122,365 0,0 39,45 207,-6 168,-51 254,11 146,-344 -108,-354 -124,-344 -124,-344 0,0 247,-140 310,-188 125,-94 127,-160 253,-413 190,-381 291,145 1001,42 710,-102 629,-81 629,-81 0,0 195,514 95,820 -99,306 -45,447 -45,447 0,0 382,117 433,-52 51,-168 176,-820 73,-988 -102,-168 -154,-366 -154,-366 0,0 549,-66 527,-783 -22,-717 -119,-936 -7,-1083 111,-147 -18,-837 -18,-837z"/>
   <path class="fil0 str1" d="M2561 2177c-16,-52 -30,-98 -43,-138 -80,-8 -157,-13 -230,-13 8,46 13,110 11,198 -9,412 -26,562 -21,678 4,116 103,318 103,318 0,0 43,-4 43,-73 0,-69 -90,-348 -17,-524 73,-176 210,-266 155,-447z"/>
   <path class="fil8 str1" d="M2844 2692c-21,-82 -39,-232 -39,-369 0,-113 -9,-188 -5,-245 -44,-7 -88,-14 -132,-20l12 261c0,0 13,283 -4,331 -17,47 -39,26 -34,210 4,185 34,292 21,322 -13,30 -19,144 -19,144 0,0 29,38 50,-87 21,-125 171,-464 149,-546z"/>
   <path class="fil8 str1" d="M3153 2765c21,-266 56,-336 86,-464 13,-54 33,-88 54,-122 -61,-15 -127,-30 -195,-44 3,10 5,18 4,25 -9,64 -52,339 -69,386 -17,47 -39,90 -39,172 0,82 -17,120 -13,215 4,94 69,261 69,261 0,0 17,-46 26,-128 9,-82 56,-34 77,-301z"/>
   <path class="fil8 str1" d="M3784 2289c-48,-4 -91,-11 -127,-19 -10,99 -25,214 -113,302 -125,125 -124,326 -142,378 -17,52 -34,189 -34,219 0,30 77,155 116,-26 39,-180 129,-399 159,-494 30,-94 122,-52 133,-206 5,-67 7,-112 8,-154z"/>
   <path class="fil8 str1" d="M4003 2504c9,-92 -5,-128 -14,-222 -39,6 -76,9 -112,10 26,121 46,223 40,307 -9,112 -30,163 -52,219 -21,56 -13,64 -17,116 -4,52 30,146 30,172 0,26 26,86 13,43 -13,-43 43,39 43,-73 0,-112 13,-52 13,-206 0,-155 43,-232 56,-365z"/>
   <path class="fil8 str1" d="M4269 2297c-10,-36 -19,-68 -28,-98 -30,15 -60,28 -89,39 12,35 18,64 18,85 0,52 30,60 30,167 0,107 60,232 73,305 13,73 43,193 43,193l43 73c0,0 60,17 34,-73 -26,-90 21,-17 -39,-270 -60,-253 13,-64 -86,-421z"/>
   <path class="fil9 str1" d="M2844 2692c-21,-82 -39,-232 -39,-369 0,-113 -9,-188 -5,-245 -44,-7 -88,-14 -132,-20l12 261c0,0 13,283 -4,331 -17,47 -39,26 -34,210 4,185 34,292 21,322 -13,30 -19,144 -19,144 0,0 29,38 50,-87 21,-125 171,-464 149,-546z"/>
   <path class="fil9 str1" d="M3153 2765c21,-266 56,-336 86,-464 13,-54 33,-88 54,-122 -61,-15 -127,-30 -195,-44 3,10 5,18 4,25 -9,64 -52,339 -69,386 -17,47 -39,90 -39,172 0,82 -17,120 -13,215 4,94 86,437 86,437 0,0 0,-222 9,-304 9,-82 56,-34 77,-301z"/>
   <path class="fil9 str1" d="M3784 2289c-48,-4 -91,-11 -127,-19 -10,99 -25,214 -113,302 -125,125 -124,326 -142,378 -17,52 -34,189 -34,219 0,30 77,155 116,-26 39,-180 129,-399 159,-494 30,-94 122,-52 133,-206 5,-67 7,-112 8,-154z"/>
   <path class="fil9 str1" d="M4066 2280c3,-30 -114,9 -189,11 26,121 46,223 40,307 -9,112 -30,163 -52,219 -21,56 -13,64 -17,116 -4,52 30,146 30,172 0,26 60,309 47,266 -13,-43 9,-185 9,-296 0,-112 13,-52 13,-206 0,-155 108,-476 119,-588z"/>
   <path class="fil9 str1" d="M4355 2718c-60,-253 13,-64 -86,-421 -10,-36 -19,-68 -28,-98 -30,15 -60,28 -89,39 12,35 18,64 18,85 0,52 30,60 30,167 0,107 60,232 73,305 13,73 43,193 43,193l43 73c0,0 60,17 34,-73 -26,-90 21,-17 -39,-270z"/>
   <path class="fil9 str1" d="M4498 1996c-60,94 -37,47 -107,105 69,190 206,361 373,501 39,33 474,230 60,-137 -488,-433 -144,-184 -326,-469z"/>
   <path class="fil9 str1" d="M4936 1778c-141,-131 -127,-204 -193,-233 -5,14 -11,28 -16,43 -16,46 -34,89 -52,129 -7,16 -15,31 -22,46 12,16 39,37 90,66 115,63 575,297 459,112 -43,-69 -125,-32 -266,-163z"/>
   <path class="fil9 str1" d="M5143 1017c-85,45 -227,185 -263,255 -27,50 -6,62 76,91 159,56 194,191 194,191 -23,-98 -28,-190 -19,-276 -3,-67 35,-180 13,-260z"/>
   <path class="fil9 str1" d="M2939 2332c0,-52 40,-37 44,-220 -22,-4 -45,-9 -67,-13 -9,43 -18,89 -24,122 -9,47 -9,176 -9,198 0,21 9,107 9,107 0,0 47,-142 47,-193z"/>
   <path class="fil9 str1" d="M3498 2230c-27,-7 -57,-14 -88,-22 -5,29 -10,58 -16,76 -17,52 -56,120 -64,167 -9,47 -86,502 -86,502 2,-40 192,-583 255,-724z"/>
   <path class="fil9 str1" d="M2100 2037c-41,6 -79,14 -112,25 4,22 8,44 10,63 9,86 43,249 52,283 4,18 7,49 7,81 0,0 61,-334 44,-453z"/>
   <path class="fil9 str1" d="M5379 2226l-152 -109c-23,77 149,182 267,253 -2,-24 -4,-47 -5,-69 -47,-27 -110,-75 -110,-75z"/>
   <path class="fil9 str1" d="M5512 2562c-53,-29 -134,-71 -178,-93 -45,-22 27,85 182,178 -1,-29 -3,-58 -5,-85z"/>
   <path class="fil9 str1" d="M5522 2785c-134,-73 -305,-183 -325,-206 -29,-32 87,137 326,263 0,-16 0,-31 -1,-48 0,-3 0,-6 0,-9z"/>
   <path class="fil9 str1" d="M5503 3051c-117,-68 -281,-166 -314,-201 -53,-57 -89,-117 -89,-117 0,0 15,221 387,386 6,-21 12,-44 16,-67z"/>
   <path class="fil9 str1" d="M5308 3372c-95,-94 -300,-266 -318,-288 -5,-6 -10,-14 -14,-22 -10,-17 -18,-36 -24,-50 0,0 0,0 0,0 5,12 12,30 21,51 49,113 158,333 283,396 0,0 1,0 1,1 22,-16 43,-35 64,-56 3,-3 6,-6 9,-9 -7,-7 -15,-15 -23,-24z"/>
   <path class="fil9 str1" d="M4460 3444l-81 -178c33,260 14,225 -32,476 85,-11 141,-18 178,-23l-65 -276z"/>
   <path class="fil9 str1" d="M4174 3767l-7 -323 -77 335c30,-4 58,-8 85,-12z"/>
   <path class="fil9 str1" d="M3915 3803c-2,-43 -7,-106 -23,-196 -34,-184 -71,58 -65,203 28,-1 58,-3 89,-7z"/>
   <path class="fil9 str1" d="M3729 3444c0,-47 -68,62 -129,187 -25,51 -48,103 -66,149 31,8 63,15 98,20 3,1 7,1 10,1 27,-87 87,-291 87,-357z"/>
   <path class="fil9 str1" d="M3458 3487c0,-41 -98,88 -162,199 22,11 45,23 70,34 44,-94 92,-201 92,-233z"/>
   <path class="fil9 str1" d="M3176 3628c14,-74 32,-180 29,-197 -4,-22 -61,74 -80,184 16,2 33,6 51,13z"/>
   <path class="fil9 str1" d="M2829 3674c-58,-47 -108,-72 -151,-83 -95,-25 -148,16 -148,16 0,0 148,102 207,261 27,73 52,142 72,197 43,-64 72,-148 150,-304 -37,-18 -81,-47 -130,-87z"/>
   <path class="fil9 str1" d="M2635 4216l-156 -171c0,0 7,53 64,181 6,13 9,26 11,39 28,-17 56,-33 81,-49z"/>
   <path class="fil9 str1" d="M2455 4486l-216 -63c0,0 -232,-26 43,90l212 89c-15,-47 -28,-86 -38,-116 0,0 0,0 0,0z"/>
   <path class="fil9 str1" d="M2523 4699l-160 29 -60 13 126 26 117 13c-6,-24 -14,-51 -23,-81z"/>
   <path class="fil9 str1" d="M4817 4558c-41,-10 -90,-16 -129,-21 -9,28 -17,54 -24,80 39,0 88,6 131,6 64,0 124,-39 21,-64z"/>
   <path class="fil9 str1" d="M4748 4798c-30,-9 -72,-19 -114,-29 -3,23 -4,44 -5,63 74,-12 183,-15 120,-34z"/>
   <path class="fil9 str1" d="M4933 4378l-218 -3c-2,31 -5,61 -10,90 95,-40 227,-87 227,-87z"/>
   <path class="fil9 str1" d="M4924 4180c-30,3 -146,9 -216,14 2,18 4,35 5,53 110,-32 236,-69 211,-66z"/>
   <path class="fil9 str1" d="M4903 3996c-15,0 -166,12 -229,-1 6,25 11,51 16,78 103,-46 228,-78 213,-78z"/>
   <path class="fil9 str1" d="M4748 3862l-98 37c5,18 10,38 15,58 97,-64 165,-95 165,-95l-82 0z"/>
   <path class="fil9 str1" d="M1911 2479c-33,-59 -65,-117 -95,-170l-38 -72c0,0 -60,91 -112,254 -45,160 -61,347 -40,533 120,43 35,47 344,228 309,182 335,133 129,-146 -228,-309 -82,-380 -166,-585 -6,-14 -15,-27 -23,-42z"/>
   <path class="fil9 str1" d="M2023 3484c-111,-10 -203,-23 -275,-38 22,44 46,87 74,127 211,-6 485,57 562,75 77,17 -69,-137 -361,-163z"/>
   <path class="fil9 str1" d="M2203 3870c0,0 -97,-19 -213,-41 19,43 29,82 33,117 126,-8 280,-17 250,-17 -43,0 -69,-60 -69,-60z"/>
   <path class="fil9 str1" d="M4891 3464c-32,-11 -69,-25 -111,-40 -189,-69 -232,-223 -292,-249 -60,-26 -17,86 112,232 129,146 215,155 215,155l158 41 32 8c-6,-20 -9,-32 -9,-32 0,0 60,-7 140,-43 -76,-14 -135,-32 -245,-71z"/>
   <path class="fil9 str1" d="M5050 3764l-194 -31 219 95 15 6c-11,-23 -21,-46 -30,-68l-10 -2z"/>
   <path class="fil9 str1" d="M5188 4196c-16,0 -30,-1 -39,-1 -39,-1 -181,86 -104,121 26,12 63,42 100,77 9,8 18,17 26,25 9,-77 15,-153 16,-222z"/>
   <path class="fil9 str1" d="M5130 4661c-130,10 -213,84 -213,84 0,0 88,23 193,50 5,-22 10,-45 14,-69 4,-21 8,-43 12,-66 -2,0 -4,0 -6,1z"/>
   <path class="fil9 str1" d="M2167 4578l-194 -68c14,32 31,70 51,115 62,-22 109,-37 144,-48z"/>
   <path class="fil9 str1" d="M2344 4191c74,16 -56,-124 -323,-159 -5,34 -14,65 -25,96 153,18 296,51 348,63z"/>
   <path class="fil4" d="M5237 1007c0,0 60,-69 -60,-215 -120,-146 -116,-185 -137,-223 -21,-39 -137,-34 -120,155 17,189 90,318 172,339 82,21 146,-56 146,-56z"/>
   <path class="fil10" d="M5698 608c-386,72 -643,409 -556,874 87,465 525,915 912,842 271,-51 690,-229 731,-556 40,-314 -140,-499 -323,-567 -146,-54 -129,-277 -199,-371 -143,-193 -306,-270 -565,-221z"/>
   <path class="fil4" d="M5692 598c-386,72 -663,413 -556,874 45,194 171,489 428,702 148,-282 227,-432 468,-575 264,-156 453,-237 678,-168 53,16 -64,-117 -106,-149 -103,-77 -128,-69 -158,-87 -172,-102 -86,-243 -189,-375 -148,-189 -306,-271 -566,-222z"/>
   <path class="fil2" d="M5267 994c0,0 60,-69 -60,-215 -120,-146 -116,-185 -137,-223 -21,-39 -137,-34 -120,155 17,189 90,318 172,339 82,21 146,-56 146,-56z"/>
   <path class="fil5" d="M5246 960c0,0 26,-31 -30,-94 -55,-63 -54,-80 -64,-97 -10,-17 -61,-13 -51,70 10,84 45,140 81,148 36,8 64,-27 64,-27z"/>
   <path class="fil4" d="M6034 2005c2,-10 114,-89 134,-57 102,166 -130,132 -54,56 90,-90 -82,10 -81,0z"/>
   <path class="fil4" d="M6450 1873c-5,-9 -135,-52 -145,-15 -49,189 163,89 68,38 -113,-60 82,-15 77,-23z"/>
   <path class="fil11 str2" d="M5519 1785c0,0 39,89 141,89"/>
   <path class="fil12" d="M5562 1839c0,0 -38,44 -67,113 -28,69 -22,141 -22,141l42 37c0,0 -26,-95 7,-181 33,-86 40,-109 40,-109z"/>
   <path class="fil9 str1" d="M5473 841c28,37 -4,-57 -39,-131 -2,-4 -4,-8 -6,-12 -30,19 -59,40 -86,63 5,2 10,4 15,6 43,19 95,45 116,73z"/>
   <path class="fil9 str1" d="M5652 751c0,0 -5,-66 2,-133 0,-4 1,-8 2,-12 -28,7 -56,15 -83,25 3,3 7,6 10,9 15,15 28,32 38,52 41,84 32,60 32,60z"/>
   <path class="fil9 str1" d="M6359 1113c-24,-39 -31,-81 -39,-124 -11,44 -36,135 -71,168 -31,30 44,-5 110,-45z"/>
   <path class="fil9 str1" d="M6604 1281c-21,-16 -39,-28 -54,-37 -21,-13 -42,-24 -64,-33 -1,0 -1,-1 -2,-1 -16,28 -39,56 -69,75 -78,50 -56,39 -56,39 0,0 165,-26 268,-22 -4,-4 -9,-8 -13,-11 -4,-3 -7,-6 -11,-9 0,0 0,0 0,0z"/>
   <path class="fil9 str1" d="M5368 1509c0,0 -131,-17 -229,-43 -2,0 -3,-1 -5,-1 1,2 1,5 2,7 6,25 13,52 22,80 7,23 15,46 24,71 25,-32 68,-76 122,-92 89,-26 65,-22 65,-22z"/>
   <path class="fil9 str1" d="M5361 1768c25,-32 49,-59 67,-69 25,-13 -1,-12 -42,-5 -49,9 -120,27 -155,43 19,41 41,82 67,123 19,-30 42,-63 64,-93z"/>
   <path class="fil13" d="M5508 869c0,0 -43,-2 -110,13 28,167 100,659 8,781 -111,147 -15,366 7,1083 22,717 -527,783 -527,783 0,0 51,198 154,366 102,168 -22,820 -73,988 -33,108 -201,99 -317,78 3,11 5,16 5,16 0,0 382,117 433,-52 51,-168 176,-820 73,-988 -102,-168 -154,-366 -154,-366 0,0 549,-66 527,-783 -22,-717 -119,-936 -7,-1083 111,-147 -18,-837 -18,-837zm-2564 2210c333,207 86,491 167,531 -56,-4 -83,30 -138,140 -126,252 -128,319 -253,413 -64,48 -310,188 -310,188 0,0 17,-11 124,344 108,354 22,293 -146,344 -168,51 -207,6 -207,6 0,0 -2,-9 -6,-28 25,-3 56,-10 93,-21 168,-51 254,10 146,-344 -108,-354 -124,-344 -124,-344 0,0 247,-140 310,-188 119,-89 219,-198 272,-319 123,-278 338,-346 72,-722zm457 647c131,56 310,104 573,66 283,-41 440,-62 527,-72 -11,-32 -18,-51 -18,-51 0,0 81,-22 -629,81 -190,27 -336,10 -452,-23z"/>
   <path class="fil9 str1" d="M3221 3870c0,0 127,114 289,197 17,-19 34,-39 51,-60 17,-21 30,-43 41,-65 -287,-61 -381,-71 -381,-71z"/>
   <path class="fil9 str1" d="M3043 4008c27,58 126,264 183,326 35,-26 74,-58 118,-97 -146,-156 -236,-98 -301,-229z"/>
   <path class="fil9 str1" d="M3094 4425c-45,24 -210,13 -210,13 0,0 148,75 195,84l89 16c-35,-82 -63,-106 -74,-113z"/>
   <path class="fil9 str1" d="M3260 4805l-280 -10 309 78c-9,-20 -19,-43 -29,-69z"/>
   <path class="fil9 str1" d="M5126 3618c-37,-1 230,60 303,77 -8,-26 -16,-52 -25,-77 -21,1 -44,4 -68,4l-210 -4z"/>
   <path class="fil9 str1" d="M5208 3957c-63,-24 269,143 320,169 -6,-35 -12,-71 -18,-106 -113,-20 -261,-47 -302,-63z"/>
   <path class="fil9 str1" d="M5259 4266c102,106 150,149 304,211 -1,-29 -3,-58 -5,-88 -95,-19 -299,-124 -299,-124z"/>
   <path class="fil9 str1" d="M5221 4588c114,146 204,129 338,219 2,-31 4,-62 5,-93 -62,-25 -179,-72 -197,-79 -26,-9 -176,-86 -146,-47z"/>
   <path class="fil9 str1" d="M2685 4225c-19,38 -31,71 -36,100 25,-6 55,-14 88,-23 88,-25 125,-69 73,-94 -44,-22 -86,-36 -98,-40 -1,1 -3,2 -4,3 -7,19 -14,37 -23,54z"/>
   <path class="fil9 str1" d="M2723 4537c29,38 61,77 83,126 47,-69 73,-56 73,-56 0,0 -89,-51 -156,-70z"/>
   <path class="fil14" d="M4870 4956c78,5 154,-24 196,9 40,32 48,124 46,168 -3,49 2,118 -53,145 -44,22 -141,8 -210,3 -57,-4 -143,1 -181,-19 -64,-34 -61,-106 -57,-162 3,-44 -11,-133 32,-159 45,-27 149,10 228,15z"/>
   <path class="fil7" d="M3119 4968c78,5 154,-24 196,9 40,32 48,124 46,168 -3,49 2,118 -53,145 -44,22 -141,8 -210,3 -57,-4 -143,1 -181,-19 -64,-34 -61,-106 -57,-162 3,-44 -11,-133 32,-159 45,-27 149,10 228,15z"/>
   <path class="fil14" d="M2389 4964c78,5 154,-24 196,9 40,32 48,124 46,168 -3,49 2,118 -53,145 -44,22 -141,8 -210,3 -57,-4 -143,1 -181,-19 -64,-34 -61,-106 -58,-162 3,-44 -11,-133 32,-159 45,-27 149,10 228,15z"/>
   <path class="fil15" d="M2489 4970c34,-3 63,-3 84,13 38,30 45,117 43,158 -3,46 1,111 -50,136 -22,11 -58,12 -96,11 3,-1 6,-2 9,-4 51,-25 47,-90 50,-136 1,-20 0,-50 -5,-79 -4,-36 -13,-77 -33,-99z"/>
   <path class="fil6" d="M3223 4968c35,-3 65,-3 86,14 39,30 47,120 44,163 -3,48 1,114 -51,140 -23,11 -59,13 -99,11 3,-1 6,-2 9,-4 52,-26 48,-92 51,-140 1,-20 0,-51 -5,-82 -4,-37 -14,-79 -34,-102z"/>
   <path class="fil16" d="M4975 4966c32,-3 61,-3 80,13 37,28 44,112 41,152 -3,45 1,107 -48,131 -21,11 -56,12 -92,10 3,-1 6,-2 8,-3 49,-24 45,-86 48,-131 1,-19 0,-48 -5,-76 -3,-35 -13,-74 -32,-96z"/>
   <path class="fil6" d="M5419 4944c32,-3 61,-3 80,13 37,28 44,112 41,152 -3,45 1,107 -48,131 -21,11 -56,12 -93,10 3,-1 6,-2 8,-3 49,-24 45,-86 48,-131 1,-19 0,-48 -5,-76 -3,-35 -13,-74 -32,-96z"/>
   <ellipse class="fil0 str0" transform="matrix(0.759506 -0.243301 0.243301 0.759506 5583.28 1262.79)" rx="161" ry="225"/>
   <ellipse class="fil17" transform="matrix(1.20586 -0.386286 0.386286 1.20586 5583.33 1188.72)" rx="42" ry="58"/>
   <ellipse class="fil0 str0" transform="matrix(0.759506 -0.243301 0.243301 0.759506 5961.35 1089.94)" rx="161" ry="225"/>
   <ellipse class="fil17" transform="matrix(1.297 -0.415482 0.415482 1.297 5949.39 1008.98)" rx="42" ry="58"/>
   <path class="fil0" d="M5388 1125c2,9 29,-47 75,-86 40,-35 100,-52 96,-55 -117,-75 -194,19 -171,141z"/>
   <path class="fil0" d="M5961 819c7,5 -65,14 -117,39 -51,24 -81,64 -82,58 -20,-138 98,-168 199,-97z"/>
   <path class="fil18" d="M5132 1479c26,139 148,415 338,611 161,166 378,271 555,237 247,-46 618,-199 712,-475 -124,238 -500,377 -729,420 -386,72 -786,-535 -837,-852 -41,-259 -20,-256 -22,-322 -1,-32 -66,123 -18,380z"/>
   <path class="fil0" d="M628 3310c0,0 21,55 -181,101 -202,46 -217,170 -225,200 -9,31 -48,69 73,4 121,-65 -23,24 -12,124 11,100 32,112 32,112 0,0 9,-96 57,-153 49,-56 68,-53 68,-53 0,0 -91,98 -72,221 19,123 32,100 20,133 -12,34 -7,-6 47,-116 54,-110 114,-114 144,-174 29,-60 23,-53 27,-132 4,-79 25,-176 25,-176l-3 -91z"/>
   <path class="fil1" d="M629 3331c5,-60 12,13 -95,53 -106,39 -112,87 -116,103 -4,16 -25,35 38,2 62,-33 -12,13 -6,64 6,51 17,58 17,58 0,0 4,-50 30,-79 25,-29 35,-27 35,-27 0,0 -47,50 -37,114 10,63 16,51 10,69 -6,17 -3,-3 24,-60 28,-57 59,-59 74,-89 30,-61 32,-140 27,-207z"/>
  </g>
 </g>
</svg>
