<?xml version="1.0" encoding="UTF-8"?>
<!DOCTYPE svg PUBLIC "-//W3C//DTD SVG 1.1//EN" "http://www.w3.org/Graphics/SVG/1.1/DTD/svg11.dtd">
<!-- Creator: CorelDRAW X5 -->
<svg xmlns="http://www.w3.org/2000/svg" xml:space="preserve" width="70mm" height="20mm" style="shape-rendering:geometricPrecision; text-rendering:geometricPrecision; image-rendering:optimizeQuality; fill-rule:evenodd; clip-rule:evenodd"
viewBox="0 0 7000 2000"
 xmlns:xlink="http://www.w3.org/1999/xlink">
 <defs>
  <style type="text/css">
   <![CDATA[
    .str0 {stroke:#E6E6E6;stroke-width:7.62}
    .str1 {stroke:#6DC668;stroke-width:20}
    .fil3 {fill:black}
    .fil0 {fill:#F9ED8E}
    .fil4 {fill:#FEFEFE}
    .fil1 {fill:#00A664}
    .fil5 {fill:#4A7546}
    .fil2 {fill:#70C568}
   ]]>
  </style>
 </defs>
 <g id="Warstwa_x0020_1">
  <metadata id="CorelCorpID_0Corel-Layer"/>
  <path class="fil0 str0" d="M1815 1710c38,-52 -3,-126 -86,-52 -56,49 6,20 86,52z"/>
  <path class="fil0 str0" d="M3179 1680c38,-52 -3,-126 -86,-52 -56,49 6,20 86,52z"/>
  <path class="fil0 str0" d="M346 832c0,0 -67,17 -55,77 12,60 -5,-3 80,-53 84,-50 31,-48 22,-50 -10,-2 -46,25 -46,25z"/>
  <path class="fil0 str0" d="M477 903c0,0 -69,9 -64,70 5,61 -4,-3 86,-42 90,-39 37,-44 28,-47 -10,-3 -49,20 -49,20z"/>
  <path class="fil0 str0" d="M606 944c0,0 -64,26 -44,84 20,58 -5,-2 72,-63 77,-61 25,-52 15,-53 -10,-1 -43,31 -43,31z"/>
  <path class="fil0 str0" d="M736 978c0,0 -64,25 -45,84 20,58 -5,-2 73,-62 77,-60 25,-52 15,-52 -10,-1 -43,31 -43,31z"/>
  <path class="fil0 str0" d="M870 984c0,0 -56,40 -23,92 33,52 -5,-1 55,-78 61,-77 12,-56 2,-55 -10,2 -34,41 -34,41z"/>
  <path class="fil0 str0" d="M1042 981c0,0 -69,9 -64,70 5,61 -4,-3 86,-42 90,-39 37,-44 28,-47 -10,-3 -49,20 -49,20z"/>
  <path class="fil0 str0" d="M1179 1020c0,0 -69,9 -64,70 5,61 -4,-3 86,-42 90,-39 37,-44 28,-47 -10,-3 -49,20 -49,20z"/>
  <path class="fil0 str0" d="M292 1170c0,0 -63,-30 -39,-86 23,-57 -5,2 68,67 73,65 22,53 12,53 -10,0 -41,-34 -41,-34z"/>
  <path class="fil0 str0" d="M416 1206c0,0 -63,-30 -39,-86 23,-57 -5,2 68,67 73,65 22,53 12,53 -10,0 -41,-34 -41,-34z"/>
  <path class="fil0 str0" d="M555 1244c0,0 -63,-30 -39,-86 23,-57 -5,2 68,67 73,65 22,53 12,53 -10,0 -41,-34 -41,-34z"/>
  <path class="fil0 str0" d="M693 1253c0,0 -63,-30 -39,-86 23,-57 -5,2 68,67 73,65 22,53 12,53 -10,0 -41,-34 -41,-34z"/>
  <path class="fil0 str0" d="M836 1267c0,0 -63,-30 -39,-86 23,-57 -5,2 68,67 73,65 22,53 12,53 -10,0 -41,-34 -41,-34z"/>
  <path class="fil0 str0" d="M991 1275c0,0 -63,-30 -39,-86 23,-57 -5,2 68,67 73,65 22,53 12,53 -10,0 -41,-34 -41,-34z"/>
  <path class="fil0 str0" d="M1117 1270c0,0 -63,-30 -39,-86 23,-57 -5,2 68,67 73,65 22,53 12,53 -10,0 -41,-34 -41,-34z"/>
  <path class="fil1 str1" d="M3459 1151c162,59 172,94 162,278 -2,33 32,99 38,130 12,68 0,137 -24,159 -82,74 -272,50 -385,9 -103,-37 -127,-84 -95,-137 18,-30 35,-111 -8,-155 -179,-183 -56,-320 44,-342 57,-12 210,37 269,58z"/>
  <path class="fil1 str1" d="M1999 1112c92,-20 225,-29 292,48 40,46 32,155 47,223 40,182 10,305 -138,338 -98,21 -344,50 -411,-38 -34,-44 28,-123 15,-183 -26,-119 -74,-243 -10,-317 34,-39 154,-59 205,-70z"/>
  <path class="fil1 str1" d="M3250 642l7 0c21,-22 58,-36 99,-36 41,0 76,14 98,35 22,-18 55,-30 93,-30 43,0 81,16 102,39 21,-13 49,-20 79,-20 51,0 94,22 111,52 22,-15 51,-24 84,-24 45,0 84,17 104,41 26,-15 65,-20 105,-9 44,12 78,39 90,68l4 1c26,-17 66,-22 107,-11 39,11 70,33 86,59 26,-12 61,-15 97,-5 26,7 48,19 64,34 8,-23 55,-41 113,-41 43,0 80,10 99,25 21,-10 51,-16 84,-16 29,0 56,5 76,13 17,-18 58,-31 106,-31 31,0 60,5 80,14 15,-18 41,-37 74,-51 35,-15 69,-21 93,-18 6,-24 27,-54 58,-80 26,-23 54,-38 77,-44 7,-23 28,-51 57,-76 36,-31 76,-49 100,-46 10,-17 26,-34 44,-50 35,-30 73,-48 98,-46 13,-18 35,-38 62,-54 43,-26 87,-36 109,-27 12,-22 47,-45 93,-58 51,-15 98,-12 116,5 17,-17 46,-32 81,-42 58,-17 111,-11 122,12 22,-9 54,-14 90,-11 53,4 95,23 107,45 24,-2 59,6 94,23 56,28 92,70 80,94 -1,3 -4,6 -6,8 21,11 46,34 66,65 35,52 45,107 23,122 -1,1 -2,1 -4,2 18,16 35,51 43,93 12,62 0,116 -27,121 -4,1 -7,0 -11,-1 23,269 -52,-290 -346,-302 -316,-12 -437,85 -522,152 -351,276 -173,264 -686,540 -79,42 -510,158 -510,158l-309 19 0 0c-303,112 -777,185 -1237,185 -763,0 -1097,23 -1324,-144 -142,47 -384,30 -764,2 -380,-28 -850,-66 -867,-117 -6,-17 -68,-101 1,-116 139,-29 566,133 868,82 342,-58 448,-250 447,-249 -206,116 -535,27 -565,27 -479,0 -709,-209 -709,-302 0,-93 55,-49 140,-87 -29,-248 114,-166 186,46 18,-4 36,-8 55,-12 5,-42 56,-75 119,-75 45,0 84,17 104,42l1 0c15,-33 60,-56 113,-56 46,0 86,18 106,43l2 0c22,-21 57,-34 97,-34 42,0 78,15 100,36 13,1 25,1 38,2 7,-4 14,-7 22,-10 -7,-23 -10,-49 -10,-76 0,-101 51,-184 115,-184 36,0 68,27 89,68 18,-19 40,-30 63,-30 63,0 115,82 115,184 0,33 -5,63 -15,90 2,4 4,8 5,12l0 0c18,-7 19,-11 60,-11 41,0 115,33 123,72l0 0c18,-7 39,-11 61,-11 40,0 75,13 96,33 13,-35 60,-60 115,-60 30,0 58,8 79,20 12,-36 59,-63 116,-63 39,0 73,13 95,32l5 -1c18,-30 60,-50 110,-50 34,0 65,10 87,26 6,-1 11,-1 17,-2 21,-23 59,-38 101,-38 33,0 63,9 84,24l11 -1c21,-22 58,-37 100,-37 35,0 67,10 88,27 21,-23 58,-38 101,-38 44,0 83,16 103,41z"/>
  <path class="fil1 str1" d="M2478 1123c94,0 226,19 275,109 30,54 -2,158 -2,228 0,186 -56,300 -206,300 -101,0 -347,-25 -394,-125 -24,-50 54,-114 54,-176 0,-122 -20,-253 58,-312 41,-31 163,-25 215,-25z"/>
  <path class="fil1 str1" d="M4061 1146c173,0 193,29 247,206 10,31 64,82 80,109 35,60 47,129 31,158 -52,97 -239,139 -359,139 -110,0 -148,-36 -136,-97 7,-35 -5,-116 -61,-143 -231,-111 -162,-282 -76,-336 49,-31 210,-37 273,-37z"/>
  <ellipse class="fil2" cx="1441" cy="539" rx="82" ry="134"/>
  <ellipse class="fil3" cx="1435" cy="551" rx="58" ry="94"/>
  <ellipse class="fil4" cx="1422" cy="575" rx="26" ry="43"/>
  <ellipse class="fil2" cx="1578" cy="581" rx="82" ry="134"/>
  <ellipse class="fil3" cx="1572" cy="592" rx="58" ry="94"/>
  <ellipse class="fil4" cx="1555" cy="603" rx="26" ry="43"/>
  <ellipse class="fil3" cx="425" cy="563" rx="29" ry="47"/>
  <ellipse class="fil3" cx="476" cy="589" rx="29" ry="47"/>
  <path class="fil0 str0" d="M2226 1667c-7,-64 -86,-91 -99,19 -9,74 18,11 99,-19z"/>
  <path class="fil0 str0" d="M2314 1709c-7,-64 -86,-91 -99,19 -9,74 18,11 99,-19z"/>
  <path class="fil0 str0" d="M2419 1739c-7,-64 -86,-91 -99,19 -9,74 18,11 99,-19z"/>
  <path class="fil0 str0" d="M4023 1719c-7,-64 -86,-91 -99,19 -9,74 18,11 99,-19z"/>
  <path class="fil0 str0" d="M4118 1744c-7,-64 -86,-91 -99,19 -9,74 18,11 99,-19z"/>
  <path class="fil0 str0" d="M4226 1732c-7,-64 -86,-91 -99,19 -9,74 18,11 99,-19z"/>
  <path class="fil5" d="M3732 951c39,-31 111,-51 193,-51 110,0 202,37 221,87 2,-5 3,-11 3,-16 0,-67 -132,-121 -294,-121 -48,0 -93,5 -133,13 -43,-51 -165,-88 -310,-88 -64,0 -123,7 -174,20 -55,-42 -156,-69 -271,-69 -137,0 -253,39 -297,94 -20,-1 -40,-1 -60,-1 -226,0 -409,40 -409,90 0,13 12,25 34,36 39,-32 127,-54 230,-54 123,0 226,32 247,74 1,-75 112,-136 250,-136 126,0 230,51 248,118 24,-46 113,-80 218,-80 99,0 183,30 213,72 11,-12 25,-19 41,-19 20,0 38,13 51,33z"/>
  <path class="fil3" d="M1618 450c14,11 48,48 48,65 0,9 -28,-35 -55,-51 -23,-14 -72,5 -68,1 21,-20 61,-26 75,-16z"/>
  <path class="fil3" d="M1472 408c16,8 46,24 49,42 2,9 -27,-15 -57,-26 -25,-10 -89,11 -85,7 18,-23 77,-30 93,-22z"/>
  <ellipse class="fil2" cx="2427" cy="1313" rx="40" ry="68"/>
  <ellipse class="fil2" cx="2538" cy="1442" rx="40" ry="68"/>
  <ellipse class="fil2" cx="2603" cy="1269" rx="40" ry="68"/>
  <ellipse class="fil2" cx="2370" cy="1499" rx="40" ry="68"/>
  <ellipse class="fil2" transform="matrix(0.601061 -0.276981 0.276981 0.601061 4147.22 1337.84)" rx="61" ry="103"/>
  <ellipse class="fil2" transform="matrix(0.601061 -0.276981 0.276981 0.601061 3938.68 1341.48)" rx="61" ry="103"/>
  <ellipse class="fil2" transform="matrix(0.601061 -0.276981 0.276981 0.601061 4062.25 1516.91)" rx="61" ry="103"/>
  <ellipse class="fil2" transform="matrix(0.601061 -0.276981 0.276981 0.601061 4232.2 1513.87)" rx="61" ry="103"/>
  <ellipse class="fil2" transform="matrix(0.16241 -0.641573 0.641573 0.16241 3911.37 783.036)" rx="61" ry="103"/>
  <ellipse class="fil2" transform="matrix(0.353637 -0.641573 1.39698 0.16241 3641.33 722.338)" rx="61" ry="103"/>
  <path class="fil2" d="M2791 1476c18,-15 100,5 224,12 124,6 242,-3 224,12 -18,15 -134,22 -257,16 -124,-6 -209,-24 -190,-39z"/>
  <path class="fil2" d="M3287 1494c17,-17 100,-7 223,-15 123,-8 240,-32 223,-15 -17,17 -130,38 -253,46 -123,8 -210,1 -194,-16z"/>
  <path class="fil2" d="M6563 466c-13,13 -93,-12 -190,-18 -29,-2 -80,-2 -125,5 -106,16 -219,49 -217,47 17,-17 150,-70 273,-78 123,-8 275,27 259,45z"/>
  <ellipse class="fil2" transform="matrix(0.16241 -0.641573 0.641573 0.16241 4965.01 880.497)" rx="61" ry="103"/>
  <ellipse class="fil2" transform="matrix(0.16241 -0.641573 0.641573 0.16241 5122.83 868.356)" rx="61" ry="103"/>
  <path class="fil2" d="M1280 1365c21,-17 122,-5 273,-11 150,-6 293,-27 273,-11 -21,17 -159,35 -310,41 -150,6 -256,-3 -235,-20z"/>
 </g>
</svg>
