<?xml version="1.0" encoding="UTF-16"?>
<!DOCTYPE svg PUBLIC "-//W3C//DTD SVG 1.1//EN" "http://www.w3.org/Graphics/SVG/1.1/DTD/svg11.dtd">
<!-- Creator: CorelDRAW X5 -->
<svg xmlns="http://www.w3.org/2000/svg" xml:space="preserve" width="50mm" height="50mm" style="shape-rendering:geometricPrecision; text-rendering:geometricPrecision; image-rendering:optimizeQuality; fill-rule:evenodd; clip-rule:evenodd"
viewBox="0 0 5000 5000"
 xmlns:xlink="http://www.w3.org/1999/xlink">
 <defs>
  <style type="text/css">
   <![CDATA[
    .str0 {stroke:#705227;stroke-width:20}
    .str1 {stroke:#705227;stroke-width:20;stroke-linecap:round;stroke-linejoin:round}
    .fil8 {fill:none}
    .fil6 {fill:black}
    .fil7 {fill:#FEFEFE}
    .fil1 {fill:#9E835F}
    .fil3 {fill:#B89E7B}
    .fil5 {fill:#F7B1BC}
    .fil0 {fill:#705227}
    .fil2 {fill:#856332}
    .fil4 {fill:#FEFEFE;fill-opacity:0.149020}
   ]]>
  </style>
 </defs>
 <g id="Warstwa_x0020_1">
  <metadata id="CorelCorpID_0Corel-Layer"/>
  <g id="_252268136">
   <path class="fil0" d="M1751 2184c0,0 -425,-778 -558,-974 -133,-195 -167,-214 -167,-214l381 -171c0,0 747,1082 595,1206 -152,124 -251,152 -251,152z"/>
   <path class="fil1" d="M1173 974c0,0 -322,84 -530,39 -208,-45 -355,-183 -343,-350 12,-167 149,-355 722,-284 574,71 563,321 547,381 -16,60 -397,214 -397,214z"/>
   <path class="fil0" d="M2744 1775c0,0 -453,-257 -344,-487 109,-229 313,-422 313,-422l515 -6c0,0 -456,431 -384,561 71,130 171,211 171,211l-270 143z"/>
   <path class="fil1" d="M2832 907c0,0 -640,39 -634,-211 6,-250 50,-428 738,-310 688,118 578,415 412,453 -166,37 -516,68 -516,68z"/>
   <path class="fil2" d="M1867 1786c-34,-108 -89,-242 -177,-365 -192,-267 -391,-595 -391,-595 0,0 462,3 518,-22 56,-25 9,223 136,487 35,73 75,153 115,231 172,-151 391,-213 606,-226 0,-29 -2,-59 -2,-59 0,0 22,20 40,26 19,6 97,-137 211,-255 115,-118 118,-121 118,-121 0,0 56,-149 291,-109 236,40 229,78 229,78 0,0 -388,282 -347,406 9,29 23,60 40,92 114,29 198,61 231,79 141,77 193,175 282,340 89,165 269,122 386,612 116,490 -31,704 -98,1207 -67,502 331,606 545,674 214,67 288,86 227,312 -61,227 -680,-43 -864,-269 -184,-227 -230,-426 -83,-1173 147,-747 -168,-992 -168,-992 0,0 9,-9 -37,77 -46,86 -242,199 -481,199 -239,0 -484,12 -597,116 -113,104 -162,92 -208,110 -46,18 -89,18 -178,98 -89,80 -98,110 -98,110 0,0 -438,-95 -438,-110 0,-15 -181,-253 192,-958z"/>
   <path class="fil0" d="M3458 1857c0,0 -769,-43 -887,-329 -118,-285 39,-103 39,-103 0,0 -4,-171 36,-91 40,81 28,-98 28,-98 0,0 22,20 40,26 19,6 97,-137 211,-255 115,-118 118,-121 118,-121 0,0 53,-142 276,-111 -125,21 -159,111 -159,111 0,0 -3,3 -118,121 -115,118 -193,261 -211,255 -19,-6 -40,-26 -40,-26 0,0 12,178 -28,98 -40,-81 -36,91 -36,91 0,0 -157,-182 -39,103 90,218 562,295 779,319 -6,6 -10,10 -10,10z"/>
   <path class="fil3" d="M3376 914c-997,125 -1223,-733 -561,-757 443,-16 1051,248 927,481 -124,233 -191,244 -366,276z"/>
   <path class="fil0" d="M2018 2133c0,0 -92,-165 -112,-244 -23,-95 -66,-229 -143,-361 -18,-31 -238,-95 -201,-92 18,2 96,14 81,-3 -15,-18 -125,-75 -116,-72 138,43 121,-5 105,-28 -163,-241 -318,-491 -319,-491 0,0 49,0 118,0 36,60 169,286 309,505 16,25 32,75 -105,30 -9,-3 101,58 116,77 15,19 -63,5 -81,4 -37,-3 184,65 201,97 27,50 10,165 29,214 81,203 7,75 117,365z"/>
   <path class="fil3" d="M1433 856c0,0 -632,20 -707,-290 -74,-310 96,-406 598,-425 502,-19 729,177 704,462 -25,285 -595,253 -595,253z"/>
   <path class="fil4" d="M4074 2153c27,61 52,137 75,233 116,490 -31,704 -98,1207 -15,113 -7,206 18,282 -43,-87 -62,-199 -43,-344 67,-502 214,-717 98,-1207 -16,-66 -33,-123 -50,-171zm744 2216c33,41 35,102 5,210 -61,227 -680,-43 -864,-269 -59,-72 -103,-142 -132,-227 27,59 63,111 107,165 184,227 802,496 864,269 17,-64 24,-112 19,-148zm-985 -2044c-58,-128 -124,-180 -124,-180 0,0 9,-9 -37,77 -46,86 -242,199 -481,199 -239,0 -484,12 -597,116 -113,104 -162,92 -208,110 -46,18 -89,18 -178,98 -89,80 -98,110 -98,110 0,0 -12,-3 -31,-7 4,-33 6,-55 6,-55 0,0 9,-31 98,-110 89,-80 132,-80 178,-98 46,-18 95,-6 208,-110 113,-104 358,-116 597,-116 239,0 435,-113 481,-199 46,-86 37,-77 37,-77 0,0 88,68 149,242z"/>
   <path class="fil4" d="M2152 1719c0,0 -129,-166 -40,-236 88,-70 407,-162 422,-161 15,1 -372,136 -408,209 -36,73 91,236 107,262 16,26 -81,-74 -81,-74z"/>
   <g>
    <path class="fil0" d="M1892 2560c0,0 106,-244 348,-195 242,49 609,473 23,584 -586,110 -371,-388 -371,-388z"/>
    <path class="fil0" d="M323 2502c0,0 106,-244 348,-195 242,49 609,473 23,584 -586,110 -371,-388 -371,-388z"/>
    <path class="fil5" d="M431 2548c0,0 78,-178 254,-143 177,36 445,346 17,426 -428,81 -271,-284 -271,-284z"/>
    <path class="fil5" d="M1939 2617c0,0 78,-178 254,-143 177,36 445,346 17,426 -428,81 -271,-284 -271,-284z"/>
    <path class="fil2" d="M1396 2223c-8,-27 76,125 104,177 5,9 27,-84 221,-103 23,-2 -57,20 -105,51 -60,39 -93,89 -91,91 7,8 14,13 21,15 144,25 276,86 385,173 11,9 120,-6 139,-61 5,-13 -64,129 -46,126 50,-9 131,-110 141,-96 5,6 -141,105 -105,128 35,24 252,-28 236,-5 -15,21 -239,35 -231,41 139,118 182,322 182,516 0,462 -382,837 -853,837 -471,0 -853,-375 -853,-837 0,-194 67,-372 180,-514 25,-31 -159,-46 -131,-74 8,-7 103,17 153,7 12,-2 -128,-68 -118,-72 16,-7 134,54 168,34 21,-13 -43,-112 -22,-110 46,3 84,80 89,76 123,-97 275,-162 441,-179 209,-22 -108,-163 25,-125 45,13 83,90 85,90 23,-5 20,-73 -16,-187z"/>
    <ellipse class="fil6" transform="matrix(0.953743 0.079483 -0.278586 1.7007 1226.45 2716.45)" rx="65" ry="60"/>
    <ellipse class="fil6" transform="matrix(-0.953743 0.079483 0.278586 1.7007 1552.46 2722.25)" rx="65" ry="60"/>
    <ellipse class="fil7" cx="1236" cy="2668" rx="34" ry="40"/>
    <ellipse class="fil7" cx="1540" cy="2675" rx="34" ry="40"/>
    <path class="fil4" d="M2253 3261c-8,-451 -381,-817 -844,-822 -471,-5 -856,366 -861,828 0,35 2,70 6,104 0,-8 0,-16 0,-23 5,-462 390,-833 861,-828 435,4 791,327 839,741z"/>
    <ellipse class="fil3" cx="1339" cy="3810" rx="1178" ry="819"/>
    <path class="fil8 str0" d="M1016 3407c-196,-83 138,-320 125,-31"/>
    <path class="fil8 str0" d="M1638 3404c196,-83 -138,-320 -125,-31"/>
    <ellipse class="fil2" cx="1056" cy="3345" rx="38" ry="35"/>
    <ellipse class="fil2" cx="1603" cy="3341" rx="36" ry="43"/>
    <path class="fil8 str1" d="M558 3945c0,0 704,1048 1612,6"/>
    <path class="fil8 str1" d="M394 3918c0,0 174,127 236,-85"/>
    <path class="fil8 str1" d="M2326 3923c0,0 -174,127 -236,-85"/>
    <path class="fil4" d="M1339 2991c651,0 1178,366 1178,819 0,41 -4,81 -13,121 0,-7 0,-14 0,-22 0,-452 -527,-819 -1178,-819 -592,0 -1081,303 -1165,698 17,-442 538,-797 1178,-797z"/>
   </g>
   <path class="fil8 str1" d="M975 190c0,0 -182,231 7,408"/>
   <path class="fil8 str1" d="M1285 156c0,0 -173,254 -28,393"/>
   <path class="fil8 str1" d="M2799 168c0,0 -226,127 -188,341"/>
   <path class="fil8 str1" d="M3131 194c0,0 -242,145 -196,343"/>
   <path class="fil8 str1" d="M470 429c0,0 -170,181 -40,349"/>
   <path class="fil8 str1" d="M2378 387c0,0 -106,154 -34,303"/>
  </g>
 </g>
</svg>
