<?xml version="1.0" encoding="UTF-16"?>
<!DOCTYPE svg PUBLIC "-//W3C//DTD SVG 1.1//EN" "http://www.w3.org/Graphics/SVG/1.1/DTD/svg11.dtd">
<!-- Creator: CorelDRAW X5 -->
<svg xmlns="http://www.w3.org/2000/svg" xml:space="preserve" width="30mm" height="30mm" style="shape-rendering:geometricPrecision; text-rendering:geometricPrecision; image-rendering:optimizeQuality; fill-rule:evenodd; clip-rule:evenodd"
viewBox="0 0 3000 3000"
 xmlns:xlink="http://www.w3.org/1999/xlink">
 <defs>
  <style type="text/css">
   <![CDATA[
    .str0 {stroke:black;stroke-width:20}
    .fil10 {fill:none}
    .fil8 {fill:black}
    .fil7 {fill:#392D94}
    .fil35 {fill:#43A1D0}
    .fil36 {fill:#FEFEFE}
    .fil34 {fill:#459BCD}
    .fil33 {fill:#4696CA}
    .fil32 {fill:#4890C7}
    .fil31 {fill:#498BC4}
    .fil30 {fill:#4B85C1}
    .fil29 {fill:#4D80BE}
    .fil28 {fill:#4E7ABB}
    .fil27 {fill:#5075B8}
    .fil26 {fill:#526FB5}
    .fil25 {fill:#536AB2}
    .fil24 {fill:#5564AE}
    .fil23 {fill:#565FAB}
    .fil22 {fill:#5859A8}
    .fil21 {fill:#5A54A5}
    .fil20 {fill:#5B4EA2}
    .fil19 {fill:#5D499F}
    .fil18 {fill:#5F439C}
    .fil17 {fill:#603E99}
    .fil16 {fill:#623896}
    .fil15 {fill:#633393}
    .fil1 {fill:#652D90}
    .fil2 {fill:#8655B1}
    .fil13 {fill:#CF3A22}
    .fil5 {fill:#EF4224}
    .fil3 {fill:#F26530}
    .fil12 {fill:#F38D21}
    .fil4 {fill:#F8794C}
    .fil11 {fill:#F98923}
    .fil0 {fill:#F9A022}
    .fil6 {fill:#F9BA17}
    .fil9 {fill:#FFCB05}
    .fil14 {fill:#FEFEFE;fill-opacity:0.200000}
   ]]>
  </style>
    <mask id="id0">
  <linearGradient id="id1" gradientUnits="userSpaceOnUse" x1="1669.69" y1="2456.32" x2="2720.39" y2="1989.08">
   <stop offset="0" style="stop-opacity:1; stop-color:white"/>
   <stop offset="1" style="stop-opacity:0; stop-color:white"/>
  </linearGradient>
     <rect style="fill:url(#id1)" x="1605" y="1688" width="1181" height="1070"/>
    </mask>
 </defs>
 <g id="Warstwa_x0020_1">
  <metadata id="CorelCorpID_0Corel-Layer"/>
  <g id="_253297912">
   <path class="fil0" d="M1148 2603c-117,36 -118,184 -21,117 43,-30 49,-44 69,-44 20,0 -10,38 -56,92 -46,54 -22,89 4,89 26,0 56,2 76,-52 20,-54 13,-80 33,-85 20,-6 26,31 6,68 -20,37 53,91 78,35 13,-30 -11,-57 -11,-78 0,-76 61,-33 149,-44 332,-40 254,-92 -140,-91 -89,0 63,0 0,0 -41,0 -147,-19 -186,-7z"/>
   <path class="fil1" d="M1067 1066c273,0 331,199 449,647 118,448 1136,819 315,864 -821,44 -1101,-178 -1101,-627 0,-448 64,-884 337,-884z"/>
   <path class="fil2" d="M2105 2378c89,109 59,180 -274,198 -821,44 -1101,-178 -1101,-627 0,-279 25,-553 109,-720 -37,157 -50,352 -50,550 0,448 281,671 1101,627 95,-5 165,-15 215,-28z"/>
   <path class="fil3" d="M1359 1052c268,0 485,348 485,778 0,302 334,498 235,664 -179,303 -1205,387 -1205,-664 0,-429 217,-778 485,-778z"/>
   <path class="fil4" d="M1756 2483l0 1c-130,303 -872,387 -872,-664 0,-370 116,-679 272,-758 -81,142 -133,363 -133,610 0,843 477,956 733,811z"/>
   <path class="fil5" d="M1169 223c272,0 492,209 492,466 0,25 -2,49 -6,73 53,52 85,117 85,187 0,176 -200,318 -446,318 -188,0 -349,-83 -414,-201 -122,-85 -202,-222 -202,-377 0,-258 220,-466 492,-466z"/>
   <path class="fil6" d="M1467 2644c-117,36 -118,184 -21,117 43,-30 49,-44 69,-44 20,0 -10,38 -56,92 -46,54 -22,89 4,89 26,0 56,2 76,-52 20,-54 13,-80 33,-85 20,-6 26,31 6,68 -20,37 53,91 78,35 13,-30 -11,-57 -11,-78 0,-76 61,-33 149,-44 332,-40 254,-92 -140,-91 -89,0 63,0 0,0 -41,0 -147,-19 -186,-7z"/>
   <path class="fil1" d="M2496 1733c245,-250 478,-269 412,-6 -39,158 -897,567 -874,651 27,101 805,-468 879,-395 303,301 -763,417 -733,537 35,140 475,-81 519,-93 348,-93 0,283 -422,319 -422,36 -670,-38 -670,-144 0,-106 420,-391 888,-869z"/>
   <path class="fil7" style="mask:url(#id0)" d="M1792 2411c0,0 515,-488 685,-610 170,-122 237,-148 229,-63 -7,85 -44,155 -44,155 0,0 -559,461 -628,485 -70,24 566,-263 640,-274 74,-11 155,96 85,130 -70,33 -577,277 -678,260 -102,-17 74,53 130,63 56,10 260,-19 345,-34 2,0 302,-101 126,68 -96,93 -388,188 -675,163 -288,-26 -420,-98 -398,-152 22,-53 92,-132 92,-132l93 -59z"/>
   <ellipse class="fil8 str0" cx="977" cy="679" rx="56" ry="87"/>
   <path class="fil9" d="M35 1254c287,-95 512,-92 870,-12 217,48 355,-252 330,-349 -37,-147 -321,-202 -634,-123 -313,79 -502,347 -566,484z"/>
   <path class="fil10" d="M817 735c7,260 -53,477 -53,477"/>
   <path class="fil10" d="M414 845c0,0 25,201 25,269 1,68 -19,68 -19,68"/>
   <path class="fil11" d="M817 735c5,172 -20,324 -37,409 0,2 -1,4 -1,6 -8,40 -15,63 -15,63 45,8 92,18 141,29 7,2 14,3 22,4 32,4 62,0 89,-9 64,-21 117,-72 155,-130 15,-23 28,-47 38,-71 24,-56 34,-110 26,-142 -28,-112 -200,-171 -418,-157z"/>
   <path class="fil12" d="M38 1252c139,-46 264,-69 396,-72 14,-165 18,-171 -3,-343 -210,115 -341,306 -393,415z"/>
   <path class="fil13" d="M1637 638c2,96 -1,132 -3,143 0,1 54,35 84,93 32,63 39,151 -32,206 -18,14 -32,36 -8,-69 27,-117 -18,-137 -104,-218 0,0 35,-157 -8,-252 -42,-94 -171,-187 -171,-187l-146 -96c174,54 383,168 387,379z"/>
   <path class="fil1" d="M1600 1103c273,0 331,199 449,647 118,448 1136,819 315,864 -821,44 -1101,-178 -1101,-627 0,-448 64,-884 337,-884z"/>
   <path class="fil2" d="M2655 2448c58,92 4,152 -296,168 -821,44 -1101,-178 -1101,-627 0,-300 29,-594 129,-756 -53,166 -70,393 -70,623 0,448 281,671 1101,627 110,-6 187,-18 237,-35z"/>
   <path class="fil14" d="M33 1259c9,-3 18,-6 27,-9 81,-144 261,-368 543,-438 310,-78 592,-24 633,119 1,-13 0,-24 -3,-33 -37,-147 -321,-202 -634,-123 -313,79 -502,347 -566,484z"/>
   <path class="fil1" d="M958 259c-119,41 -394,64 -193,-25 177,-77 217,-23 275,-31 18,-2 56,-21 113,-82 59,-63 44,56 67,93 22,37 -7,-15 122,11 130,26 133,96 81,85 -52,-11 -195,-27 -195,-27 0,0 39,23 73,78 33,56 -33,15 -89,-7 -56,-22 -107,19 -107,19 0,0 16,-39 -30,-67 -46,-28 -104,11 -152,48 -48,37 35,-95 35,-95z"/>
   <g>
    <path class="fil15" d="M959 258c-118,41 -391,63 -191,-24 87,-38 145,-43 183,-41 38,2 56,10 85,6 19,-2 57,-16 114,-74 57,-60 44,51 66,85 23,33 -5,-12 119,14 124,26 127,91 82,82 -20,-4 -66,-8 -108,-13 -42,-5 -82,-10 -82,-10 0,0 39,23 72,78 33,55 -33,15 -88,-7 -55,-22 -106,18 -106,18 0,0 16,-39 -29,-66 -45,-27 -103,11 -150,48 -48,37 35,-95 35,-95z"/>
    <path class="fil16" d="M961 258c-117,40 -387,63 -189,-24 85,-37 147,-41 184,-40 37,1 49,5 77,1 19,-2 59,-12 115,-66 55,-57 43,46 65,78 25,29 -3,-9 116,17 119,26 120,86 83,78 -13,-3 -57,-4 -99,-9 -42,-6 -86,-10 -86,-10 0,0 39,22 71,77 33,55 -33,15 -87,-7 -55,-22 -105,18 -105,18 0,0 16,-38 -29,-65 -45,-27 -102,11 -149,47 -47,36 35,-94 35,-94z"/>
    <path class="fil17" d="M962 257c-116,40 -384,62 -188,-24 84,-37 149,-39 185,-40 35,-1 41,-1 69,-4 19,-2 60,-7 116,-58 54,-54 42,41 64,71 26,24 -1,-6 112,20 114,27 113,81 84,74 -7,-2 -48,1 -91,-5 -42,-6 -89,-11 -89,-11 0,0 38,22 71,76 32,54 -32,14 -86,-7 -54,-22 -104,18 -104,18 0,0 16,-38 -29,-65 -44,-27 -101,11 -148,47 -47,36 34,-93 34,-93z"/>
    <path class="fil18" d="M964 257c-115,39 -380,61 -186,-24 82,-36 152,-37 186,-39 34,-2 34,-6 61,-9 19,-2 62,-2 117,-49 52,-50 42,36 63,63 27,20 1,-3 109,23 108,27 107,76 85,71 -1,0 -40,5 -82,-1 -42,-6 -93,-11 -93,-11 0,0 38,22 70,76 32,54 -32,14 -86,-7 -54,-21 -103,18 -103,18 0,0 15,-38 -29,-64 -44,-27 -100,11 -146,46 -46,36 34,-92 34,-92z"/>
    <path class="fil19" d="M965 256c-114,39 -377,61 -184,-24 81,-35 154,-35 187,-38 33,-3 27,-11 54,-14 19,-2 63,3 118,-41 50,-47 41,32 62,56 28,16 3,-1 106,26 103,27 100,70 86,67 5,1 -31,9 -73,3 -42,-6 -97,-12 -97,-12 0,0 38,22 69,75 32,53 -32,14 -85,-7 -53,-21 -103,18 -103,18 0,0 15,-37 -28,-64 -44,-26 -99,11 -145,46 -46,35 34,-91 34,-91z"/>
    <path class="fil20" d="M967 256c-113,39 -373,60 -182,-23 79,-35 156,-33 188,-38 32,-4 19,-16 46,-19 19,-2 65,8 119,-33 48,-44 41,27 61,49 29,12 5,2 103,29 98,27 93,65 86,63 12,2 -22,14 -65,7 -42,-6 -101,-13 -101,-13 0,0 37,22 69,74 32,53 -32,14 -84,-7 -53,-21 -102,18 -102,18 0,0 15,-37 -28,-63 -43,-26 -98,11 -144,46 -46,35 33,-90 33,-90z"/>
    <path class="fil21" d="M968 255c-111,38 -370,60 -181,-23 78,-34 158,-31 189,-37 30,-5 12,-21 38,-24 19,-2 66,13 120,-25 46,-41 40,22 60,41 31,8 7,5 99,32 92,27 87,60 87,60 18,3 -14,18 -56,11 -42,-7 -105,-13 -105,-13 0,0 37,21 68,73 31,52 -31,14 -83,-7 -52,-21 -101,17 -101,17 0,0 15,-37 -28,-62 -43,-26 -97,10 -142,45 -45,35 33,-89 33,-89z"/>
    <path class="fil22" d="M970 255c-110,38 -366,59 -179,-23 76,-33 160,-29 190,-37 29,-7 4,-26 30,-29 20,-2 68,18 121,-16 45,-38 39,17 59,34 32,3 9,8 96,35 87,27 80,55 88,56 24,5 -5,22 -47,16 -42,-7 -108,-14 -108,-14 0,0 36,21 67,73 31,52 -31,14 -82,-7 -52,-21 -100,17 -100,17 0,0 15,-36 -27,-62 -42,-26 -96,10 -141,45 -45,34 33,-89 33,-89z"/>
    <path class="fil23" d="M971 254c-109,38 -362,59 -177,-23 75,-33 163,-27 191,-36 28,-8 -3,-31 23,-33 20,-2 69,23 122,-8 43,-35 39,12 58,27 33,-1 11,11 93,38 82,28 74,50 89,53 30,6 4,27 -38,20 -42,-7 -112,-14 -112,-14 0,0 36,21 67,72 31,51 -31,14 -82,-7 -51,-20 -99,17 -99,17 0,0 15,-36 -27,-61 -42,-25 -95,10 -139,44 -44,34 32,-88 32,-88z"/>
    <path class="fil24" d="M973 254c-108,37 -359,58 -176,-22 73,-32 165,-25 192,-35 26,-9 -11,-36 15,-38 20,-2 71,28 123,0 41,-31 38,8 57,19 34,-5 13,14 90,42 76,28 67,45 90,49 36,7 12,31 -30,24 -42,-7 -116,-15 -116,-15 0,0 36,21 66,71 30,51 -30,13 -81,-7 -51,-20 -98,17 -98,17 0,0 15,-36 -27,-61 -41,-25 -94,10 -138,44 -44,34 32,-87 32,-87z"/>
    <path class="fil25" d="M974 253c-107,37 -355,57 -174,-22 72,-32 167,-23 193,-35 25,-10 -18,-41 7,-43 20,-2 72,33 125,8 39,-28 37,3 56,12 36,-9 15,17 86,45 71,28 60,40 91,45 43,8 21,35 -21,28 -42,-7 -120,-16 -120,-16 0,0 35,21 65,71 30,50 -30,13 -80,-7 -50,-20 -97,17 -97,17 0,0 14,-35 -27,-60 -41,-25 -93,10 -137,43 -43,33 32,-86 32,-86z"/>
    <path class="fil26" d="M976 253c-106,36 -352,57 -172,-22 70,-31 169,-21 194,-34 24,-11 -26,-46 -1,-48 20,-2 74,38 126,17 38,-25 37,-2 55,5 37,-13 17,19 83,48 66,28 54,34 92,42 49,10 30,39 -12,32 -42,-7 -124,-16 -124,-16 0,0 35,20 65,70 30,50 -30,13 -79,-7 -50,-20 -96,17 -96,17 0,0 14,-35 -26,-59 -41,-25 -92,10 -135,43 -43,33 31,-85 31,-85z"/>
    <path class="fil27" d="M977 252c-105,36 -348,56 -170,-22 69,-30 171,-19 195,-34 23,-13 -33,-51 -8,-53 20,-1 75,43 127,25 36,-22 36,-7 54,-3 38,-18 19,22 80,51 61,28 47,29 92,38 55,11 39,44 -4,36 -42,-8 -127,-17 -127,-17 0,0 35,20 64,69 29,49 -29,13 -78,-7 -49,-20 -95,16 -95,16 0,0 14,-34 -26,-59 -40,-24 -92,10 -134,42 -42,33 31,-84 31,-84z"/>
    <path class="fil28" d="M979 252c-104,36 -345,56 -169,-22 67,-30 174,-18 196,-33 21,-14 -41,-56 -16,-58 20,-1 77,48 128,33 34,-19 35,-11 53,-10 39,-22 22,25 77,54 55,29 40,24 93,34 61,12 47,48 5,40 -42,-8 -131,-17 -131,-17 0,0 34,20 63,69 29,49 -29,13 -78,-6 -49,-19 -94,16 -94,16 0,0 14,-34 -26,-58 -40,-24 -91,10 -133,42 -42,32 31,-83 31,-83z"/>
    <path class="fil29" d="M980 251c-103,35 -341,55 -167,-21 66,-29 176,-16 197,-32 20,-15 -48,-61 -24,-63 21,-1 78,53 129,41 32,-16 35,-16 52,-17 40,-26 24,28 73,57 50,29 34,19 94,31 68,13 56,52 14,44 -42,-8 -135,-18 -135,-18 0,0 34,20 63,68 29,48 -29,13 -77,-6 -48,-19 -93,16 -93,16 0,0 14,-34 -26,-58 -39,-24 -90,10 -131,42 -42,32 30,-83 30,-83z"/>
    <path class="fil30" d="M982 250c-102,35 -338,55 -165,-21 64,-28 178,-14 198,-32 19,-16 -55,-66 -32,-68 21,-1 80,58 130,50 31,-12 34,-21 51,-25 42,-30 26,31 70,60 45,29 27,14 95,27 74,15 65,57 23,48 -42,-8 -139,-19 -139,-19 0,0 34,20 62,67 29,48 -29,13 -76,-6 -48,-19 -92,16 -92,16 0,0 14,-33 -25,-57 -39,-24 -89,10 -130,41 -41,32 30,-82 30,-82z"/>
    <path class="fil31" d="M983 250c-101,35 -334,54 -163,-21 63,-28 180,-12 199,-31 17,-17 -63,-71 -39,-73 21,-1 82,63 131,58 29,-9 34,-26 50,-32 43,-34 28,34 67,63 39,29 21,9 96,24 80,16 73,61 31,53 -42,-8 -143,-19 -143,-19 0,0 33,19 61,66 28,47 -28,13 -75,-6 -47,-19 -91,16 -91,16 0,0 14,-33 -25,-56 -39,-23 -88,9 -129,41 -41,31 30,-81 30,-81z"/>
    <path class="fil32" d="M985 249c-100,34 -331,53 -162,-21 61,-27 183,-10 200,-31 16,-19 -70,-76 -47,-78 21,-1 83,68 132,66 27,-6 33,-31 49,-39 44,-39 30,37 64,66 34,29 14,3 97,20 86,17 82,65 40,57 -42,-8 -147,-20 -147,-20 0,0 33,19 61,66 28,47 -28,12 -74,-6 -47,-19 -90,16 -90,16 0,0 13,-33 -25,-56 -38,-23 -87,9 -127,40 -40,31 29,-80 29,-80z"/>
    <path class="fil33" d="M986 249c-99,34 -327,53 -160,-20 60,-26 185,-8 201,-30 15,-20 -78,-81 -55,-83 21,-1 85,73 133,74 25,-3 32,-35 48,-47 45,-43 32,39 61,69 29,30 7,-2 97,16 93,19 91,69 49,61 -42,-9 -150,-20 -150,-20 0,0 33,19 60,65 28,46 -28,12 -74,-6 -46,-18 -89,15 -89,15 0,0 13,-32 -25,-55 -38,-23 -86,9 -126,40 -40,31 29,-79 29,-79z"/>
    <path class="fil34" d="M988 248c-98,34 -324,52 -158,-20 58,-26 187,-6 202,-30 14,-21 -85,-86 -63,-87 21,-1 86,78 134,83 24,0 32,-40 47,-54 46,-47 34,42 57,72 23,30 1,-7 98,13 99,20 99,74 57,65 -42,-9 -154,-21 -154,-21 0,0 32,19 60,64 27,46 -27,12 -73,-6 -46,-18 -88,15 -88,15 0,0 13,-32 -24,-55 -37,-23 -85,9 -124,39 -39,30 29,-78 29,-78z"/>
   </g>
   <g>
    <path class="fil15" d="M959 258c-118,41 -391,63 -191,-24 87,-38 145,-43 183,-41 38,2 56,10 85,6 19,-2 57,-16 114,-74 57,-60 44,51 66,85 23,33 -5,-12 119,14 124,26 127,91 82,82 -20,-4 -66,-8 -108,-13 -42,-5 -82,-10 -82,-10 0,0 39,23 72,78 33,55 -33,15 -88,-7 -55,-22 -106,18 -106,18 0,0 16,-39 -29,-66 -45,-27 -103,11 -150,48 -48,37 35,-95 35,-95z"/>
    <path class="fil16" d="M961 258c-117,40 -387,63 -189,-24 85,-37 147,-41 184,-40 37,1 49,5 77,1 19,-2 59,-12 115,-66 55,-57 43,46 65,78 25,29 -3,-9 116,17 119,26 120,86 83,78 -13,-3 -57,-4 -99,-9 -42,-6 -86,-10 -86,-10 0,0 39,22 71,77 33,55 -33,15 -87,-7 -55,-22 -105,18 -105,18 0,0 16,-38 -29,-65 -45,-27 -102,11 -149,47 -47,36 35,-94 35,-94z"/>
    <path class="fil17" d="M962 257c-116,40 -384,62 -188,-24 84,-37 149,-39 185,-40 35,-1 41,-1 69,-4 19,-2 60,-7 116,-58 54,-54 42,41 64,71 26,24 -1,-6 112,20 114,27 113,81 84,74 -7,-2 -48,1 -91,-5 -42,-6 -89,-11 -89,-11 0,0 38,22 71,76 32,54 -32,14 -86,-7 -54,-22 -104,18 -104,18 0,0 16,-38 -29,-65 -44,-27 -101,11 -148,47 -47,36 34,-93 34,-93z"/>
    <path class="fil18" d="M964 257c-115,39 -380,61 -186,-24 82,-36 152,-37 186,-39 34,-2 34,-6 61,-9 19,-2 62,-2 117,-49 52,-50 42,36 63,63 27,20 1,-3 109,23 108,27 107,76 85,71 -1,0 -40,5 -82,-1 -42,-6 -93,-11 -93,-11 0,0 38,22 70,76 32,54 -32,14 -86,-7 -54,-21 -103,18 -103,18 0,0 15,-38 -29,-64 -44,-27 -100,11 -146,46 -46,36 34,-92 34,-92z"/>
    <path class="fil19" d="M965 256c-114,39 -377,61 -184,-24 81,-35 154,-35 187,-38 33,-3 27,-11 54,-14 19,-2 63,3 118,-41 50,-47 41,32 62,56 28,16 3,-1 106,26 103,27 100,70 86,67 5,1 -31,9 -73,3 -42,-6 -97,-12 -97,-12 0,0 38,22 69,75 32,53 -32,14 -85,-7 -53,-21 -103,18 -103,18 0,0 15,-37 -28,-64 -44,-26 -99,11 -145,46 -46,35 34,-91 34,-91z"/>
    <path class="fil20" d="M967 256c-113,39 -373,60 -182,-23 79,-35 156,-33 188,-38 32,-4 19,-16 46,-19 19,-2 65,8 119,-33 48,-44 41,27 61,49 29,12 5,2 103,29 98,27 93,65 86,63 12,2 -22,14 -65,7 -42,-6 -101,-13 -101,-13 0,0 37,22 69,74 32,53 -32,14 -84,-7 -53,-21 -102,18 -102,18 0,0 15,-37 -28,-63 -43,-26 -98,11 -144,46 -46,35 33,-90 33,-90z"/>
    <path class="fil21" d="M968 255c-111,38 -370,60 -181,-23 78,-34 158,-31 189,-37 30,-5 12,-21 38,-24 19,-2 66,13 120,-25 46,-41 40,22 60,41 31,8 7,5 99,32 92,27 87,60 87,60 18,3 -14,18 -56,11 -42,-7 -105,-13 -105,-13 0,0 37,21 68,73 31,52 -31,14 -83,-7 -52,-21 -101,17 -101,17 0,0 15,-37 -28,-62 -43,-26 -97,10 -142,45 -45,35 33,-89 33,-89z"/>
    <path class="fil22" d="M970 255c-110,38 -366,59 -179,-23 76,-33 160,-29 190,-37 29,-7 4,-26 30,-29 20,-2 68,18 121,-16 45,-38 39,17 59,34 32,3 9,8 96,35 87,27 80,55 88,56 24,5 -5,22 -47,16 -42,-7 -108,-14 -108,-14 0,0 36,21 67,73 31,52 -31,14 -82,-7 -52,-21 -100,17 -100,17 0,0 15,-36 -27,-62 -42,-26 -96,10 -141,45 -45,34 33,-89 33,-89z"/>
    <path class="fil23" d="M971 254c-109,38 -362,59 -177,-23 75,-33 163,-27 191,-36 28,-8 -3,-31 23,-33 20,-2 69,23 122,-8 43,-35 39,12 58,27 33,-1 11,11 93,38 82,28 74,50 89,53 30,6 4,27 -38,20 -42,-7 -112,-14 -112,-14 0,0 36,21 67,72 31,51 -31,14 -82,-7 -51,-20 -99,17 -99,17 0,0 15,-36 -27,-61 -42,-25 -95,10 -139,44 -44,34 32,-88 32,-88z"/>
    <path class="fil24" d="M973 254c-108,37 -359,58 -176,-22 73,-32 165,-25 192,-35 26,-9 -11,-36 15,-38 20,-2 71,28 123,0 41,-31 38,8 57,19 34,-5 13,14 90,42 76,28 67,45 90,49 36,7 12,31 -30,24 -42,-7 -116,-15 -116,-15 0,0 36,21 66,71 30,51 -30,13 -81,-7 -51,-20 -98,17 -98,17 0,0 15,-36 -27,-61 -41,-25 -94,10 -138,44 -44,34 32,-87 32,-87z"/>
    <path class="fil25" d="M974 253c-107,37 -355,57 -174,-22 72,-32 167,-23 193,-35 25,-10 -18,-41 7,-43 20,-2 72,33 125,8 39,-28 37,3 56,12 36,-9 15,17 86,45 71,28 60,40 91,45 43,8 21,35 -21,28 -42,-7 -120,-16 -120,-16 0,0 35,21 65,71 30,50 -30,13 -80,-7 -50,-20 -97,17 -97,17 0,0 14,-35 -27,-60 -41,-25 -93,10 -137,43 -43,33 32,-86 32,-86z"/>
    <path class="fil26" d="M976 253c-106,36 -352,57 -172,-22 70,-31 169,-21 194,-34 24,-11 -26,-46 -1,-48 20,-2 74,38 126,17 38,-25 37,-2 55,5 37,-13 17,19 83,48 66,28 54,34 92,42 49,10 30,39 -12,32 -42,-7 -124,-16 -124,-16 0,0 35,20 65,70 30,50 -30,13 -79,-7 -50,-20 -96,17 -96,17 0,0 14,-35 -26,-59 -41,-25 -92,10 -135,43 -43,33 31,-85 31,-85z"/>
    <path class="fil27" d="M977 252c-105,36 -348,56 -170,-22 69,-30 171,-19 195,-34 23,-13 -33,-51 -8,-53 20,-1 75,43 127,25 36,-22 36,-7 54,-3 38,-18 19,22 80,51 61,28 47,29 92,38 55,11 39,44 -4,36 -42,-8 -127,-17 -127,-17 0,0 35,20 64,69 29,49 -29,13 -78,-7 -49,-20 -95,16 -95,16 0,0 14,-34 -26,-59 -40,-24 -92,10 -134,42 -42,33 31,-84 31,-84z"/>
    <path class="fil28" d="M979 252c-104,36 -345,56 -169,-22 67,-30 174,-18 196,-33 21,-14 -41,-56 -16,-58 20,-1 77,48 128,33 34,-19 35,-11 53,-10 39,-22 22,25 77,54 55,29 40,24 93,34 61,12 47,48 5,40 -42,-8 -131,-17 -131,-17 0,0 34,20 63,69 29,49 -29,13 -78,-6 -49,-19 -94,16 -94,16 0,0 14,-34 -26,-58 -40,-24 -91,10 -133,42 -42,32 31,-83 31,-83z"/>
    <path class="fil29" d="M980 251c-103,35 -341,55 -167,-21 66,-29 176,-16 197,-32 20,-15 -48,-61 -24,-63 21,-1 78,53 129,41 32,-16 35,-16 52,-17 40,-26 24,28 73,57 50,29 34,19 94,31 68,13 56,52 14,44 -42,-8 -135,-18 -135,-18 0,0 34,20 63,68 29,48 -29,13 -77,-6 -48,-19 -93,16 -93,16 0,0 14,-34 -26,-58 -39,-24 -90,10 -131,42 -42,32 30,-83 30,-83z"/>
    <path class="fil30" d="M982 250c-102,35 -338,55 -165,-21 64,-28 178,-14 198,-32 19,-16 -55,-66 -32,-68 21,-1 80,58 130,50 31,-12 34,-21 51,-25 42,-30 26,31 70,60 45,29 27,14 95,27 74,15 65,57 23,48 -42,-8 -139,-19 -139,-19 0,0 34,20 62,67 29,48 -29,13 -76,-6 -48,-19 -92,16 -92,16 0,0 14,-33 -25,-57 -39,-24 -89,10 -130,41 -41,32 30,-82 30,-82z"/>
    <path class="fil31" d="M983 250c-101,35 -334,54 -163,-21 63,-28 180,-12 199,-31 17,-17 -63,-71 -39,-73 21,-1 82,63 131,58 29,-9 34,-26 50,-32 43,-34 28,34 67,63 39,29 21,9 96,24 80,16 73,61 31,53 -42,-8 -143,-19 -143,-19 0,0 33,19 61,66 28,47 -28,13 -75,-6 -47,-19 -91,16 -91,16 0,0 14,-33 -25,-56 -39,-23 -88,9 -129,41 -41,31 30,-81 30,-81z"/>
    <path class="fil32" d="M985 249c-100,34 -331,53 -162,-21 61,-27 183,-10 200,-31 16,-19 -70,-76 -47,-78 21,-1 83,68 132,66 27,-6 33,-31 49,-39 44,-39 30,37 64,66 34,29 14,3 97,20 86,17 82,65 40,57 -42,-8 -147,-20 -147,-20 0,0 33,19 61,66 28,47 -28,12 -74,-6 -47,-19 -90,16 -90,16 0,0 13,-33 -25,-56 -38,-23 -87,9 -127,40 -40,31 29,-80 29,-80z"/>
    <path class="fil33" d="M986 249c-99,34 -327,53 -160,-20 60,-26 185,-8 201,-30 15,-20 -78,-81 -55,-83 21,-1 85,73 133,74 25,-3 32,-35 48,-47 45,-43 32,39 61,69 29,30 7,-2 97,16 93,19 91,69 49,61 -42,-9 -150,-20 -150,-20 0,0 33,19 60,65 28,46 -28,12 -74,-6 -46,-18 -89,15 -89,15 0,0 13,-32 -25,-55 -38,-23 -86,9 -126,40 -40,31 29,-79 29,-79z"/>
    <path class="fil34" d="M988 248c-98,34 -324,52 -158,-20 58,-26 187,-6 202,-30 14,-21 -85,-86 -63,-87 21,-1 86,78 134,83 24,0 32,-40 47,-54 46,-47 34,42 57,72 23,30 1,-7 98,13 99,20 99,74 57,65 -42,-9 -154,-21 -154,-21 0,0 32,19 60,64 27,46 -27,12 -73,-6 -46,-18 -88,15 -88,15 0,0 13,-32 -24,-55 -37,-23 -85,9 -124,39 -39,30 29,-78 29,-78z"/>
   </g>
   <path class="fil35" d="M989 248c-97,33 -320,52 -156,-20 57,-25 189,-4 203,-29 12,-22 -93,-91 -70,-92 22,-1 88,83 135,91 22,3 31,-45 46,-61 48,-51 36,45 54,75 18,30 -6,-12 99,9 105,21 108,78 66,69 -42,-9 -158,-22 -158,-22 0,0 32,19 59,64 27,45 -27,12 -72,-6 -45,-18 -87,15 -87,15 0,0 13,-32 -24,-54 -37,-22 -84,9 -123,39 -39,30 29,-77 29,-77z"/>
   <ellipse class="fil8 str0" cx="1307" cy="727" rx="56" ry="87"/>
   <ellipse class="fil36" cx="965" cy="645" rx="32" ry="43"/>
   <ellipse class="fil36" cx="1305" cy="691" rx="31" ry="43"/>
   <path class="fil7" d="M909 576c-3,6 41,-50 87,-52 41,-1 84,53 83,49 -35,-101 -125,-81 -170,3z"/>
   <path class="fil7" d="M1424 669c0,7 -24,-65 -63,-86 -38,-20 -91,12 -88,9 76,-75 148,-17 151,77z"/>
  </g>
 </g>
</svg>
