<?xml version="1.0" encoding="UTF-8"?>
<!DOCTYPE svg PUBLIC "-//W3C//DTD SVG 1.1//EN" "http://www.w3.org/Graphics/SVG/1.1/DTD/svg11.dtd">
<!-- Creator: CorelDRAW X5 -->
<svg xmlns="http://www.w3.org/2000/svg" xml:space="preserve" width="70mm" height="45mm" style="shape-rendering:geometricPrecision; text-rendering:geometricPrecision; image-rendering:optimizeQuality; fill-rule:evenodd; clip-rule:evenodd"
viewBox="0 0 7000 4500"
 xmlns:xlink="http://www.w3.org/1999/xlink">
 <defs>
  <style type="text/css">
   <![CDATA[
    .str2 {stroke:#A5BE2F;stroke-width:7.62}
    .str3 {stroke:#D7E12A;stroke-width:7.62}
    .str1 {stroke:#DB7020;stroke-width:7.62}
    .str0 {stroke:#568518;stroke-width:20;stroke-linecap:round;stroke-linejoin:round}
    .fil7 {fill:none}
    .fil21 {fill:black}
    .fil0 {fill:#BE2D21}
    .fil20 {fill:#FEFEFE}
    .fil23 {fill:#00532D}
    .fil22 {fill:#568518}
    .fil2 {fill:#6A8B30}
    .fil1 {fill:#749D37}
    .fil15 {fill:#7DAC3C}
    .fil3 {fill:#7DAC42}
    .fil8 {fill:#854400}
    .fil4 {fill:#8CC63E}
    .fil24 {fill:#A5BE2F}
    .fil17 {fill:#AED652}
    .fil9 {fill:#B24820}
    .fil25 {fill:#D7E12A}
    .fil10 {fill:#DB7020}
    .fil19 {fill:#E0B404}
    .fil11 {fill:#E87A25}
    .fil18 {fill:#EDCD4E}
    .fil26 {fill:#EDF55A}
    .fil6 {fill:#F48F9F}
    .fil12 {fill:#F6AD12}
    .fil13 {fill:#F8AF14}
    .fil16 {fill:#FFCB05}
    .fil14 {fill:#FEFEFE;fill-opacity:0.200000}
    .fil5 {fill:#FEFEFE;fill-opacity:0.349020}
   ]]>
  </style>
 </defs>
 <g id="Warstwa_x0020_1">
  <metadata id="CorelCorpID_0Corel-Layer"/>
  <g id="_253273432">
   <path class="fil0" d="M914 2084c0,0 98,-16 143,-3 33,10 -60,88 -57,81 49,-109 223,-45 233,-39 10,7 -21,109 -126,113 -105,4 -238,-15 -243,-45 -5,-29 50,-108 50,-108z"/>
   <path class="fil1" d="M2488 2981c257,0 465,254 465,567 0,313 120,670 -314,663 -149,-2 -462,-51 -547,-183 -62,-96 -68,-368 -68,-500 0,-313 208,-547 464,-547z"/>
   <path class="fil1" d="M4570 3210c284,14 515,218 515,487 0,130 42,317 -46,404 -94,93 -322,83 -468,83 -195,0 -349,-13 -373,-122 -42,-190 195,-208 118,-242 -331,-144 -286,-291 -276,-323 203,-619 288,-299 531,-287z"/>
   <ellipse class="fil2" transform="matrix(0.173559 0.103443 -0.0619834 0.103998 4464.76 3641.17)" rx="406" ry="970"/>
   <ellipse class="fil2" transform="matrix(0.255655 -0.0954897 0.057218 0.15319 4724.57 3672.2)" rx="406" ry="970"/>
   <path class="fil3" d="M2064 1642c19,74 89,146 144,156 73,13 3510,264 3524,359 13,89 559,528 635,789 10,33 180,223 350,260 164,36 237,-32 198,-18 -6,2 -102,265 -257,337 -142,66 -228,34 -387,-36 -91,-41 -301,-303 -270,-217 46,133 -152,-192 -149,-105 9,274 65,779 -6,802 -210,69 -480,281 -780,163 -185,-73 44,-342 6,-356 -101,-34 -165,-155 -237,-220 -254,-230 -759,-148 -1066,-10 -50,23 -3,544 -54,563 -399,147 -1194,139 -1084,-302 10,-39 92,-471 61,-475 -184,-21 -586,-194 -747,-284 -124,-70 -258,-544 -263,-1217 -4,2 -8,4 -12,4 -81,37 -162,74 -183,89 -43,32 -76,113 -140,308 -65,194 -169,175 -327,143 -158,-31 -286,-93 -300,-209 -14,-116 170,-249 170,-249 0,0 -512,52 -745,-452 -233,-504 203,-514 340,-576 137,-62 163,-17 194,-193 31,-176 94,-390 122,-415 29,-25 124,-75 220,-30 95,45 111,165 111,165 0,0 -3,-1 44,-63 47,-62 84,-126 335,-79 110,21 308,159 380,373 93,276 46,639 46,639l126 354z"/>
   <ellipse class="fil2" transform="matrix(0.189276 -0.0706963 0.0423617 0.113415 2274.71 3267.85)" rx="406" ry="970"/>
   <ellipse class="fil2" transform="matrix(0.255655 -0.0954897 0.057218 0.15319 2558.51 3520.54)" rx="406" ry="970"/>
   <path class="fil4" d="M2035 1689c29,96 86,115 142,156 59,43 3466,264 3480,359 13,89 552,528 627,789 10,33 177,223 346,260 161,36 325,-80 286,-66 -6,2 -104,265 -257,337 -141,66 -312,82 -469,11 -90,-41 -296,-304 -267,-217 184,553 99,763 9,793 -208,68 -635,185 -932,68 -183,-73 44,-342 6,-356 -100,-34 -163,-155 -234,-220 -251,-230 -662,-114 -964,25 -49,23 7,544 -43,563 -394,147 -1277,105 -1168,-336 10,-39 91,-471 60,-475 -182,-21 -579,-194 -738,-284 -123,-70 -255,-544 -260,-1217 -4,2 -8,4 -12,4 -80,37 -160,74 -181,89 -42,32 -75,113 -139,308 -64,194 -167,175 -323,143 -156,-31 -282,-93 -296,-209 -13,-116 168,-249 168,-249 0,0 -505,52 -736,-452 -230,-504 201,-514 336,-576 135,-62 156,-115 203,-240 47,-125 81,-343 109,-368 28,-25 123,-75 217,-30 94,45 109,165 109,165 0,0 -3,-1 44,-63 46,-62 83,-126 331,-79 103,20 281,135 351,335 99,284 70,678 70,678l125 354z"/>
   <path class="fil5" d="M951 434c97,0 175,109 175,243 0,134 -78,243 -175,243 -97,0 -175,-109 -175,-243 0,-134 78,-243 175,-243z"/>
   <path class="fil6 str0" d="M876 1965l106 -22c0,0 -60,139 -108,210 -48,72 89,92 161,99 282,27 346,-480 338,-471 -120,120 -496,184 -496,184z"/>
   <path class="fil5" d="M1340 479c97,0 175,109 175,243 0,134 -78,243 -175,243 -97,0 -175,-109 -175,-243 0,-134 78,-243 175,-243z"/>
   <path class="fil7 str0" d="M1294 1702c0,0 10,21 79,79 68,58 72,65 72,65"/>
   <path class="fil8" d="M2625 1689c0,0 219,-926 1230,-953 1011,-27 1626,102 1817,492 191,389 589,874 478,1428 -111,554 -2022,738 -2022,738l-1045 -239 -458 -1465z"/>
   <path class="fil9" d="M2994 941c0,0 560,451 485,833 -75,383 -567,471 -567,471l-348 -629c0,0 14,-424 430,-676z"/>
   <path class="fil10" d="M2955 1025c0,0 456,367 394,678 -61,311 -461,383 -461,383l-283 -511c0,0 11,-344 350,-550z"/>
   <path class="fil11 str1" d="M2961 1134c0,0 348,280 301,518 -47,238 -352,293 -352,293l-217 -391c0,0 8,-263 267,-420z"/>
   <path class="fil12" d="M2967 1277c0,0 239,193 207,356 -32,163 -242,201 -242,201l-149 -268c0,0 6,-181 184,-289z"/>
   <path class="fil9" d="M2939 2293c0,0 246,-38 362,-130 116,-92 219,-243 219,-243 0,0 75,14 219,140 143,126 188,82 253,123 65,41 147,55 181,96 34,41 68,48 55,106 -14,58 89,892 55,929 -34,38 -775,17 -868,-20 -92,-38 -270,-219 -314,-318 -44,-99 -161,-683 -161,-683z"/>
   <path class="fil10" d="M3042 2380c0,0 206,-31 303,-109 97,-77 183,-203 183,-203 0,0 63,11 183,117 120,106 157,69 212,103 54,34 123,46 152,80 29,34 57,40 46,89 -11,49 74,747 46,778 -29,31 -650,14 -727,-17 -77,-31 -226,-183 -263,-266 -37,-83 -134,-572 -134,-572z"/>
   <path class="fil11" d="M3045 2514c0,0 182,-28 268,-96 86,-68 162,-179 162,-179 0,0 56,10 162,104 106,93 139,61 187,91 48,30 109,40 134,71 25,30 51,35 40,78 -10,43 66,659 40,687 -25,28 -573,13 -642,-15 -68,-28 -200,-162 -232,-235 -33,-73 -119,-505 -119,-505z"/>
   <path class="fil13" d="M3042 2671c0,0 157,-24 231,-83 74,-59 139,-155 139,-155 0,0 48,9 139,89 91,81 120,52 161,78 41,26 94,35 115,61 22,26 44,30 35,67 -9,37 57,568 35,592 -22,24 -494,11 -553,-13 -59,-24 -172,-139 -200,-202 -28,-63 -102,-435 -102,-435z"/>
   <path class="fil9" d="M4312 2379c0,0 483,-194 612,-278 129,-84 214,-108 232,-122 17,-14 328,147 523,424 195,277 390,317 389,362 -1,45 -1110,625 -1339,591 -229,-34 -348,-34 -369,-27 -21,7 10,51 -17,-376 -27,-427 -31,-574 -31,-574z"/>
   <path class="fil10" d="M4429 2413c0,0 409,-164 518,-235 109,-71 182,-91 196,-103 14,-12 278,124 442,359 165,234 330,268 330,306 -1,38 -940,529 -1133,500 -194,-29 -295,-29 -312,-23 -17,6 9,43 -14,-318 -23,-361 -26,-486 -26,-486z"/>
   <path class="fil11" d="M4565 2489c0,0 319,-128 404,-184 85,-56 142,-71 153,-80 11,-9 217,97 345,280 129,183 258,209 257,239 0,30 -733,413 -884,390 -151,-23 -230,-23 -244,-18 -14,5 7,34 -11,-248 -18,-282 -20,-379 -20,-379z"/>
   <path class="fil12" d="M4708 2553c0,0 230,-92 291,-132 61,-40 102,-51 110,-58 8,-7 156,70 249,202 93,132 186,151 185,172 0,21 -528,298 -637,281 -109,-16 -166,-16 -176,-13 -10,3 5,24 -8,-179 -13,-203 -15,-273 -15,-273z"/>
   <path class="fil9" d="M5272 797c0,0 113,164 61,560 -51,396 -85,506 -85,506 0,0 888,748 929,847 41,99 99,-113 102,-284 3,-171 -225,-1096 -543,-1353 -318,-256 -465,-277 -465,-277z"/>
   <path class="fil10" d="M5416 920c0,0 99,144 54,492 -45,348 -75,444 -75,444 0,0 781,658 817,745 36,87 87,-99 90,-249 3,-150 -198,-964 -477,-1189 -279,-225 -408,-243 -408,-243z"/>
   <path class="fil11" d="M5537 1052c0,0 89,129 48,440 -40,312 -67,398 -67,398 0,0 698,588 731,666 32,78 78,-89 81,-223 3,-134 -177,-862 -427,-1064 -250,-201 -365,-218 -365,-218z"/>
   <path class="fil12" d="M5689 1243c0,0 66,96 36,330 -30,233 -50,297 -50,297 0,0 523,440 547,498 24,58 58,-66 60,-167 2,-100 -133,-645 -320,-796 -187,-151 -273,-163 -273,-163z"/>
   <path class="fil14" d="M3213 2748c0,0 88,-13 130,-47 42,-33 78,-87 78,-87 0,0 27,5 78,50 51,45 67,29 91,44 23,15 53,20 65,34 12,15 25,17 20,38 -5,21 32,320 20,333 -12,13 -278,6 -311,-7 -33,-13 -97,-78 -113,-114 -16,-36 -58,-245 -58,-245z"/>
   <ellipse class="fil15" transform="matrix(0.346818 -0.12954 0.0776212 0.207816 2520.41 1964.39)" rx="406" ry="970"/>
   <ellipse class="fil15" transform="matrix(0.127228 -0.156959 0.094051 0.076236 5129.83 3666.54)" rx="406" ry="970"/>
   <ellipse class="fil15" transform="matrix(0.301251 0.00257467 -0.00154276 0.180511 5671.02 3475.83)" rx="406" ry="970"/>
   <ellipse class="fil15" transform="matrix(0.0810984 -0.0655516 0.0392789 0.0485947 5312.61 3615.29)" rx="406" ry="970"/>
   <ellipse class="fil15" transform="matrix(0.134352 -0.00629569 0.00377242 0.0805048 5459 3569.56)" rx="406" ry="970"/>
   <ellipse class="fil15" transform="matrix(0.0671571 -0.00314695 0.00188568 0.040241 5389.11 3712.99)" rx="406" ry="970"/>
   <ellipse class="fil15" transform="matrix(0.253768 -0.162359 0.0972865 0.15206 6271.94 3183.6)" rx="406" ry="970"/>
   <ellipse class="fil15" transform="matrix(0.0920095 -0.058867 0.0352735 0.0551327 6065.04 3242.85)" rx="406" ry="970"/>
   <ellipse class="fil15" transform="matrix(0.0886966 -0.00770827 0.00461884 0.0531476 6466.72 3261.87)" rx="406" ry="970"/>
   <ellipse class="fil15" transform="matrix(0.0886966 -0.00385356 0.00461884 0.0265698 6571.45 3291.77)" rx="406" ry="970"/>
   <path class="fil16" d="M2292 1854c0,0 319,-9 333,538 14,547 -184,636 -75,813 109,177 185,218 294,280 109,63 1592,362 2651,-48 1059,-410 915,-471 861,-622 -55,-150 -192,-420 -363,-234 -170,186 -621,630 -1188,630 -567,0 -1394,212 -1619,-342 -225,-553 -137,-977 -280,-1079 -143,-102 -96,-116 -280,-102 -184,14 -333,166 -333,166z"/>
   <path class="fil9" d="M3059 896c0,0 523,434 506,789 -17,355 635,352 693,533 58,181 707,-280 844,-328 137,-48 225,-1035 17,-1127 -208,-92 -1288,-352 -2060,133z"/>
   <path class="fil10" d="M3300 916c0,0 434,360 420,655 -14,295 527,292 576,442 48,150 587,-233 700,-272 113,-40 187,-859 14,-936 -173,-77 -1069,-292 -1710,111z"/>
   <path class="fil11" d="M3526 903c0,0 334,277 323,504 -11,227 406,225 443,340 37,116 452,-179 539,-210 87,-31 144,-661 11,-720 -133,-59 -823,-225 -1316,85z"/>
   <path class="fil12" d="M3751 929c0,0 245,204 237,370 -8,167 298,165 325,250 27,85 332,-131 396,-154 64,-22 106,-486 8,-529 -98,-43 -604,-165 -966,63z"/>
   <path class="fil14" d="M3915 960c0,0 177,147 171,267 -6,120 215,119 235,180 20,61 240,-95 286,-111 46,-16 76,-351 6,-382 -71,-31 -436,-119 -698,45z"/>
   <path class="fil14" d="M5783 1394c0,0 41,60 23,205 -19,145 -31,185 -31,185 0,0 325,274 340,310 15,36 36,-41 38,-104 1,-63 -83,-401 -199,-495 -116,-94 -170,-101 -170,-101z"/>
   <path class="fil14" d="M2972 1362c0,0 153,123 132,227 -21,104 -155,129 -155,129l-95 -172c0,0 4,-116 117,-185z"/>
   <path class="fil14" d="M4811 2600c0,0 155,-62 197,-89 41,-27 69,-35 74,-39 5,-4 105,47 168,136 63,89 125,102 125,116 0,14 -357,201 -430,190 -74,-11 -112,-11 -119,-9 -7,2 3,16 -5,-121 -9,-137 -10,-184 -10,-184z"/>
   <path class="fil17" d="M2656 3386c-1,-1 -2,-2 -3,-2 -182,-21 -579,-194 -738,-284 -123,-70 -255,-544 -260,-1217 -4,2 -8,4 -12,4 -43,20 -86,40 -120,56 7,-9 14,-16 21,-22 21,-16 101,-53 181,-89 4,0 8,-2 12,-4 4,673 136,1149 259,1217 166,90 715,280 693,288 -4,2 -17,21 -35,53z"/>
   <ellipse class="fil15" transform="matrix(0.148479 -0.0554582 0.0332309 0.0889693 2436.05 2259.46)" rx="406" ry="970"/>
   <ellipse class="fil15" transform="matrix(0.189276 -0.0706963 0.0423617 0.113415 2592.83 2430.75)" rx="406" ry="970"/>
   <ellipse class="fil15" transform="matrix(0.189276 -0.0706963 0.0423617 0.113415 2843.03 3563.39)" rx="406" ry="970"/>
   <ellipse class="fil15" transform="matrix(0.258283 0.155075 -0.0929222 0.154765 3406.14 3673.66)" rx="406" ry="970"/>
   <ellipse class="fil15" transform="matrix(0.197006 -0.0292924 0.0175522 0.118047 3041.02 3677.67)" rx="406" ry="970"/>
   <path class="fil18" d="M2281 1840c0,0 319,-9 333,538 14,547 -184,636 -75,813 109,177 185,218 294,280 109,63 1592,362 2651,-48 532,-206 760,-324 849,-409 -133,76 -354,175 -713,314 -1059,410 -2542,110 -2651,48 -109,-63 -185,-103 -294,-280 -109,-177 89,-266 75,-813 -14,-547 -333,-538 -333,-538 0,0 5,-5 15,-14 -92,48 -152,110 -152,110z"/>
   <path class="fil19" d="M6375 2967c30,-59 -5,-104 -27,-164 -55,-150 -192,-420 -363,-234 -170,186 -621,630 -1188,630 -567,0 -1394,212 -1619,-342 -225,-553 -137,-977 -280,-1079 -143,-102 -96,-116 -280,-102 -103,8 -195,59 -256,102 19,-4 38,-7 58,-9 196,-14 145,0 297,109 152,109 58,558 297,1144 239,587 1115,362 1716,362 601,0 1079,-471 1259,-668 181,-197 326,88 384,248l1 3z"/>
   <ellipse class="fil20" cx="929" cy="704" rx="129" ry="179"/>
   <ellipse class="fil20" cx="1305" cy="738" rx="129" ry="179"/>
   <circle class="fil21" cx="926" cy="635" r="93"/>
   <circle class="fil21" cx="1295" cy="675" r="93"/>
   <circle class="fil20" cx="1275" cy="634" r="33"/>
   <circle class="fil20" cx="907" cy="592" r="33"/>
   <ellipse class="fil22" transform="matrix(0.133624 0.0603987 -0.0325672 0.0720504 454.203 1371.86)" rx="406" ry="970"/>
   <ellipse class="fil22" transform="matrix(0.13737 -0.0513092 0.0307448 0.0823132 679.453 1419.58)" rx="406" ry="970"/>
   <path class="fil23" d="M1244 497c0,0 53,-26 106,2 53,28 99,87 102,96 10,32 -31,-327 -208,-98z"/>
   <path class="fil23" d="M1040 489c0,0 -47,-36 -104,-19 -57,17 -114,65 -119,74 -16,29 95,-314 223,-55z"/>
   <path class="fil22" d="M367 1417c0,0 10,25 31,40 21,15 48,22 51,21 10,-2 -82,49 -82,-61z"/>
   <path class="fil22" d="M673 1528c0,0 26,7 51,-1 25,-8 46,-26 47,-28 4,-9 -9,94 -98,30z"/>
   <path class="fil24" d="M4337 3888c72,-12 93,126 77,194 -25,106 -145,60 -147,59 -27,-34 -43,-128 -34,-168 16,-68 30,-72 103,-84z"/>
   <path class="fil24" d="M4506 3918c99,38 106,227 105,228 -56,58 -228,19 -229,18 -27,-34 -12,-143 -3,-184 16,-68 67,-86 127,-62z"/>
   <path class="fil24" d="M2340 3866c99,38 106,227 105,228 -56,58 -228,19 -229,18 -27,-34 -12,-143 -3,-184 16,-68 67,-86 127,-62z"/>
   <path class="fil24 str2" d="M2204 3807c105,1 79,182 81,254 -63,24 -149,1 -150,-1 -27,-34 -43,-128 -34,-168 16,-68 -2,-86 103,-84z"/>
   <path class="fil25" d="M2888 3911c99,38 106,227 105,228 -56,58 -228,19 -229,18 -27,-34 -12,-143 -3,-184 16,-68 67,-86 127,-62z"/>
   <path class="fil25" d="M2735 3832c72,-12 93,126 77,194 -25,106 -137,86 -138,84 -70,-54 -88,-162 -86,-206 2,-72 75,-60 147,-73z"/>
   <path class="fil25" d="M3091 3971c99,38 142,274 141,275 -56,58 -300,-24 -301,-26 -27,-34 -12,-143 -3,-184 16,-68 102,-89 163,-66z"/>
   <g>
    <path class="fil25" d="M5146 3929c105,1 79,182 81,254 -63,24 -149,1 -150,-1 -27,-34 -43,-128 -34,-168 16,-68 -2,-86 103,-84z"/>
    <path class="fil25 str3" d="M5063 3912c72,-12 93,126 77,194 -25,106 -145,60 -147,59 -27,-34 -43,-128 -34,-168 16,-68 30,-72 103,-84z"/>
    <path class="fil25 str3" d="M5276 3959c105,1 79,182 81,254 -63,24 -149,1 -150,-1 -27,-34 -43,-128 -34,-168 16,-68 -2,-86 103,-84z"/>
    <path class="fil25 str3" d="M5369 3954c105,1 79,182 81,254 -63,24 -149,1 -150,-1 -27,-34 -43,-128 -34,-168 16,-68 -2,-86 103,-84z"/>
   </g>
   <path class="fil24" d="M2432 3902c99,38 106,227 105,228 -56,58 -228,19 -229,18 -27,-34 -12,-143 -3,-184 16,-68 67,-86 127,-62z"/>
   <path class="fil24" d="M4612 3922c99,38 106,227 105,228 -56,58 -228,19 -229,18 -27,-34 -12,-143 -3,-184 16,-68 67,-86 127,-62z"/>
   <path class="fil26" d="M5136 3971c90,1 259,193 260,255 -245,20 -387,-42 -388,-43 -23,-29 31,-104 39,-139 14,-59 -2,-74 88,-73z"/>
   <path class="fil26" d="M5066 3956c62,-11 82,145 68,204 -22,92 -126,15 -128,14 -23,-29 -37,-110 -29,-145 14,-59 26,-62 88,-73z"/>
   <path class="fil26" d="M5248 3997c90,1 68,156 69,218 -54,20 -128,1 -129,-1 -23,-29 -37,-110 -29,-145 14,-59 -2,-74 88,-73z"/>
   <path class="fil26" d="M5328 3992c90,1 68,156 69,218 -54,20 -128,1 -129,-1 -23,-29 -37,-110 -29,-145 14,-59 -2,-74 88,-73z"/>
   <path class="fil26" d="M2892 3970c94,33 169,254 168,255 -54,49 -286,-45 -287,-47 -26,-29 -12,-121 -3,-156 15,-58 63,-73 121,-53z"/>
   <path class="fil26" d="M2745 3903c69,-10 83,177 68,235 -24,90 -132,-19 -134,-20 -26,-29 -41,-108 -32,-143 15,-58 29,-61 98,-72z"/>
   <path class="fil26" d="M3051 4023c94,33 182,221 181,222 -54,49 -299,-12 -300,-13 -26,-29 -12,-121 -3,-156 15,-58 63,-73 121,-53z"/>
   <ellipse class="fil15" transform="matrix(0.13737 -0.0513092 0.0307448 0.0823132 1742.73 1057.03)" rx="406" ry="970"/>
   <ellipse class="fil15" transform="matrix(0.13737 -0.0513092 0.0307448 0.0823132 1824.71 1268.81)" rx="406" ry="970"/>
   <ellipse class="fil15" transform="matrix(0.13737 -0.0513092 0.0307448 0.0823132 1731.91 1405.11)" rx="406" ry="970"/>
   <ellipse class="fil15" transform="matrix(0.197388 -0.0737263 0.0441773 0.118276 1884.14 1591.46)" rx="406" ry="970"/>
   <ellipse class="fil15" transform="matrix(0.253063 -0.0945216 0.0566379 0.151637 2015.65 1884.52)" rx="406" ry="970"/>
   <ellipse class="fil15" transform="matrix(0.253063 -0.0945216 0.0566379 0.151637 2251.68 2030.53)" rx="406" ry="970"/>
   <ellipse class="fil15" transform="matrix(0.319459 -0.119321 0.0714981 0.191422 2101.19 2271.97)" rx="406" ry="970"/>
   <ellipse class="fil15" transform="matrix(0.0742393 -0.0277291 0.0166155 0.0444847 2285.73 2252.43)" rx="406" ry="970"/>
   <ellipse class="fil15" transform="matrix(0.189276 -0.0706963 0.0423617 0.113415 2386.5 2478.68)" rx="406" ry="970"/>
  </g>
 </g>
</svg>
