<?xml version="1.0" encoding="UTF-16"?>
<!DOCTYPE svg PUBLIC "-//W3C//DTD SVG 1.1//EN" "http://www.w3.org/Graphics/SVG/1.1/DTD/svg11.dtd">
<!-- Creator: CorelDRAW X5 -->
<svg xmlns="http://www.w3.org/2000/svg" xml:space="preserve" width="50mm" height="30mm" style="shape-rendering:geometricPrecision; text-rendering:geometricPrecision; image-rendering:optimizeQuality; fill-rule:evenodd; clip-rule:evenodd"
viewBox="0 0 5000 3000"
 xmlns:xlink="http://www.w3.org/1999/xlink">
 <defs>
  <style type="text/css">
   <![CDATA[
    .fil1 {fill:black}
    .fil2 {fill:#BE2D21}
    .fil0 {fill:#F3DF39}
    .fil3 {fill:#FEFEFE}
    .fil4 {fill:#E3D12C}
   ]]>
  </style>
 </defs>
 <g id="Warstwa_x0020_1">
  <metadata id="CorelCorpID_0Corel-Layer"/>
  <g id="_250226696">
   <path class="fil0" d="M2298 1070c0,109 -25,213 -70,308 221,11 467,38 716,38 61,0 423,73 865,50 525,-27 1138,-149 1150,-104 115,443 -469,1031 -1101,1313 -552,246 -1129,216 -1463,216 -904,0 -1088,-464 -1088,-824 0,-58 14,-141 42,-228 -427,-43 -759,-370 -759,-768 0,-311 242,-497 535,-619 147,-61 297,-101 438,-100 85,1 -76,-201 -20,-228 19,-10 122,229 153,229 39,1 36,-139 78,-235 27,-61 32,257 92,266 15,2 230,-191 247,-180 17,11 -147,231 -140,236 196,107 326,314 326,632z"/>
   <ellipse class="fil1" cx="1065" cy="782" rx="143" ry="167"/>
   <path class="fil2" d="M361 1380c-172,56 -409,116 -311,167 282,148 831,-87 715,-255 -166,-241 -110,-7 -404,88z"/>
   <ellipse class="fil3" cx="1022" cy="803" rx="64" ry="103"/>
   <path class="fil4" d="M2238 2113c413,146 1309,57 1665,-184 356,-241 407,-400 407,-400 -650,113 -2008,-62 -2189,-8 -257,76 -338,431 117,593z"/>
  </g>
 </g>
</svg>
