<?xml version="1.0" encoding="UTF-8"?>
<!DOCTYPE svg PUBLIC "-//W3C//DTD SVG 1.1//EN" "http://www.w3.org/Graphics/SVG/1.1/DTD/svg11.dtd">
<!-- Creator: CorelDRAW X5 -->
<svg xmlns="http://www.w3.org/2000/svg" xml:space="preserve" width="70mm" height="50mm" style="shape-rendering:geometricPrecision; text-rendering:geometricPrecision; image-rendering:optimizeQuality; fill-rule:evenodd; clip-rule:evenodd"
viewBox="0 0 7000 5000"
 xmlns:xlink="http://www.w3.org/1999/xlink">
 <defs>
  <style type="text/css">
   <![CDATA[
    .str0 {stroke:#815AA9;stroke-width:20}
    .fil7 {fill:black}
    .fil8 {fill:#FEFEFE}
    .fil0 {fill:#633D8A}
    .fil1 {fill:#815AA9}
    .fil2 {fill:#B188DB}
    .fil6 {fill:#BC4A61}
    .fil5 {fill:#CCCC98}
    .fil4 {fill:#F48F9F}
    .fil3 {fill:#FEFCB1}
    .fil9 {fill:#FEFEFE;fill-opacity:0.360784}
   ]]>
  </style>
 </defs>
 <g id="Warstwa_x0020_1">
  <metadata id="CorelCorpID_0Corel-Layer"/>
  <g id="_252998888">
   <path class="fil0" d="M1554 3520c119,-382 1029,-139 974,73l-44 171c-58,94 -161,174 -173,282 -8,68 -13,188 10,271 28,99 102,470 -41,462 -404,-24 -784,-248 -765,-324 34,-130 12,-258 14,-395 1,-94 10,-121 14,-212 9,-210 -62,-91 11,-327zm2463 295c19,-400 961,-393 961,-175l0 177c-32,105 -112,209 -97,316 9,68 35,186 78,259 52,88 217,430 76,457 -397,79 -822,-43 -822,-121 0,-134 -53,-253 -86,-386 -22,-91 -20,-120 -40,-209 -45,-206 -83,-73 -72,-319z"/>
   <path class="fil1" d="M1049 1547c0,0 -320,18 -415,-135 -95,-153 -171,-259 -248,-255 -76,4 -200,91 -73,441 127,350 309,419 444,513 135,95 342,-95 364,-189 22,-95 -73,-375 -73,-375z"/>
   <path class="fil2" d="M1049 1547c0,0 -320,18 -415,-135 -95,-153 -171,-259 -248,-255 -37,2 -85,23 -110,83 16,-8 31,-11 46,-12 76,-4 153,102 248,255 95,153 415,135 415,135 0,0 95,280 73,375 -4,17 -14,37 -28,58 48,-43 84,-93 93,-129 22,-95 -73,-375 -73,-375z"/>
   <path class="fil3" d="M4817 4633c86,34 92,198 91,199 -49,51 -199,17 -200,15 -24,-30 -11,-125 -2,-160 14,-60 58,-75 111,-54z"/>
   <path class="fil3" d="M2064 4510c75,54 40,215 38,216 -60,37 -197,-34 -198,-36 -16,-35 -8,-117 9,-150 29,-54 105,-64 151,-31z"/>
   <path class="fil1 str0" d="M4244 868c1210,130 1580,571 1580,1476 0,646 -473,1213 -1185,1532 -35,100 -105,198 -91,299 9,68 35,186 78,259 52,88 217,430 76,457 -397,79 -822,-43 -822,-121 0,-134 -53,-253 -86,-386 -22,-91 -20,-120 -40,-209 -5,-22 -9,-39 -14,-54 -140,17 -284,26 -431,26 -418,0 -815,-73 -1165,-203 -10,34 -18,72 -24,116 -4,37 67,310 -192,686 -403,-14 -775,-108 -756,-184 34,-130 253,-514 255,-651 1,-68 -76,-301 -115,-457 -337,-306 -533,-692 -516,-1111 50,-1225 1429,-1917 2754,-1750 336,42 467,250 692,274z"/>
   <path class="fil2" d="M4230 860c818,88 1252,318 1447,737 -222,-338 -646,-530 -1376,-608 -225,-24 -356,-231 -692,-274 -1325,-167 -2704,525 -2754,1750 -9,215 39,422 133,614 -141,-226 -216,-478 -205,-742 50,-1225 1429,-1917 2754,-1750 336,42 467,250 692,274z"/>
   <path class="fil2" d="M6138 754c166,65 375,20 453,-177 77,-197 -29,-415 -195,-480 -166,-65 -156,99 -233,296 -77,197 -191,296 -25,361z"/>
   <path class="fil1" d="M6119 742c143,56 323,17 390,-152 67,-169 -25,-357 -168,-413 -143,-56 -134,85 -201,255 -67,169 -164,255 -21,311z"/>
   <path class="fil4" d="M6326 707c-145,35 -206,5 -229,-32 37,-374 504,-51 229,32z"/>
   <path class="fil1" d="M6369 781c175,270 283,512 83,1157 -19,62 11,299 -10,359 -239,700 -636,1115 -1304,1115 -726,0 -1301,-873 -1301,-1687 0,-1615 2078,-1643 2531,-944z"/>
   <path class="fil5" d="M5748 3521c9,78 56,144 177,143 121,-1 275,-20 266,-99 -7,-57 -79,-149 -98,-197 -7,-17 -179,19 -211,23 -60,6 -120,35 -141,45 -44,21 1,32 7,85z"/>
   <path class="fil3" d="M5731 3511c9,79 54,145 170,144 116,-1 264,-20 255,-99 -6,-57 -74,-132 -92,-181 -6,-17 -174,2 -204,6 -178,19 -137,52 -128,130z"/>
   <path class="fil2" d="M4483 3544c86,25 143,66 143,120 0,293 -191,461 -19,752 52,88 217,430 76,457 -29,6 -58,10 -88,14 0,-139 -95,-373 -132,-450 -43,-90 -69,-232 -78,-315 -14,-122 97,-353 97,-578z"/>
   <path class="fil5" d="M4965 3464c-10,78 -58,144 -183,143 -125,-1 -283,-20 -274,-99 7,-57 82,-149 101,-197 7,-16 185,19 217,23 62,6 124,35 145,45 45,21 -1,32 -8,85z"/>
   <path class="fil3" d="M4983 3453c-9,79 -55,145 -175,144 -120,-1 -272,-20 -263,-99 7,-57 76,-132 95,-181 6,-17 180,2 211,6 184,19 141,52 132,130z"/>
   <path class="fil2" d="M4840 3366c-583,-192 -1011,-938 -1011,-1640 0,-1313 1375,-1577 2132,-1254 -771,-265 -2039,29 -2039,1290 0,665 383,1368 918,1605z"/>
   <path class="fil0" d="M5417 2366c380,-2 606,-313 1033,-185 291,87 291,373 291,574 0,389 -604,736 -1392,736 -789,0 -1435,-441 -1435,-826 0,-218 83,-511 409,-629 333,-120 753,332 1094,329z"/>
   <path class="fil2" d="M5181 3484c-710,-57 -1266,-462 -1266,-819 0,-218 83,-511 409,-629 75,-27 155,-25 237,-6 -37,1 -73,7 -108,20 -326,118 -409,411 -409,629 0,335 490,712 1137,804z"/>
   <path class="fil2" d="M2100 4055c-4,37 67,310 -192,686 -22,-1 -43,-2 -65,-3 153,-291 170,-526 167,-658 1,-56 -2,-99 -4,-127 21,-195 374,50 562,-447 66,-176 -265,-491 12,-396 31,11 -6,44 65,219 108,264 -53,326 -113,404 -100,132 -216,128 -355,152 -112,19 -70,111 -77,170z"/>
   <path class="fil0" d="M1321 3481c-127,-78 -212,-215 -212,-372 0,-163 91,-305 227,-381 -53,111 -83,247 -83,393 0,132 25,255 69,360z"/>
   <path class="fil0" d="M3756 4192c-58,-60 -90,-158 -78,-264 12,-111 68,-202 140,-247 -34,73 -59,163 -70,263 -10,90 -6,175 8,248z"/>
   <path class="fil3" d="M4996 4615c63,-11 82,110 68,170 -22,93 -127,53 -128,51 -24,-30 -38,-111 -29,-147 14,-60 27,-63 90,-74z"/>
   <path class="fil3" d="M4611 4623c91,1 69,159 71,222 -55,21 -130,1 -131,-1 -24,-30 -38,-111 -29,-147 14,-60 -2,-75 90,-74z"/>
   <path class="fil3" d="M4662 4657c63,-11 82,110 68,170 -22,93 -127,53 -128,51 -24,-30 -38,-111 -29,-147 14,-60 27,-63 90,-74z"/>
   <path class="fil3" d="M4483 4675c86,34 92,198 91,199 -49,51 -199,17 -200,15 -24,-30 -11,-125 -2,-160 14,-60 58,-75 111,-54z"/>
   <path class="fil3" d="M4277 4664c91,1 69,159 71,222 -55,21 -130,1 -131,-1 -24,-30 -38,-111 -29,-147 14,-60 -2,-75 90,-74z"/>
   <path class="fil3" d="M2287 4556c46,33 67,119 38,173 -45,84 -197,10 -197,8 -16,-35 -8,-117 9,-150 29,-54 105,-64 151,-31z"/>
   <path class="fil3" d="M1930 4525c46,33 67,119 38,173 -45,84 -197,10 -197,8 -16,-35 -8,-117 9,-150 29,-54 105,-64 151,-31z"/>
   <path class="fil3" d="M1704 4492c75,54 40,215 38,216 -60,37 -197,-34 -198,-36 -16,-35 -8,-117 9,-150 29,-54 105,-64 151,-31z"/>
   <path class="fil3" d="M1488 4456c75,54 40,215 38,216 -60,37 -197,-34 -198,-36 -16,-35 -8,-117 9,-150 29,-54 105,-64 151,-31z"/>
   <path class="fil2" d="M4305 905c-166,65 -375,20 -453,-177 -77,-197 29,-415 195,-480 166,-65 156,99 233,296 77,197 191,296 25,361z"/>
   <path class="fil1" d="M4324 893c-143,56 -323,17 -390,-152 -67,-169 25,-357 168,-413 143,-56 134,85 201,255 67,169 164,255 21,311z"/>
   <path class="fil4" d="M4117 857c145,35 206,5 229,-32 -37,-374 -504,-51 -229,32z"/>
   <path class="fil6" d="M6103 2691c2,-24 -209,-281 -277,-219 -346,322 218,392 89,166 -153,-269 186,76 188,53z"/>
   <path class="fil4" d="M6081 2686c1,-21 -186,-249 -245,-194 -307,286 193,348 79,147 -136,-238 165,68 166,47z"/>
   <ellipse class="fil2" transform="matrix(1.34845 -0.108809 0.108809 1.34845 4971.45 1488.67)" rx="175" ry="287"/>
   <ellipse class="fil2" transform="matrix(1.34728 0.122421 -0.122421 1.34728 5816.17 1460.03)" rx="175" ry="287"/>
   <ellipse class="fil7" transform="matrix(0.886067 -0.0514265 0.0514265 0.886067 5789.6 1540.63)" rx="175" ry="287"/>
   <ellipse class="fil7" transform="matrix(0.886067 -0.0514265 0.0514265 0.886067 4992.94 1537.01)" rx="175" ry="287"/>
   <ellipse class="fil8" cx="4960" cy="1667" rx="64" ry="92"/>
   <ellipse class="fil8" cx="5771" cy="1668" rx="66" ry="91"/>
   <path class="fil0" d="M4752 1026c0,0 38,-73 107,-116 70,-43 152,-45 168,-48 29,-7 -130,-218 -233,-31 -41,74 -42,195 -42,195z"/>
   <path class="fil0" d="M6040 1028c0,0 -44,-70 -118,-106 -73,-36 -156,-31 -172,-33 -30,-4 110,-229 229,-52 47,70 60,191 60,191z"/>
   <path class="fil6" d="M4678 2588c-2,-24 209,-281 277,-219 346,322 -218,392 -89,166 153,-269 -186,76 -188,53z"/>
   <path class="fil4" d="M4695 2583c-1,-21 186,-249 245,-194 307,286 -193,348 -79,147 136,-238 -165,68 -166,47z"/>
   <path class="fil9" d="M2476 3955c0,0 741,161 1056,134 315,-27 -118,100 -583,27 -465,-73 -614,-163 -594,-166 20,-4 122,5 122,5z"/>
  </g>
 </g>
</svg>
