<?xml version="1.0" encoding="UTF-8"?>
<!DOCTYPE svg PUBLIC "-//W3C//DTD SVG 1.1//EN" "http://www.w3.org/Graphics/SVG/1.1/DTD/svg11.dtd">
<!-- Creator: CorelDRAW X5 -->
<svg xmlns="http://www.w3.org/2000/svg" xml:space="preserve" width="300px" height="300px" style="shape-rendering:geometricPrecision; text-rendering:geometricPrecision; image-rendering:optimizeQuality; fill-rule:evenodd; clip-rule:evenodd"
viewBox="0 0 300 300"
 xmlns:xlink="http://www.w3.org/1999/xlink">
 <defs>
  <style type="text/css">
   <![CDATA[
    .str0 {stroke:#2B2A29;stroke-width:4.99961}
    .fil0 {fill:none}
   ]]>
  </style>
 </defs>
 <g id="Warstwa_x0020_1">
  <metadata id="CorelCorpID_0Corel-Layer"/>
  <g id="_234440184">
   <path class="fil0 str0" d="M146 136c0,-9 -7,-15 -16,-15 -9,0 -16,7 -16,15 0,17 15,31 33,31 18,0 33,-14 33,-31 0,-26 -22,-46 -49,-46 -27,0 -49,21 -49,46 0,34 29,62 66,62 36,0 66,-28 66,-62 0,-43 -37,-77 -82,-77 -45,0 -82,35 -82,77 0,51 44,93 98,93 54,0 98,-41 98,-93 0,-60 -51,-108 -115,-108 -63,0 -115,48 -115,108 0,68 59,123 131,123 72,0 131,-55 131,-123"/>
   <polygon class="fil0 str0" points="260,139 252,139 245,139 248,139 251,139 260,139 269,139 272,139 275,139 268,139 "/>
  </g>
 </g>
</svg>
