<?xml version="1.0" standalone="no"?>
<!DOCTYPE svg PUBLIC "-//W3C//DTD SVG 1.1//EN" "http://www.w3.org/Graphics/SVG/1.1/DTD/svg11.dtd">
<svg xmlns="http://www.w3.org/2000/svg">
<metadata>Copyright (C) 2015 by original authors @ fontello.com</metadata>
<defs>
<font id="font-calendars" horiz-adv-x="1000" >
<font-face font-family="font-calendars" font-weight="400" font-stretch="normal" units-per-em="1000" ascent="850" descent="-150" />
<missing-glyph horiz-adv-x="1000" />
<glyph glyph-name="forward" unicode="&#xe800;" d="m1000 493q0-15-11-25l-285-286q-11-11-25-11t-26 11-10 25v143h-125q-55 0-98-3t-86-12-74-24-59-39-45-56-27-77-10-101q0-31 3-69 0-4 2-13t1-15q0-8-5-14t-13-6q-9 0-15 10-4 5-8 12t-7 17-6 13q-71 159-71 252 0 111 30 186 90 225 488 225h125v143q0 14 10 25t26 10 25-10l285-286q11-11 11-25z" horiz-adv-x="1000" />
<glyph glyph-name="reply" unicode="&#xe801;" d="m1000 225q0-93-71-252-2-4-6-13t-7-17-8-12q-6-10-15-10-9 0-13 6t-5 14q0 5 1 15t2 13q3 38 3 69 0 56-10 101t-27 77-45 56-59 39-74 24-86 12-98 3h-125v-143q0-14-10-25t-26-11-25 11l-285 286q-11 10-11 25t11 25l285 286q11 10 25 10t26-10 10-25v-143h125q398 0 488-225 30-75 30-186z" horiz-adv-x="1000" />
<glyph glyph-name="paste" unicode="&#xe802;" d="m429-79h500v358h-233q-22 0-38 15t-15 38v232h-214v-643z m142 804v36q0 7-5 12t-12 6h-393q-7 0-13-6t-5-12v-36q0-7 5-13t13-5h393q7 0 12 5t5 13z m143-375h167l-167 167v-167z m286-71v-375q0-23-16-38t-38-16h-535q-23 0-38 16t-16 38v89h-303q-23 0-38 16t-16 37v750q0 23 16 38t38 16h607q22 0 38-16t15-38v-183q12-7 20-15l228-228q16-16 27-42t11-50z" horiz-adv-x="1000" />
<glyph glyph-name="cut" unicode="&#xe803;" d="m536 350q14 0 25-11t10-25-10-25-25-10-25 10-11 25 11 25 25 11z m167-36l283-222q16-11 14-31-3-20-20-28l-71-36q-7-4-16-4-10 0-17 4l-385 216-62-37q-4-2-7-2 8-28 6-54-4-43-31-83t-74-69q-74-47-154-47-76 0-124 44-51 47-44 116 4 42 31 82t73 69q74 47 155 47 46 0 84-18 5 8 13 13l68 40-68 41q-8 5-13 12-38-17-84-17-81 0-155 47-46 29-73 69t-31 82q-3 33 8 63t36 52q47 44 124 44 80 0 154-47 46-29 74-68t31-83q2-27-6-54 3-1 7-3l62-37 385 216q7 5 17 5 9 0 16-4l71-36q17-9 20-28 2-20-14-32z m-380 145q26 24 12 61t-59 65q-52 33-107 33-42 0-63-20-26-24-12-60t59-66q51-33 107-33 41 0 63 20z m-47-415q45 28 59 65t-12 60q-22 20-63 20-56 0-107-33-45-28-59-65t12-60q21-20 63-20 55 0 107 33z m99 342l54-33v7q0 20 18 31l8 4-44 26-15-14q-1-2-5-6t-7-7q-1-1-2-2t-2-1z m125-125l54-18 410 321-71 36-429-240v-64l-89-53 5-5q1-1 4-3 2-2 6-7t6-6l15-15z m393-232l71 35-290 228-99-77q-1-2-7-4z" horiz-adv-x="1000" />
<glyph glyph-name="docs" unicode="&#xe804;" d="m946 636q23 0 38-16t16-38v-678q0-23-16-38t-38-16h-535q-23 0-38 16t-16 38v160h-303q-23 0-38 16t-16 38v375q0 22 11 49t27 42l228 228q15 16 42 27t49 11h232q23 0 38-16t16-38v-183q38 23 71 23h232z m-303-119l-167-167h167v167z m-357 214l-167-167h167v167z m109-361l176 176v233h-214v-233q0-22-15-38t-38-15h-233v-357h286v143q0 22 11 49t27 42z m534-449v643h-215v-232q0-22-15-38t-38-15h-232v-358h500z" horiz-adv-x="1000" />
<glyph glyph-name="picture" unicode="&#xe805;" d="m0-68l0 836 1000 0 0-836-1000 0z m76 78l848 0 0 680-848 0 0-680z m90 80l0 59 150 195 102-86 193 291 223-228 0-231-668 0z m0 416q0 37 24 62t62 24q33 0 58-24t24-62q0-33-24-57t-58-25q-37 0-62 25t-24 57z" horiz-adv-x="1000" />
<glyph glyph-name="show-all" unicode="&#xe806;" d="m286 154v-108q0-22-16-37t-38-16h-178q-23 0-38 16t-16 37v108q0 22 16 38t38 15h178q22 0 38-15t16-38z m0 285v-107q0-22-16-38t-38-15h-178q-23 0-38 15t-16 38v107q0 23 16 38t38 16h178q22 0 38-16t16-38z m357-285v-108q0-22-16-37t-38-16h-178q-23 0-38 16t-16 37v108q0 22 16 38t38 15h178q23 0 38-15t16-38z m-357 571v-107q0-22-16-38t-38-16h-178q-23 0-38 16t-16 38v107q0 22 16 38t38 16h178q22 0 38-16t16-38z m357-286v-107q0-22-16-38t-38-15h-178q-23 0-38 15t-16 38v107q0 23 16 38t38 16h178q23 0 38-16t16-38z m357-285v-108q0-22-16-37t-38-16h-178q-22 0-38 16t-16 37v108q0 22 16 38t38 15h178q23 0 38-15t16-38z m-357 571v-107q0-22-16-38t-38-16h-178q-23 0-38 16t-16 38v107q0 22 16 38t38 16h178q23 0 38-16t16-38z m357-286v-107q0-22-16-38t-38-15h-178q-22 0-38 15t-16 38v107q0 23 16 38t38 16h178q23 0 38-16t16-38z m0 286v-107q0-22-16-38t-38-16h-178q-22 0-38 16t-16 38v107q0 22 16 38t38 16h178q23 0 38-16t16-38z" horiz-adv-x="1000" />
<glyph glyph-name="font" unicode="&#xe807;" d="m405 538l-95-251q18 0 76-1t89-1q11 0 32 1-48 141-102 252z m-405-617l1 44q13 4 31 7t32 6 28 8 25 17 17 28l132 344 156 404h72q4-8 6-12l114-268q19-44 60-144t63-153q9-19 33-81t40-94q11-25 19-31 11-9 49-17t47-11q4-22 4-32 0-2-1-7t0-8q-35 0-106 5t-107 4q-42 0-120-4t-99-4q0 24 2 43l73 16q1 0 7 1t9 2 8 3 9 4 6 4 5 6 1 8q0 9-17 54t-40 99-24 56l-251 1q-14-33-43-109t-28-91q0-12 8-21t24-14 27-7 32-5 23-2q1-11 1-32 0-5-2-16-32 0-97 6t-97 6q-5 0-15-3t-12-2q-45-8-105-8z" horiz-adv-x="928.6" />
<glyph glyph-name="help-circled" unicode="&#xe808;" d="m500 82v107q0 8-5 13t-13 5h-107q-8 0-13-5t-5-13v-107q0-8 5-13t13-5h107q8 0 13 5t5 13z m143 375q0 49-31 91t-77 65-95 23q-136 0-207-119-9-14 4-24l74-55q4-4 10-4 9 0 14 7 30 38 48 51 19 14 48 14 27 0 48-15t21-33q0-21-11-34t-38-25q-35-16-65-48t-29-70v-20q0-8 5-13t13-5h107q8 0 13 5t5 13q0 10 12 27t30 28q18 10 28 16t25 19 25 27 16 34 7 45z m214-107q0-117-57-215t-156-156-215-58-216 58-155 156-58 215 58 215 155 156 216 58 215-58 156-156 57-215z" horiz-adv-x="857.1" />
<glyph glyph-name="eraser" unicode="&#xe809;" d="m500 64l188 215h-429l-188-215h429z m565 601q9-19 6-40t-17-36l-500-572q-22-24-54-24h-429q-21 0-38 11t-27 31q-8 19-5 40t17 36l500 572q21 24 53 24h429q21 0 39-11t26-31z" horiz-adv-x="1071.4" />
<glyph glyph-name="brush" unicode="&#xe80a;" d="m901 850q39 0 69-26t29-65q0-35-25-84-185-351-260-420-54-51-121-51-71 0-121 52t-51 122q0 72 52 119l356 323q33 30 72 30z m-507-577q22-42 59-73t84-42l1-40q2-119-72-193t-195-75q-68 0-121 26t-86 71-48 102-16 123q4-3 23-17t35-25 32-20 26-9q23 0 31 20 14 37 32 63t39 42 49 27 57 14 70 6z" horiz-adv-x="1000" />
<glyph glyph-name="eye-off" unicode="&#xe80b;" d="m310 105l43 79q-48 35-76 88t-27 114q0 67 34 125-128-65-213-197 94-144 239-209z m217 424q0 11-8 19t-19 7q-70 0-120-50t-50-119q0-12 8-19t19-8 19 8 8 19q0 48 34 82t82 34q11 0 19 8t8 19z m202 106q0-4 0-5-59-105-176-316t-176-316l-28-50q-5-9-15-9-7 0-75 39-9 6-9 16 0 7 25 49-80 36-147 96t-117 137q-11 17-11 38t11 39q86 131 212 207t277 76q50 0 100-10l31 54q5 9 15 9 3 0 10-3t18-9 18-10 18-10 10-7q9-5 9-15z m21-249q0-78-44-142t-117-92l157 281q4-26 4-47z m250-72q0-19-11-38-22-36-61-81-84-96-194-149t-234-53l41 74q119 10 219 76t169 171q-65 100-158 164l35 63q53-36 102-86t81-102q11-19 11-39z" horiz-adv-x="1000" />
<glyph glyph-name="frame" unicode="&#xe80c;" d="m23 850c-13 0-23-10-23-23v-333c0-12 10-22 23-22h39c13 0 23 10 23 22v248c0 13 10 23 23 23h248c12 0 23 10 23 23v39c0 13-11 23-23 23h-333z m977-218v42 153c0 13-10 23-23 23h-112-21-200c-12 0-22-10-22-23v-39c0-13 10-23 22-23h200 21 27c13 0 23-10 23-23v-68-42-138c0-12 10-22 23-22h39c13 0 23 10 23 22v138z m-977-782h333c12 0 23 10 23 23v39c0 13-11 23-23 23h-248c-13 0-23 10-23 23v248c0 12-10 23-23 23h-39c-13 0-23-11-23-23v-333c0-13 10-23 23-23z m621 0h333c13 0 23 10 23 23v333c0 12-10 23-23 23h-39c-13 0-23-11-23-23v-248c0-13-10-23-23-23h-248c-12 0-22-10-22-23v-39c0-13 10-23 22-23z m109 142c12 0 22 10 22 23v71c0 39-12 78-34 110-24 36-59 55-96 75-24 13-46 31-57 56 69 33 117 103 117 185 0 113-92 204-205 204s-205-91-205-204c0-82 48-152 117-185-11-25-33-43-57-56-37-20-72-39-96-75-22-32-34-71-34-110v-71c0-13 10-23 22-23h253 253l0 0z" horiz-adv-x="1000" />
<glyph glyph-name="frame2" unicode="&#xe80d;" d="m154 641c0 25 21 46 46 46h600c25 0 46-21 46-46v-600c0-26-21-46-46-46h-600c-25 0-46 20-46 46v600z m-137 85c0 0 4-4 9-9 5-5 26-14 37-31 7-10 10-22 10-35 0-14-5-27-14-37-14-18-42-29-49-40-5-7-8-15-8-23 0-8 3-16 8-23 8-12 37-23 50-40 8-11 13-24 13-37 0-14-5-27-14-38-14-18-42-29-49-40-5-7-8-15-8-22 0-9 3-17 8-24 8-12 37-23 50-40 8-11 13-24 13-37 0-14-5-27-14-38-14-18-42-29-49-40-5-7-8-14-8-22 0-9 3-17 8-24 8-11 37-23 50-40 8-11 13-23 13-37 0-13-3-24-9-34-11-16-31-26-37-32l-10-10c-23-23-23-60 0-83l23-22c11-12 26-17 41-17 15 0 30 5 41 17 0 0 6 6 13 13 7 7 19 27 34 34 9 5 20 6 31 6 14 0 26-4 37-12 17-14 29-42 40-50 7-5 15-7 23-7 9 0 16 2 24 7 11 8 22 36 40 50 10 8 23 12 37 12 14 0 26-4 37-12 17-14 29-42 40-50 7-5 15-7 23-7 8 0 16 2 24 7 11 8 22 36 40 50 10 8 23 12 37 12 14 0 26-4 37-12 17-14 29-42 40-50 7-5 15-7 23-7 8 0 16 2 23 7 12 8 23 36 41 50 10 8 23 12 37 12 12 0 24-3 34-9 17-12 26-32 30-36l8-8c11-12 26-17 41-17 15 0 30 5 42 17l22 22c23 23 23 60 0 83 0 0-6 6-13 13-7 7-26 19-32 34-4 8-5 18-5 29 0 14 4 26 12 37 14 17 42 29 50 40 5 7 8 15 8 24 0 8-3 15-7 22-7 11-36 22-50 40-9 11-13 24-13 38 0 13 4 26 12 37 14 17 42 28 50 40 5 7 8 15 8 24 0 8-3 15-7 22-8 11-36 23-50 40-9 11-13 24-13 38 0 13 4 26 12 36 14 18 42 29 50 41 5 7 8 15 8 23 0 8-3 16-7 23-8 11-36 22-50 40-9 10-13 23-13 37 0 11 1 22 6 31 8 15 27 26 33 32l11 12c23 22 23 59 0 82l-22 23c-12 11-27 17-42 17-15 0-30-6-41-17 0 0-4-4-8-8-5-5-14-25-31-35-10-7-21-9-33-9-14 0-27 4-38 13-17 14-29 42-40 50-7 5-15 7-23 7-8 0-16-2-23-7-11-8-22-36-40-50-10-9-23-13-37-13-14 0-27 4-38 13-17 14-29 42-40 50-7 5-15 7-23 7-8 0-16-2-23-7-11-8-22-36-40-50-10-9-23-13-37-13s-27 4-38 13c-17 14-28 42-40 50-7 5-15 7-23 7-8 0-15-2-22-7-12-8-23-36-40-50-11-9-24-13-38-13-11 0-20 1-29 5-15 6-28 26-35 33l-14 14c-11 11-26 17-41 17-15 0-30-6-41-17l-23-23c-23-23-23-60 0-82" horiz-adv-x="1000" />
<glyph glyph-name="mask" unicode="&#xe80e;" d="m0 195v312q0 8 9 13t21 5 20-5 9-13v-313q0-7-9-13t-20-6-21 6-9 13z m124-59v428q0 8 9 14t21 6q11 0 20-6t9-14v-428q0-8-9-13t-20-6q-12 0-21 6t-9 13z m141-39v507q0 15 11 26t27 12h477q16 0 27-12t12-26v-507q0-15-12-27t-27-11h-477q-16 0-27 11t-11 27z m87 49h379v409h-379v-409z m549-10v428q0 8 8 14t21 6 21-6 8-14v-428q0-8-8-13t-21-6-21 6-8 13z m124 59v312q0 8 9 13t20 5 21-5 8-13v-313q0-7-8-13t-21-6-20 6-9 13z" horiz-adv-x="1083.5" />
<glyph glyph-name="enhance" unicode="&#xe80f;" d="m866 627l-92 91c-5 6-12 9-19 9-7 0-14-3-20-9l-727-727c-11-11-11-28 0-39l92-91c5-6 12-8 19-8 7 0 14 2 20 8l727 727c11 11 11 28 0 39z m41-367h-124v110c0 16-12 28-28 28-15 0-27-12-27-28v-110h-119c-15 0-27-12-27-27 0-16 12-28 27-28h119v-110c0-15 12-28 27-28 16 0 28 13 28 28v110h124c15 0 28 12 28 28 0 15-13 27-28 27z m-669 324h119v-110c0-15 12-27 27-27 16 0 28 12 28 27v110h124c15 0 28 13 28 28 0 15-13 28-28 28h-124v110c0 15-12 27-28 27-15 0-27-12-27-27v-110h-119c-15 0-27-13-27-28 0-15 12-28 27-28z m327 148h37v-33c0-15 12-28 27-28 16 0 28 13 28 28v33h39c15 0 28 12 28 27 0 16-13 28-28 28h-39v33c0 15-12 27-28 27-15 0-27-12-27-27v-33h-37c-15 0-27-12-27-28 0-15 12-27 27-27z m407-230h-39v33c0 15-12 27-27 27-15 0-28-12-28-27v-33h-36c-16 0-28-12-28-28 0-15 12-27 28-27h36v-33c0-15 13-28 28-28 15 0 27 13 27 28v33h39c16 0 28 12 28 27s-12 28-28 28z" horiz-adv-x="1000" />
<glyph glyph-name="garden" unicode="&#xe810;" d="m165 750c-13 0-15-28-15-50l0-100c0-102 100-153 200-150l0-400c-50 100-200 250-350 200 0 0 125-300 375-300s375 300 375 300c-150 50-300-100-350-200l0 400c100-3 200 48 200 150l0 100c0 22-2 50-15 50-10 0-21-11-35-25l-75-75-75 84c-8 9-12 16-25 16-13 0-17-7-25-16l-75-84-75 75c-14 14-25 25-35 25z" horiz-adv-x="750" />
<glyph glyph-name="left-open" unicode="&#xe811;" d="m653 682l-296-296 296-297q11-10 11-25t-11-25l-92-93q-11-10-25-10t-25 10l-414 415q-11 10-11 25t11 25l414 414q10 10 25 10t25-10l92-93q11-10 11-25t-11-25z" horiz-adv-x="714.3" />
<glyph glyph-name="right-open" unicode="&#xe812;" d="m618 361l-414-415q-11-10-25-10t-26 10l-92 93q-11 11-11 25t11 25l296 297-296 296q-11 11-11 25t11 25l92 93q11 10 26 10t25-10l414-414q10-11 10-25t-10-25z" horiz-adv-x="714.3" />
<glyph glyph-name="save" unicode="&#xe815;" d="m714 100q0 15-10 25t-25 11-26-11-10-25 10-25 26-11 25 11 10 25z m143 0q0 15-10 25t-26 11-25-11-10-25 10-25 25-11 26 11 10 25z m72 125v-179q0-22-16-37t-38-16h-821q-23 0-38 16t-16 37v179q0 22 16 38t38 16h259l75-76q33-32 76-32t76 32l76 76h259q22 0 38-16t16-38z m-182 318q10-23-8-40l-250-250q-10-10-25-10t-25 10l-250 250q-17 17-8 40 10 21 33 21h143v250q0 15 11 25t25 11h143q14 0 25-11t10-25v-250h143q24 0 33-21z" horiz-adv-x="928.6" />
<glyph glyph-name="resize-vertical" unicode="&#xe817;" d="m241 239l0-167 112 0-167-169-168 169 112 0 0 167 111 0z m-111 223l0 168-112 0 168 167 167-167-112 0 0-168-111 0z" horiz-adv-x="370" />
<glyph glyph-name="view" unicode="&#xe818;" d="m986-66l-395 395c95 128 84 309-32 425-128 128-335 128-463 0s-128-335 0-463c116-116 297-126 425-32l395-395c19-19 50-19 70 0 19 20 19 51 0 70z m-496 427c-90-90-235-90-324 0-90 89-90 234 0 323 89 90 234 90 324 0 89-89 89-234 0-323z m-246 95h14v-32h-68v32h16v141l-22-18-9 34 38 27h31v-184z m113-7c0-15-10-25-25-25-14 0-24 11-24 25 0 15 10 26 25 26 13 0 23-11 24-26z m0 109c0-14-10-25-25-25-14 0-24 11-24 25 0 15 10 26 25 26 13 0 23-11 24-26z m125-102v-32h-67v32h14v141l-22-18-9 34 38 27h31v-184h15z" horiz-adv-x="1000" />
<glyph glyph-name="eye" unicode="&#xe819;" d="m0 350q6 49 64 110 79 80 176 129 129 60 260 60 137-2 260-60 103-53 176-129 64-73 64-110-6-49-64-109-79-80-176-129-129-61-260-61-137 2-260 61-103 53-176 129-64 72-64 109z m264 0q0-94 69-159t167-65 167 65 69 159-69 159-167 66-167-66-69-159z m86 1q0 60 44 102t106 42 106-42 44-102-44-102-106-43-106 43-44 102z" horiz-adv-x="1000" />
<glyph glyph-name="resize-full" unicode="&#xe81a;" d="m784 111l127 128 0-336-335 0 128 130-128 127 79 79z m-431 686l-129-127 128-127-80-80-126 128-128-129 0 335 335 0z m0-637l-129-127 129-130-335 0 0 336 128-128 128 128z m558 637l0-335-127 129-128-128-79 80 127 127-128 127 335 0z" horiz-adv-x="928" />
<glyph glyph-name="resize-horizontal" unicode="&#xe81b;" d="m353 294l-167 0 0-111-168 167 168 168 0-112 167 0 0-112z m223 112l168 0 0 112 167-168-167-167 0 111-168 0 0 112z" horiz-adv-x="928" />
<glyph glyph-name="basket" unicode="&#xe821;" d="m950 715q23 0 39-18t14-42l-53-365q-2-18-17-31t-34-12l-590 0 9-53 528 0q22 0 37-16t16-36-16-37-37-15l-572 0q-20 0-35 13t-16 30l-98 582-72 0q-22 0-37 15t-16 37 16 36 37 16l116 0q19 0 34-12t17-32l11-60 719 0z m-60-105l-200 0 0-103 185 0z m-252 0l-157 0 0-103 157 0 0 103z m0-156l-157 0 0-104 157 0 0 104z m-208 156l-182 0 18-105q3 2 8 2l156 0 0 103z m-156-156l17-104 139 0 0 104-156 0z m416-104l164 0 14 104-178 0 0-104z m-416-390q0 78 77 78 79 0 79-78 0-78-79-78-77 0-77 78z m469 0q0 78 77 78 79 0 79-78 0-78-79-78-77 0-77 78z" horiz-adv-x="1003" />
<glyph glyph-name="up-dir" unicode="&#xe822;" d="m571 171q0-14-10-25t-25-10h-500q-15 0-25 10t-11 25 11 26l250 250q10 10 25 10t25-10l250-250q10-11 10-26z" horiz-adv-x="571.4" />
<glyph glyph-name="down-dir" unicode="&#xe823;" d="m571 457q0-14-10-25l-250-250q-11-11-25-11t-25 11l-250 250q-11 11-11 25t11 25 25 11h500q14 0 25-11t10-25z" horiz-adv-x="571.4" />
<glyph glyph-name="eject" unicode="&#xe824;" d="m8 304l396 396q11 10 25 10t25-10l396-396q11-11 8-18t-18-8h-822q-14 0-17 8t7 18z m814-311h-786q-14 0-25 10t-10 26v142q0 15 10 26t25 10h786q14 0 25-10t11-26v-142q0-15-11-26t-25-10z" horiz-adv-x="858.3" />
</font>
</defs>
</svg>